packet 282 - 10.000000 - 68 (174.730000,101.100000) forward to 18 (211.539993,448.399994) using gf  
packet 282 - 10.006044 - 18 (211.540000,448.400000) forward to 37 (392.250000,538.400024) using gf  
packet 358 - 11.426920 - 68 (174.730000,101.100000) forward to 18 (211.539993,448.399994) using gf  
packet 358 - 11.428915 - 18 (211.540000,448.400000) forward to 37 (392.250000,538.400024) using gf  
packet 358 - 11.434267 - 37 (392.250000,538.400000) forward to 69 (603.049988,607.299988) using gf  
packet 359 - 12.317271 - 68 (174.730000,101.100000) forward to 18 (211.539993,448.399994) using gf  
packet 359 - 12.319607 - 18 (211.540000,448.400000) forward to 37 (392.250000,538.400024) using gf  
packet 359 - 12.322145 - 37 (392.250000,538.400000) forward to 69 (603.049988,607.299988) using gf  
packet 360 - 13.596424 - 68 (174.730000,101.100000) forward to 18 (211.539993,448.399994) using gf  
packet 360 - 13.598680 - 18 (211.540000,448.400000) forward to 37 (392.250000,538.400024) using gf  
packet 360 - 13.600938 - 37 (392.250000,538.400000) forward to 69 (603.049988,607.299988) using gf  
packet 361 - 14.311866 - 68 (174.730000,101.100000) forward to 18 (211.539993,448.399994) using gf  
packet 361 - 14.314122 - 18 (211.540000,448.400000) forward to 37 (392.250000,538.400024) using gf  
packet 361 - 14.316660 - 37 (392.250000,538.400000) forward to 69 (603.049988,607.299988) using gf  
packet 362 - 14.889938 - 68 (174.730000,101.100000) forward to 18 (211.539993,448.399994) using gf  
packet 362 - 14.891953 - 18 (211.540000,448.400000) forward to 37 (392.250000,538.400024) using gf  
packet 362 - 14.894531 - 37 (392.250000,538.400000) forward to 69 (603.049988,607.299988) using gf  
packet 433 - 15.681887 - 68 (174.730000,101.100000) forward to 18 (211.539993,448.399994) using gf  
packet 433 - 15.684182 - 18 (211.540000,448.400000) forward to 37 (392.250000,538.400024) using gf  
packet 433 - 15.686620 - 37 (392.250000,538.400000) forward to 69 (603.049988,607.299988) using gf  
packet 434 - 16.398954 - 68 (174.730000,101.100000) forward to 18 (211.539993,448.399994) using gf  
packet 434 - 16.400849 - 18 (211.540000,448.400000) forward to 37 (392.250000,538.400024) using gf  
packet 434 - 16.403227 - 37 (392.250000,538.400000) forward to 69 (603.049988,607.299988) using gf  
packet 435 - 17.370657 - 68 (174.730000,101.100000) forward to 18 (211.539993,448.399994) using gf  
packet 435 - 17.372972 - 18 (211.540000,448.400000) forward to 37 (392.250000,538.400024) using gf  
packet 435 - 17.375570 - 37 (392.250000,538.400000) forward to 69 (603.049988,607.299988) using gf  
packet 436 - 18.066958 - 68 (174.730000,101.100000) forward to 18 (211.539993,448.399994) using gf  
packet 436 - 18.069014 - 18 (211.540000,448.400000) forward to 3 (448.399994,649.482422) using gf  
packet 436 - 18.074307 - 3 (448.400000,621.517117) forward to 69 (603.049988,607.299988) using gf  
packet 437 - 18.708023 - 68 (174.730000,101.100000) forward to 18 (211.539993,448.399994) using gf  
packet 437 - 18.710038 - 18 (211.540000,448.400000) forward to 3 (448.399994,649.482422) using gf  
packet 437 - 18.712237 - 3 (448.400000,615.310061) forward to 69 (603.049988,607.299988) using gf  
packet 438 - 19.262226 - 68 (174.730000,101.100000) forward to 18 (211.539993,448.399994) using gf  
packet 438 - 19.264602 - 18 (213.820752,448.400000) forward to 3 (448.399994,649.482422) using gf  
packet 438 - 19.267181 - 3 (448.400000,609.899775) forward to 69 (603.049988,607.299988) using gf  
packet 501 - 20.436448 - 68 (174.730000,101.100000) forward to 57 (501.049988,178.399994) using gf  
packet 501 - 20.443067 - 57 (501.050000,178.400000) forward to 37 (392.250000,538.400024) using gf  
packet 501 - 20.445326 - 37 (392.250000,538.400000) forward to 69 (603.049988,607.299988) using gf  
packet 512 - 21.194711 - 68 (174.730000,101.100000) forward to 57 (501.049988,178.399994) using gf  
packet 512 - 21.196866 - 57 (501.050000,178.400000) forward to 37 (392.250000,538.400024) using gf  
packet 512 - 21.199426 - 37 (392.250000,538.400000) forward to 69 (603.049988,607.299988) using gf  
packet 513 - 22.242061 - 68 (174.730000,101.100000) forward to 57 (501.049988,178.399994) using gf  
packet 513 - 22.244277 - 57 (501.050000,178.400000) forward to 37 (392.250000,538.400024) using gf  
packet 513 - 22.246676 - 37 (392.250000,538.400000) forward to 69 (603.049988,607.299988) using gf  
packet 514 - 23.476423 - 68 (174.730000,101.100000) forward to 57 (501.049988,178.399994) using gf  
packet 514 - 23.478538 - 57 (501.050000,178.400000) forward to 37 (392.250000,538.400024) using gf  
packet 514 - 23.480818 - 37 (392.250000,538.400000) forward to 69 (603.049988,607.299988) using gf  
packet 515 - 24.209637 - 68 (174.730000,101.100000) forward to 57 (501.049988,178.399994) using gf  
packet 515 - 24.211933 - 57 (501.050000,178.400000) forward to 37 (392.250000,538.400024) using gf  
packet 515 - 24.214213 - 37 (392.250000,538.400000) forward to 69 (603.049988,607.299988) using gf  
packet 586 - 25.694215 - 68 (174.730000,101.100000) forward to 57 (501.049988,178.399994) using gf  
packet 586 - 25.696290 - 57 (501.050000,178.400000) forward to 37 (392.250000,538.400024) using gf  
packet 586 - 25.698730 - 37 (392.250000,538.400000) forward to 69 (603.049988,607.299988) using gf  
packet 587 - 26.607256 - 68 (174.730000,101.100000) forward to 57 (501.049988,178.399994) using gf  
packet 587 - 26.609671 - 57 (501.050000,178.400000) forward to 37 (392.250000,538.400024) using gf  
packet 587 - 26.612111 - 37 (392.250000,538.400000) forward to 69 (603.049988,607.299988) using gf  
packet 588 - 27.716189 - 68 (174.730000,101.100000) forward to 57 (501.049988,178.399994) using gf  
packet 588 - 27.718625 - 57 (501.050000,178.400000) forward to 37 (392.250000,538.400024) using gf  
packet 588 - 27.720804 - 37 (392.250000,538.400000) forward to 69 (603.049988,607.299988) using gf  
packet 589 - 28.953600 - 68 (174.730000,101.100000) forward to 57 (501.049988,178.399994) using gf  
packet 589 - 28.955975 - 57 (501.050000,178.400000) forward to 37 (392.250000,538.400024) using gf  
packet 589 - 28.958275 - 37 (392.250000,538.400000) forward to 69 (603.049988,607.299988) using gf  
packet 657 - 30.438223 - 68 (174.730000,101.100000) forward to 57 (501.049988,178.399994) using gf  
packet 657 - 30.441266 - 57 (501.050000,178.400000) forward to 37 (392.250000,538.400024) using gf  
packet 657 - 30.443726 - 37 (392.250000,538.400000) forward to 69 (603.049988,607.299988) using gf  
packet 667 - 30.992832 - 68 (174.730000,101.100000) forward to 57 (501.049988,178.399994) using gf  
packet 667 - 30.995228 - 57 (501.050000,178.400000) forward to 37 (392.250000,538.400024) using gf  
packet 667 - 30.997688 - 37 (392.250000,538.400000) forward to 69 (603.049988,607.299988) using gf  
packet 668 - 32.199434 - 68 (174.730000,101.100000) forward to 57 (501.049988,178.399994) using gf  
packet 668 - 32.201429 - 57 (501.050000,178.400000) forward to 37 (392.250000,538.400024) using gf  
packet 668 - 32.203869 - 37 (392.250000,538.400000) forward to 69 (603.049988,607.299988) using gf  
packet 669 - 33.387945 - 68 (174.730000,101.100000) forward to 57 (501.049988,178.399994) using gf  
packet 669 - 33.389940 - 57 (501.050000,178.400000) forward to 37 (392.250000,538.400024) using gf  
packet 669 - 33.392240 - 37 (392.250000,538.400000) forward to 69 (603.049988,607.299988) using gf  
packet 670 - 34.408264 - 68 (174.730000,101.100000) forward to 57 (501.049988,178.399994) using gf  
packet 670 - 34.410559 - 57 (501.050000,178.400000) forward to 37 (392.250000,538.400024) using gf  
packet 670 - 34.412679 - 37 (392.250000,538.400000) forward to 69 (603.049988,607.299988) using gf  
packet 699 - 35.235904 - 68 (174.730000,101.100000) forward to 57 (501.049988,178.399994) using gf  
packet 699 - 35.238159 - 57 (501.050000,178.400000) forward to 37 (392.250000,538.400024) using gf  
packet 699 - 35.240299 - 37 (392.250000,538.400000) forward to 69 (603.049988,607.299988) using gf  
packet 742 - 35.922159 - 68 (174.730000,101.100000) forward to 57 (501.049988,178.399994) using gf  
packet 742 - 35.924354 - 57 (501.050000,178.400000) forward to 37 (392.250000,538.400024) using gf  
packet 742 - 35.926634 - 37 (392.250000,538.400000) forward to 69 (603.049988,607.299988) using gf  
packet 743 - 36.878329 - 68 (174.730000,101.100000) forward to 57 (501.049988,178.399994) using gf  
packet 743 - 36.880464 - 57 (501.050000,178.400000) forward to 37 (392.250000,538.400024) using gf  
packet 743 - 36.882664 - 37 (392.250000,538.400000) forward to 69 (603.049988,607.299988) using gf  
packet 744 - 38.087869 - 68 (174.730000,101.100000) forward to 57 (501.049988,178.399994) using gf  
packet 744 - 38.090245 - 57 (501.050000,178.400000) forward to 37 (392.250000,538.400024) using gf  
packet 744 - 38.092424 - 37 (393.324739,538.400000) forward to 69 (603.049988,607.299988) using gf  
packet 745 - 38.969465 - 68 (174.730000,101.100000) forward to 57 (501.049988,178.399994) using gf  
packet 745 - 38.971860 - 57 (501.050000,178.400000) forward to 37 (392.250000,538.400024) using gf  
packet 745 - 38.974040 - 37 (403.577928,538.400000) forward to 69 (603.049988,607.299988) using gf  
packet 762 - 40.121810 - 68 (174.730000,101.100000) forward to 57 (501.049988,178.399994) using gf  
packet 762 - 40.124165 - 57 (501.050000,178.400000) forward to 37 (392.250000,538.400024) using gf  
packet 762 - 40.126425 - 37 (416.439489,538.400000) forward to 69 (603.049988,607.299988) using gf  
packet 819 - 40.902022 - 68 (174.730000,101.100000) forward to 57 (501.049988,178.399994) using gf  
packet 819 - 40.904417 - 57 (501.050000,178.400000) forward to 63 (511.720001,451.600006) using gf  
packet 819 - 40.909311 - 63 (511.720000,451.600000) forward to 69 (603.049988,607.299988) using gf  
packet 820 - 41.975690 - 68 (174.730000,101.100000) forward to 57 (501.049988,178.399994) using gf  
packet 820 - 41.977665 - 57 (501.050000,178.400000) forward to 63 (511.720001,451.600006) using gf  
packet 820 - 41.979804 - 63 (511.720000,451.600000) forward to 69 (603.049988,607.299988) using gf  
packet 821 - 42.709002 - 68 (174.730000,101.100000) forward to 57 (501.049988,178.399994) using gf  
packet 821 - 42.711377 - 57 (501.050000,178.400000) forward to 63 (511.720001,451.600006) using gf  
packet 821 - 42.713836 - 63 (511.720000,451.600000) forward to 69 (603.049988,607.299988) using gf  
packet 822 - 43.269464 - 68 (174.730000,101.100000) forward to 57 (501.049988,178.399994) using gf  
packet 822 - 43.271740 - 57 (501.050000,178.400000) forward to 63 (511.720001,451.600006) using gf  
packet 822 - 43.273919 - 63 (511.720000,451.600000) forward to 69 (603.049988,607.299988) using gf  
packet 823 - 44.341353 - 68 (174.730000,101.100000) forward to 57 (501.049988,178.399994) using gf  
packet 823 - 44.343408 - 57 (501.050000,178.400000) forward to 63 (511.720001,451.600006) using gf  
packet 823 - 44.345647 - 63 (511.720000,451.600000) forward to 69 (603.049988,607.299988) using gf  
packet 824 - 44.863381 - 68 (174.730000,101.100000) forward to 57 (501.049988,178.399994) using gf  
packet 824 - 44.865256 - 57 (501.050000,178.400000) forward to 63 (511.720001,451.600006) using gf  
packet 824 - 44.867435 - 63 (511.720000,451.600000) forward to 69 (603.049988,607.299988) using gf  
packet 895 - 46.304691 - 68 (174.730000,101.100000) forward to 57 (501.049988,178.399994) using gf  
packet 895 - 46.307046 - 57 (501.050000,178.400000) forward to 63 (511.720001,451.600006) using gf  
packet 895 - 46.309625 - 63 (511.720000,451.600000) forward to 69 (603.049988,607.299988) using gf  
packet 896 - 46.845012 - 68 (174.730000,101.100000) forward to 57 (501.049988,178.399994) using gf  
packet 896 - 46.847388 - 57 (501.050000,178.400000) forward to 63 (511.720001,451.600006) using gf  
packet 896 - 46.849706 - 63 (511.720000,451.600000) forward to 69 (603.049988,607.299988) using gf  
packet 897 - 47.983553 - 68 (174.730000,101.100000) forward to 57 (501.049988,178.399994) using gf  
packet 897 - 47.985568 - 57 (501.050000,178.400000) forward to 63 (511.720001,451.600006) using gf  
packet 897 - 47.988247 - 63 (511.720000,451.600000) forward to 69 (603.049988,607.299988) using gf  
packet 898 - 48.705107 - 68 (174.730000,101.100000) forward to 57 (501.049988,178.399994) using gf  
packet 898 - 48.707522 - 57 (501.050000,178.400000) forward to 63 (511.720001,451.600006) using gf  
packet 898 - 48.709841 - 63 (511.720000,451.600000) forward to 69 (603.049988,607.299988) using gf  
packet 899 - 49.315428 - 68 (174.730000,101.100000) forward to 57 (501.049988,178.399994) using gf  
packet 899 - 49.317764 - 57 (501.050000,178.400000) forward to 63 (511.720001,451.600006) using gf  
packet 899 - 49.320402 - 63 (511.720000,451.600000) forward to 69 (603.049988,607.299988) using gf  
packet 974 - 50.530126 - 68 (174.730000,101.100000) forward to 2 (275.740570,447.695404) using gf  
packet 974 - 50.535097 - 2 (276.952083,447.905696) forward to 69 (603.049988,607.299988) using gf  
packet 975 - 51.652721 - 68 (174.730000,101.100000) forward to 2 (275.740570,447.695404) using gf  
packet 975 - 51.654697 - 2 (285.423729,448.400000) forward to 69 (603.049988,607.299988) using gf  
packet 976 - 52.365270 - 68 (174.730000,101.100000) forward to 2 (275.740570,447.695404) using gf  
packet 976 - 52.367506 - 2 (291.675385,448.400000) forward to 69 (603.049988,607.299988) using gf  
packet 977 - 52.980270 - 68 (174.730000,101.100000) forward to 2 (275.740570,447.695404) using gf  
packet 977 - 52.982465 - 2 (297.173121,448.400000) forward to 69 (603.049988,607.299988) using gf  
packet 978 - 54.045611 - 68 (174.730000,101.100000) forward to 2 (275.740570,447.695404) using gf  
packet 978 - 54.047467 - 2 (307.592337,448.400000) forward to 69 (603.049988,607.299988) using gf  
packet 991 - 55.101489 - 68 (174.730000,101.100000) forward to 2 (275.740570,447.695404) using gf  
packet 991 - 55.103484 - 2 (317.002621,448.400000) forward to 69 (603.049988,607.299988) using gf  
packet 1050 - 55.791966 - 68 (174.730000,101.100000) forward to 29 (541.599976,236.736984) using gf  
packet 1051 - 56.365596 - 68 (174.730000,101.100000) forward to 29 (541.599976,236.736984) using gf  
packet 1052 - 57.506834 - 68 (174.730000,101.100000) forward to 29 (541.599976,236.736984) using gf  
packet 1053 - 58.367413 - 68 (174.730000,101.100000) forward to 29 (541.599976,236.736984) using gf  
packet 1054 - 59.004194 - 68 (174.730000,101.100000) forward to 29 (541.599976,236.736984) using gf  
packet 1055 - 59.605777 - 68 (174.730000,101.100000) forward to 29 (541.599976,236.736984) using gf  
packet 1129 - 60.775465 - 68 (174.730000,101.100000) forward to 29 (541.599976,236.736984) using gf  
packet 1130 - 62.101581 - 68 (174.730000,101.100000) forward to 29 (541.599976,236.736984) using gf  
packet 1131 - 62.683542 - 68 (174.730000,101.100000) forward to 29 (541.599976,236.736984) using gf  
packet 1132 - 63.609871 - 68 (174.730000,101.100000) forward to 29 (541.599976,236.736984) using gf  
packet 1133 - 64.687280 - 68 (174.730000,101.100000) forward to 29 (541.599976,236.736984) using gf  
packet 1156 - 65.198391 - 68 (174.730000,101.100000) forward to 29 (541.599976,236.736984) using gf  
packet 1205 - 66.683005 - 68 (174.730000,101.100000) forward to 29 (541.599976,236.736984) using gf  
packet 1206 - 67.459760 - 68 (174.730000,101.100000) forward to 29 (541.599976,236.736984) using gf  
packet 1207 - 67.999255 - 68 (174.730000,101.100000) forward to 29 (541.599976,236.736984) using gf  
packet 1208 - 68.564657 - 68 (174.730000,101.100000) forward to 29 (541.599976,236.736984) using gf  
packet 1209 - 69.950177 - 68 (174.730000,101.100000) forward to 29 (541.599976,236.736984) using gf  
packet 1287 - 71.357860 - 68 (174.730000,101.100000) forward to 36 (361.600006,352.696167) using gf  
packet 1287 - 71.363151 - 36 (361.600000,363.733545) forward to 69 (603.049988,607.299988) using gf  
packet 1288 - 72.459172 - 68 (174.730000,101.100000) forward to 36 (361.600006,352.696167) using gf  
packet 1288 - 72.461347 - 36 (361.600000,374.069575) forward to 69 (603.049988,607.299988) using gf  
packet 1289 - 73.577113 - 68 (174.730000,101.100000) forward to 36 (361.600006,352.696167) using gf  
packet 1289 - 73.579368 - 36 (361.600000,384.467366) forward to 69 (603.049988,607.299988) using gf  
packet 1290 - 74.850129 - 68 (174.730000,101.100000) forward to 36 (361.600006,352.696167) using gf  
packet 1290 - 74.852445 - 36 (361.600000,395.941882) forward to 69 (603.049988,607.299988) using gf  
packet 1361 - 75.600830 - 68 (174.730000,101.100000) forward to 29 (541.599976,236.736984) using gf  
packet 1362 - 76.471331 - 68 (174.730000,101.100000) forward to 29 (541.599976,236.736984) using gf  
packet 1363 - 77.848461 - 68 (174.730000,101.100000) forward to 29 (541.599976,236.736984) using gf  
packet 1364 - 78.486386 - 68 (174.730000,101.100000) forward to 29 (541.599976,236.736984) using gf  
packet 1365 - 79.209241 - 68 (174.730000,101.100000) forward to 29 (541.599976,236.736984) using gf  
packet 1366 - 79.762528 - 68 (174.730000,101.100000) forward to 29 (541.599976,236.736984) using gf  
packet 1446 - 81.080490 - 68 (174.730000,101.100000) forward to 29 (541.599976,236.736984) using gf  
packet 1447 - 81.585184 - 68 (174.730000,101.100000) forward to 29 (541.599976,236.736984) using gf  
packet 1448 - 82.516105 - 68 (174.730000,101.100000) forward to 29 (541.599976,236.736984) using gf  
packet 1449 - 83.998341 - 68 (174.730000,101.100000) forward to 29 (541.599976,236.736984) using gf  
packet 1491 - 85.347183 - 68 (174.730000,101.100000) forward to 29 (541.599976,236.736984) using gf  
packet 1521 - 86.836007 - 68 (174.730000,101.100000) forward to 29 (541.599976,236.736984) using gf  
packet 1522 - 88.145326 - 68 (174.730000,101.100000) forward to 29 (541.599976,236.736984) using gf  
packet 1523 - 89.291510 - 68 (174.730000,101.100000) forward to 29 (541.599976,236.736984) using gf  
packet 1566 - 90.262469 - 68 (174.730000,101.100000) forward to 29 (541.599976,236.736984) using gf  
packet 1606 - 90.972540 - 68 (174.730000,101.100000) forward to 29 (541.599976,236.736984) using gf  
packet 1607 - 91.688146 - 68 (174.730000,101.100000) forward to 29 (541.599976,236.736984) using gf  
packet 1608 - 92.876074 - 68 (174.730000,101.100000) forward to 29 (541.599976,236.736984) using gf  
packet 1609 - 94.063283 - 68 (174.730000,101.100000) forward to 29 (541.599976,236.736984) using gf  
packet 1680 - 95.502725 - 68 (174.730000,101.100000) forward to 29 (541.599976,236.736984) using gf  
packet 1681 - 96.003589 - 68 (174.730000,101.100000) forward to 29 (541.599976,236.736984) using gf  
packet 1682 - 97.064016 - 68 (174.730000,101.100000) forward to 29 (541.599976,236.736984) using gf  
packet 1683 - 98.440690 - 68 (174.730000,101.100000) forward to 29 (541.599976,236.736984) using gf  
packet 1684 - 99.739008 - 68 (174.730000,101.100000) forward to 29 (541.599976,236.736984) using gf  
packet 1759 - 100.550404 - 68 (174.730000,101.100000) forward to 29 (541.599976,236.736984) using gf  
packet 1760 - 101.546756 - 68 (174.730000,101.100000) forward to 29 (541.599976,236.736984) using gf  
packet 1761 - 102.111206 - 68 (174.730000,101.100000) forward to 29 (541.599976,236.736984) using gf  
packet 1762 - 102.932953 - 68 (174.730000,101.100000) forward to 29 (541.599976,236.736984) using gf  
packet 1763 - 103.461453 - 68 (174.730000,101.100000) forward to 29 (541.599976,236.736984) using gf  
packet 1764 - 104.614309 - 68 (174.730000,101.100000) forward to 29 (541.599976,236.736984) using gf  
packet 1793 - 105.248121 - 68 (174.730000,101.100000) forward to 29 (541.599976,236.736984) using gf  
packet 1836 - 106.639961 - 68 (174.730000,101.100000) forward to 29 (541.599976,236.736984) using gf  
packet 1837 - 108.089453 - 68 (174.730000,101.100000) forward to 29 (541.599976,236.736984) using gf  
packet 1838 - 109.578727 - 68 (174.730000,101.100000) forward to 29 (541.599976,236.736984) using gf  
packet 1900 - 110.422767 - 68 (174.730000,101.100000) forward to 19 (435.839355,268.399994) using gf  
packet 1900 - 110.427577 - 19 (436.237926,268.400000) forward to 69 (603.049988,607.299988) using gf  
packet 1915 - 111.850069 - 68 (174.730000,101.100000) forward to 19 (435.839355,268.399994) using gf  
packet 1915 - 111.852204 - 19 (447.119183,268.400000) forward to 69 (603.049988,607.299988) using gf  
packet 1916 - 112.377234 - 68 (174.730000,101.100000) forward to 19 (435.839355,268.399994) using gf  
packet 1916 - 112.379089 - 19 (452.250361,268.400000) forward to 69 (603.049988,607.299988) using gf  
packet 1917 - 113.219939 - 68 (174.730000,101.100000) forward to 19 (435.839355,268.399994) using gf  
packet 1917 - 113.222335 - 19 (461.011077,268.400000) forward to 69 (603.049988,607.299988) using gf  
packet 1918 - 113.858568 - 68 (174.730000,101.100000) forward to 19 (435.839355,268.399994) using gf  
packet 1918 - 113.860543 - 19 (467.961169,268.400000) forward to 69 (603.049988,607.299988) using gf  
packet 1943 - 115.212766 - 68 (174.730000,101.100000) forward to 20 (346.703247,448.399994) using gf  
packet 1943 - 115.217498 - 20 (347.389959,448.400000) forward to 69 (603.049988,607.299988) using gf  
packet 1990 - 116.270110 - 68 (174.730000,101.100000) forward to 20 (346.703247,448.399994) using gf  
packet 1990 - 116.272166 - 20 (352.289373,448.400000) forward to 69 (603.049988,607.299988) using gf  
packet 1991 - 117.471805 - 68 (174.730000,101.100000) forward to 20 (346.703247,448.399994) using gf  
packet 1991 - 117.474181 - 20 (360.504040,448.400000) forward to 69 (603.049988,607.299988) using gf  
packet 1992 - 118.869878 - 68 (174.730000,101.100000) forward to 20 (346.703247,448.399994) using gf  
packet 1992 - 118.872074 - 20 (372.765988,448.400000) forward to 69 (603.049988,607.299988) using gf  
packet 2010 - 120.070695 - 68 (174.730000,101.100000) forward to 20 (346.703247,448.399994) using gf  
packet 2071 - 121.459565 - 68 (174.730000,101.100000) forward to 20 (346.703247,448.399994) using gf  
packet 2072 - 121.996571 - 68 (174.730000,101.100000) forward to 20 (346.703247,448.399994) using gf  
packet 2073 - 123.068284 - 68 (174.730000,101.100000) forward to 20 (346.703247,448.399994) using gf  
packet 2074 - 123.926984 - 68 (174.730000,101.100000) forward to 20 (346.703247,448.399994) using gf  
packet 2075 - 124.907303 - 68 (174.730000,101.100000) forward to 20 (346.703247,448.399994) using gf  
packet 2146 - 126.303768 - 68 (174.730000,101.100000) forward to 20 (346.703247,448.399994) using gf  
packet 2147 - 126.842414 - 68 (174.730000,101.100000) forward to 20 (346.703247,448.399994) using gf  
packet 2148 - 128.172120 - 68 (174.730000,101.100000) forward to 20 (346.703247,448.399994) using gf  
packet 2149 - 129.470185 - 68 (174.730000,101.100000) forward to 20 (346.703247,448.399994) using gf  
packet 2226 - 130.501802 - 68 (174.730000,101.100000) forward to 20 (346.703247,448.399994) using gf  
packet 2227 - 131.673492 - 68 (174.730000,101.100000) forward to 20 (346.703247,448.399994) using gf  
packet 2228 - 132.392980 - 68 (174.730000,101.100000) forward to 20 (346.703247,448.399994) using gf  
packet 2229 - 133.292365 - 68 (174.730000,101.100000) forward to 20 (346.703247,448.399994) using gf  
packet 2230 - 134.344368 - 68 (174.730000,101.100000) forward to 20 (346.703247,448.399994) using gf  
packet 2301 - 135.526466 - 68 (174.730000,101.100000) forward to 20 (346.703247,448.399994) using gf  
packet 2302 - 136.772383 - 68 (174.730000,101.100000) forward to 20 (346.703247,448.399994) using gf  
packet 2303 - 137.418347 - 68 (174.730000,101.100000) forward to 20 (346.703247,448.399994) using gf  
packet 2304 - 138.899126 - 68 (174.730000,101.100000) forward to 20 (346.703247,448.399994) using gf  
packet 2305 - 139.497615 - 68 (174.730000,101.100000) forward to 20 (346.703247,448.399994) using gf  
packet 2326 - 140.131235 - 68 (174.730000,101.100000) forward to 20 (346.703247,448.399994) using gf  
packet 2382 - 141.018652 - 68 (174.730000,101.100000) forward to 20 (346.703247,448.399994) using gf  
packet 2383 - 141.729947 - 68 (174.730000,101.100000) forward to 20 (346.703247,448.399994) using gf  
packet 2384 - 142.389354 - 68 (174.730000,101.100000) forward to 20 (346.703247,448.399994) using gf  
packet 2385 - 143.112349 - 68 (174.730000,101.100000) forward to 20 (346.703247,448.399994) using gf  
packet 2386 - 144.610456 - 68 (174.730000,101.100000) forward to 20 (346.703247,448.399994) using gf  
packet 2457 - 145.664412 - 68 (174.730000,101.100000) forward to 20 (346.703247,448.399994) using gf  
packet 2458 - 146.362245 - 68 (174.730000,101.100000) forward to 20 (346.703247,448.399994) using gf  
packet 2459 - 147.799962 - 68 (174.730000,101.100000) forward to 20 (346.703247,448.399994) using gf  
packet 2460 - 148.928870 - 68 (174.730000,101.100000) forward to 20 (346.703247,448.399994) using gf  
packet 2498 - 150.276620 - 68 (174.730000,101.100000) forward to 20 (346.703247,448.399994) using gf  
packet 2538 - 151.628747 - 68 (174.730000,101.100000) forward to 20 (346.703247,448.399994) using gf  
packet 2539 - 152.753106 - 68 (174.730000,101.100000) forward to 20 (346.703247,448.399994) using gf  
packet 2540 - 153.945570 - 68 (174.730000,101.100000) forward to 20 (346.703247,448.399994) using gf  
packet 2571 - 155.258297 - 68 (174.730000,101.100000) forward to 20 (346.703247,448.399994) using gf  
packet 2612 - 156.149870 - 68 (174.730000,101.100000) forward to 20 (346.703247,448.399994) using gf  
packet 2613 - 157.350179 - 68 (174.730000,101.100000) forward to 20 (346.703247,448.399994) using gf  
packet 2614 - 158.106443 - 68 (174.730000,101.100000) forward to 20 (346.703247,448.399994) using gf  
packet 2615 - 158.862499 - 68 (174.730000,101.100000) forward to 20 (346.703247,448.399994) using gf  
packet 2616 - 159.793921 - 68 (174.730000,101.100000) forward to 20 (346.703247,448.399994) using gf  
packet 2690 - 161.038389 - 68 (174.730000,101.100000) forward to 20 (346.703247,448.399994) using gf  
packet 2691 - 161.725126 - 68 (174.730000,101.100000) forward to 20 (346.703247,448.399994) using gf  
packet 2692 - 162.877381 - 68 (174.730000,101.100000) forward to 20 (346.703247,448.399994) using gf  
packet 2693 - 163.549010 - 68 (174.730000,101.100000) forward to 20 (346.703247,448.399994) using gf  
packet 2694 - 164.065991 - 68 (174.730000,101.100000) forward to 20 (346.703247,448.399994) using gf  
packet 2695 - 164.786962 - 68 (174.730000,101.100000) forward to 20 (346.703247,448.399994) using gf  
packet 2766 - 166.039577 - 68 (174.730000,101.100000) forward to 20 (346.703247,448.399994) using gf  
packet 2767 - 167.196496 - 68 (174.730000,101.100000) forward to 20 (346.703247,448.399994) using gf  
packet 2768 - 168.454061 - 68 (174.730000,101.100000) forward to 20 (346.703247,448.399994) using gf  
packet 2769 - 169.416899 - 68 (174.730000,101.100000) forward to 20 (346.703247,448.399994) using gf  
packet 2794 - 170.197186 - 68 (174.730000,101.100000) forward to 20 (346.703247,448.399994) using gf  
packet 2843 - 171.472165 - 68 (174.730000,101.100000) forward to 20 (346.703247,448.399994) using gf  
packet 2844 - 172.274756 - 68 (174.730000,101.100000) forward to 20 (346.703247,448.399994) using gf  
packet 2845 - 173.125559 - 68 (174.730000,101.100000) forward to 20 (346.703247,448.399994) using gf  
packet 2846 - 173.821298 - 68 (174.730000,101.100000) forward to 20 (346.703247,448.399994) using gf  
packet 2853 - 175.046104 - 68 (174.730000,101.100000) forward to 20 (346.703247,448.399994) using gf  
packet 2918 - 176.188649 - 68 (174.730000,101.100000) forward to 20 (346.703247,448.399994) using gf  
packet 2919 - 177.183373 - 68 (174.730000,101.100000) forward to 20 (346.703247,448.399994) using gf  
packet 2920 - 178.631031 - 68 (174.730000,101.100000) forward to 20 (346.703247,448.399994) using gf  
packet 2921 - 179.791490 - 68 (174.730000,101.100000) forward to 20 (346.703247,448.399994) using gf  
packet 2996 - 181.169050 - 68 (174.730000,101.100000) forward to 20 (346.703247,448.399994) using gf  
packet 2997 - 181.887462 - 68 (174.730000,101.100000) forward to 20 (346.703247,448.399994) using gf  
packet 2998 - 183.121273 - 68 (174.730000,101.100000) forward to 20 (346.703247,448.399994) using gf  
packet 2999 - 183.954136 - 68 (174.730000,101.100000) forward to 20 (346.703247,448.399994) using gf  
packet 3000 - 184.878967 - 68 (174.730000,101.100000) forward to 20 (346.703247,448.399994) using gf  
packet 3071 - 185.615364 - 68 (174.730000,101.100000) forward to 20 (346.703247,448.399994) using gf  
packet 3072 - 186.801417 - 68 (174.730000,101.100000) forward to 20 (346.703247,448.399994) using gf  
packet 3073 - 187.835359 - 68 (174.730000,101.100000) forward to 20 (346.703247,448.399994) using gf  
packet 3074 - 188.425985 - 68 (174.730000,101.100000) forward to 20 (346.703247,448.399994) using gf  
packet 3075 - 189.220265 - 68 (174.730000,101.100000) forward to 20 (346.703247,448.399994) using gf  
packet 3111 - 190.271482 - 68 (174.730000,101.100000) forward to 20 (346.703247,448.399994) using gf  
packet 3151 - 191.073521 - 68 (174.730000,101.100000) forward to 20 (346.703247,448.399994) using gf  
packet 3152 - 191.780834 - 68 (174.730000,101.100000) forward to 20 (346.703247,448.399994) using gf  
packet 3153 - 193.181196 - 68 (174.730000,101.100000) forward to 20 (346.703247,448.399994) using gf  
packet 3154 - 193.749456 - 68 (174.730000,101.100000) forward to 20 (346.703247,448.399994) using gf  
