0.00
0.00
0.00
0.00
0.00
0.00
0.00
0.00
0.00
0.00
0.00
0.00
0.00
0.00
0.00
0.00
0.00
0.00
0.00
0.00
skenario node 70
skenario node 70
skenario node 70
skenario node 70
skenario node 70
skenario node 70
skenario node 70
skenario node 70
skenario node 70
skenario node 70
skenario node 70
skenario node 70
skenario node 70
skenario node 70
skenario node 70
skenario node 70
skenario node 70
skenario node 70
skenario node 70
skenario node 70
skenario node 70
skenario node 70
skenario node 70
skenario node 70
skenario node 70
skenario node 70
skenario node 70
skenario node 70
skenario node 70
skenario node 70
skenario node 70
skenario node 70
skenario node 70
skenario node 70
skenario node 70
skenario node 70
skenario node 70
skenario node 70
skenario node 70
skenario node 70
skenario node 70
skenario node 70
skenario node 70
skenario node 70
skenario node 70
skenario node 70
skenario node 70
skenario node 70
skenario node 70
skenario node 70
skenario node 70
skenario node 70
skenario node 70
skenario node 70
skenario node 70
skenario node 70
skenario node 70
skenario node 70
skenario node 70
skenario node 70
skenario node 70
skenario node 70
skenario node 70
skenario node 70
skenario node 70
skenario node 70
skenario node 70
skenario node 70
skenario node 70
skenario node 70
skenario node 70
skenario node 70
skenario node 70
skenario node 70
skenario node 70
