packet 120 - 10.000000 - 28 (174.730000,101.100000) forward to 2 (302.507416,358.399994) using gf  
packet 155 - 10.961276 - 28 (174.730000,101.100000) forward to 2 (347.927399,358.399994) using gf  
packet 155 - 10.966966 - 2 (351.404937,358.400000) forward to 29 (603.049988,607.299988) using gf  
packet 156 - 12.361921 - 28 (174.730000,101.100000) forward to 2 (347.927399,358.399994) using gf  
packet 156 - 12.364196 - 2 (353.265232,360.277342) forward to 29 (603.049988,607.299988) using gf  
packet 157 - 13.365116 - 28 (174.730000,101.100000) forward to 2 (347.927399,358.399994) using gf  
packet 157 - 13.367451 - 2 (350.379046,361.600000) forward to 29 (603.049988,607.299988) using gf  
packet 158 - 14.017329 - 28 (174.730000,101.100000) forward to 2 (347.927399,358.399994) using gf  
packet 158 - 14.019304 - 2 (346.437989,361.600000) forward to 29 (603.049988,607.299988) using gf  
packet 175 - 15.339446 - 28 (174.730000,101.100000) forward to 2 (347.927399,358.399994) using gf  
packet 175 - 15.341881 - 2 (335.444908,361.600000) forward to 29 (603.049988,607.299988) using gf  
packet 190 - 15.850423 - 28 (174.730000,101.100000) forward to 2 (335.407227,361.600006) using gf  
packet 190 - 15.852358 - 2 (330.554542,361.600000) forward to 29 (603.049988,607.299988) using gf  
packet 191 - 16.562513 - 28 (174.730000,101.100000) forward to 2 (335.407227,361.600006) using gf  
packet 191 - 16.564868 - 2 (324.050658,361.600000) forward to 29 (603.049988,607.299988) using gf  
packet 192 - 17.926742 - 28 (174.730000,101.100000) forward to 2 (335.407227,361.600006) using gf  
packet 192 - 17.928657 - 2 (311.679342,361.600000) forward to 29 (603.049988,607.299988) using gf  
packet 193 - 19.062205 - 28 (174.730000,101.100000) forward to 2 (335.407227,361.600006) using gf  
packet 193 - 19.064440 - 2 (301.185312,361.600000) forward to 29 (603.049988,607.299988) using gf  
packet 227 - 20.499184 - 28 (174.730000,101.100000) forward to 2 (289.799866,361.600006) using gf  
packet 227 - 20.501359 - 2 (288.433172,361.600000) forward to 29 (603.049988,607.299988) using gf  
packet 228 - 21.482972 - 28 (174.730000,101.100000) forward to 2 (289.799866,361.600006) using gf  
packet 228 - 21.485327 - 2 (281.885501,361.600000) forward to 29 (603.049988,607.299988) using gf  
packet 229 - 22.077731 - 28 (174.730000,101.100000) forward to 2 (289.799866,361.600006) using gf  
packet 229 - 22.079966 - 2 (279.076702,361.600000) forward to 29 (603.049988,607.299988) using gf  
packet 230 - 23.568669 - 28 (174.730000,101.100000) forward to 2 (289.799866,361.600006) using gf  
packet 230 - 23.570504 - 2 (268.062702,361.600000) forward to 29 (603.049988,607.299988) using gf  
packet 231 - 24.758758 - 28 (174.730000,101.100000) forward to 2 (289.799866,361.600006) using gf  
packet 231 - 24.760812 - 2 (256.579185,361.600000) forward to 29 (603.049988,607.299988) using gf  
packet 262 - 25.500876 - 28 (174.730000,101.100000) forward to 1 (448.743225,366.214172) using gf  
packet 262 - 25.506527 - 1 (448.856340,365.503776) forward to 29 (603.049988,607.299988) using gf  
packet 263 - 26.563198 - 28 (174.730000,101.100000) forward to 1 (448.743225,366.214172) using gf  
packet 263 - 26.565354 - 1 (452.313969,360.415482) forward to 29 (603.049988,607.299988) using gf  
packet 264 - 27.703136 - 28 (174.730000,101.100000) forward to 1 (448.743225,366.214172) using gf  
packet 264 - 27.705092 - 1 (459.491052,358.517231) forward to 29 (603.049988,607.299988) using gf  
packet 265 - 28.436321 - 28 (174.730000,101.100000) forward to 1 (448.743225,366.214172) using gf  
packet 265 - 28.438277 - 1 (465.457955,358.400000) forward to 29 (603.049988,607.299988) using gf  
packet 266 - 29.364321 - 28 (174.730000,101.100000) forward to 1 (448.743225,366.214172) using gf  
packet 266 - 29.366657 - 1 (473.665123,358.400000) forward to 29 (603.049988,607.299988) using gf  
packet 303 - 30.847018 - 28 (174.730000,101.100000) forward to 1 (448.743225,366.214172) using gf  
packet 304 - 31.588666 - 28 (174.730000,101.100000) forward to 1 (448.743225,366.214172) using gf  
packet 305 - 32.861057 - 28 (174.730000,101.100000) forward to 1 (448.743225,366.214172) using gf  
packet 306 - 33.576499 - 28 (174.730000,101.100000) forward to 1 (448.743225,366.214172) using gf  
packet 310 - 35.028416 - 28 (174.730000,101.100000) forward to 1 (448.743225,366.214172) using gf  
packet 338 - 36.206381 - 28 (174.730000,101.100000) forward to 1 (448.743225,366.214172) using gf  
packet 339 - 36.917735 - 28 (174.730000,101.100000) forward to 1 (448.743225,366.214172) using gf  
packet 340 - 37.746492 - 28 (174.730000,101.100000) forward to 1 (448.743225,366.214172) using gf  
packet 341 - 38.311770 - 28 (174.730000,101.100000) forward to 1 (448.743225,366.214172) using gf  
packet 342 - 38.934707 - 28 (174.730000,101.100000) forward to 1 (448.743225,366.214172) using gf  
packet 350 - 40.069223 - 28 (174.730000,101.100000) forward to 1 (448.743225,366.214172) using gf  
packet 376 - 40.977392 - 28 (174.730000,101.100000) forward to 1 (448.743225,366.214172) using gf  
packet 377 - 41.531596 - 28 (174.730000,101.100000) forward to 1 (448.743225,366.214172) using gf  
packet 378 - 42.842665 - 28 (174.730000,101.100000) forward to 1 (448.743225,366.214172) using gf  
packet 379 - 43.608136 - 28 (174.730000,101.100000) forward to 1 (448.743225,366.214172) using gf  
packet 380 - 44.640219 - 28 (174.730000,101.100000) forward to 1 (448.743225,366.214172) using gf  
packet 411 - 46.025889 - 28 (174.730000,101.100000) forward to 1 (448.743225,366.214172) using gf  
packet 412 - 47.407474 - 28 (174.730000,101.100000) forward to 1 (448.743225,366.214172) using gf  
packet 413 - 48.899047 - 28 (174.730000,101.100000) forward to 1 (448.743225,366.214172) using gf  
packet 414 - 49.670216 - 28 (174.730000,101.100000) forward to 1 (448.743225,366.214172) using gf  
packet 439 - 50.386404 - 28 (174.730000,101.100000) forward to 1 (448.743225,366.214172) using gf  
packet 449 - 51.101043 - 28 (174.730000,101.100000) forward to 1 (448.743225,366.214172) using gf  
packet 450 - 52.217008 - 28 (174.730000,101.100000) forward to 1 (448.743225,366.214172) using gf  
packet 451 - 52.874635 - 28 (174.730000,101.100000) forward to 1 (448.743225,366.214172) using gf  
packet 452 - 53.908770 - 28 (174.730000,101.100000) forward to 1 (448.743225,366.214172) using gf  
packet 454 - 55.018969 - 28 (174.730000,101.100000) forward to 1 (448.743225,366.214172) using gf  
packet 484 - 55.981927 - 28 (174.730000,101.100000) forward to 21 (462.778107,361.600006) using gf  
packet 484 - 55.986779 - 21 (458.883185,361.600000) forward to 29 (603.049988,607.299988) using gf  
packet 485 - 57.468580 - 28 (174.730000,101.100000) forward to 21 (462.778107,361.600006) using gf  
packet 485 - 57.470596 - 21 (447.839462,361.600000) forward to 29 (603.049988,607.299988) using gf  
packet 486 - 58.501243 - 28 (174.730000,101.100000) forward to 21 (462.778107,361.600006) using gf  
packet 486 - 58.503079 - 21 (438.505481,361.600000) forward to 29 (603.049988,607.299988) using gf  
packet 487 - 59.231698 - 28 (174.730000,101.100000) forward to 21 (462.778107,361.600006) using gf  
packet 487 - 59.233634 - 21 (431.624425,361.600000) forward to 29 (603.049988,607.299988) using gf  
packet 498 - 60.099935 - 28 (174.730000,101.100000) forward to 21 (462.778107,361.600006) using gf  
packet 498 - 60.101851 - 21 (423.768287,361.600000) forward to 29 (603.049988,607.299988) using gf  
packet 523 - 60.963922 - 28 (174.730000,101.100000) forward to 16 (459.359436,361.600006) using gf  
packet 523 - 60.969154 - 16 (453.233354,361.600000) forward to 29 (603.049988,607.299988) using gf  
packet 524 - 61.858551 - 28 (174.730000,101.100000) forward to 16 (459.359436,361.600006) using gf  
packet 524 - 61.860727 - 16 (446.498824,361.600000) forward to 29 (603.049988,607.299988) using gf  
packet 525 - 62.612951 - 28 (174.730000,101.100000) forward to 16 (459.359436,361.600006) using gf  
packet 525 - 62.615147 - 16 (440.781138,361.600000) forward to 29 (603.049988,607.299988) using gf  
packet 526 - 63.818708 - 28 (174.730000,101.100000) forward to 16 (459.359436,361.600006) using gf  
packet 526 - 63.820963 - 16 (430.734154,361.600000) forward to 29 (603.049988,607.299988) using gf  
packet 527 - 64.543473 - 28 (174.730000,101.100000) forward to 16 (459.359436,361.600006) using gf  
packet 527 - 64.545709 - 16 (424.536133,361.600000) forward to 29 (603.049988,607.299988) using gf  
packet 558 - 65.549741 - 28 (174.730000,101.100000) forward to 16 (418.933197,361.600006) using gf  
packet 558 - 65.551776 - 16 (416.366249,361.600000) forward to 29 (603.049988,607.299988) using gf  
packet 559 - 66.156475 - 28 (174.730000,101.100000) forward to 16 (418.933197,361.600006) using gf  
packet 559 - 66.158730 - 16 (411.495510,361.600000) forward to 29 (603.049988,607.299988) using gf  
packet 560 - 67.498969 - 28 (174.730000,101.100000) forward to 16 (418.933197,361.600006) using gf  
packet 560 - 67.500804 - 16 (399.923228,361.600000) forward to 29 (603.049988,607.299988) using gf  
packet 561 - 68.584540 - 28 (174.730000,101.100000) forward to 16 (418.933197,361.600006) using gf  
packet 561 - 68.586975 - 16 (390.936697,361.600000) forward to 29 (603.049988,607.299988) using gf  
packet 562 - 69.085909 - 28 (174.730000,101.100000) forward to 16 (418.933197,361.600006) using gf  
packet 562 - 69.088224 - 16 (386.901079,361.600000) forward to 29 (603.049988,607.299988) using gf  
packet 563 - 69.747857 - 28 (174.730000,101.100000) forward to 16 (418.933197,361.600006) using gf  
packet 563 - 69.750093 - 16 (381.506853,361.600000) forward to 29 (603.049988,607.299988) using gf  
packet 596 - 70.514039 - 28 (174.730000,101.100000) forward to 22 (341.150818,448.399994) using gf  
packet 596 - 70.519051 - 22 (344.336927,448.400000) forward to 29 (603.049988,607.299988) using gf  
packet 597 - 71.087818 - 28 (174.730000,101.100000) forward to 22 (341.150818,448.399994) using gf  
packet 597 - 71.090233 - 22 (348.081404,448.400000) forward to 29 (603.049988,607.299988) using gf  
packet 598 - 72.079290 - 28 (174.730000,101.100000) forward to 22 (341.150818,448.399994) using gf  
packet 598 - 72.081626 - 22 (352.740077,448.400000) forward to 29 (603.049988,607.299988) using gf  
packet 599 - 73.550561 - 28 (174.730000,101.100000) forward to 22 (341.150818,448.399994) using gf  
packet 599 - 73.552477 - 22 (363.127266,448.400000) forward to 29 (603.049988,607.299988) using gf  
packet 600 - 74.308307 - 28 (174.730000,101.100000) forward to 22 (341.150818,448.399994) using gf  
packet 600 - 74.310683 - 22 (369.789227,448.400000) forward to 29 (603.049988,607.299988) using gf  
packet 601 - 74.907290 - 28 (174.730000,101.100000) forward to 22 (341.150818,448.399994) using gf  
packet 632 - 75.654826 - 28 (174.730000,101.100000) forward to 22 (341.150818,448.399994) using gf  
packet 633 - 76.364316 - 28 (174.730000,101.100000) forward to 22 (341.150818,448.399994) using gf  
packet 634 - 77.417737 - 28 (174.730000,101.100000) forward to 22 (341.150818,448.399994) using gf  
packet 635 - 78.028799 - 28 (174.730000,101.100000) forward to 22 (341.150818,448.399994) using gf  
packet 636 - 78.910394 - 28 (174.730000,101.100000) forward to 22 (341.150818,448.399994) using gf  
packet 637 - 79.478666 - 28 (174.730000,101.100000) forward to 22 (341.150818,448.399994) using gf  
packet 673 - 80.787812 - 28 (174.730000,101.100000) forward to 22 (341.150818,448.399994) using gf  
packet 674 - 81.631705 - 28 (174.730000,101.100000) forward to 22 (341.150818,448.399994) using gf  
packet 675 - 82.749703 - 28 (174.730000,101.100000) forward to 22 (341.150818,448.399994) using gf  
packet 676 - 83.423145 - 28 (174.730000,101.100000) forward to 22 (341.150818,448.399994) using gf  
packet 677 - 84.086482 - 28 (174.730000,101.100000) forward to 22 (341.150818,448.399994) using gf  
packet 685 - 85.153082 - 28 (174.730000,101.100000) forward to 22 (341.150818,448.399994) using gf  
packet 709 - 86.350534 - 28 (174.730000,101.100000) forward to 22 (341.150818,448.399994) using gf  
packet 710 - 87.455450 - 28 (174.730000,101.100000) forward to 22 (341.150818,448.399994) using gf  
packet 711 - 88.937776 - 28 (174.730000,101.100000) forward to 22 (341.150818,448.399994) using gf  
packet 712 - 89.832839 - 28 (174.730000,101.100000) forward to 22 (341.150818,448.399994) using gf  
packet 748 - 90.857811 - 28 (174.730000,101.100000) forward to 22 (341.150818,448.399994) using gf  
packet 749 - 92.146716 - 28 (174.730000,101.100000) forward to 22 (341.150818,448.399994) using gf  
packet 750 - 93.642545 - 28 (174.730000,101.100000) forward to 22 (341.150818,448.399994) using gf  
packet 751 - 94.204523 - 28 (174.730000,101.100000) forward to 22 (341.150818,448.399994) using gf  
packet 752 - 94.710534 - 28 (174.730000,101.100000) forward to 22 (341.150818,448.399994) using gf  
packet 769 - 95.344517 - 28 (174.730000,101.100000) forward to 22 (341.150818,448.399994) using gf  
packet 784 - 96.793942 - 28 (174.730000,101.100000) forward to 22 (341.150818,448.399994) using gf  
packet 785 - 97.730804 - 28 (174.730000,101.100000) forward to 22 (341.150818,448.399994) using gf  
packet 786 - 98.965895 - 28 (174.730000,101.100000) forward to 22 (341.150818,448.399994) using gf  
packet 787 - 99.918971 - 28 (174.730000,101.100000) forward to 22 (341.150818,448.399994) using gf  
packet 820 - 101.384577 - 28 (174.730000,101.100000) forward to 22 (341.150818,448.399994) using gf  
packet 821 - 101.902424 - 28 (174.730000,101.100000) forward to 22 (341.150818,448.399994) using gf  
packet 822 - 102.618997 - 28 (174.730000,101.100000) forward to 22 (341.150818,448.399994) using gf  
packet 823 - 103.437839 - 28 (174.730000,101.100000) forward to 22 (341.150818,448.399994) using gf  
packet 824 - 104.864320 - 28 (174.730000,101.100000) forward to 22 (341.150818,448.399994) using gf  
packet 855 - 105.960415 - 28 (174.730000,101.100000) forward to 22 (341.150818,448.399994) using gf  
packet 856 - 107.061203 - 28 (174.730000,101.100000) forward to 22 (341.150818,448.399994) using gf  
packet 857 - 107.620301 - 28 (174.730000,101.100000) forward to 22 (341.150818,448.399994) using gf  
packet 858 - 108.800120 - 28 (174.730000,101.100000) forward to 22 (341.150818,448.399994) using gf  
packet 859 - 109.910142 - 28 (174.730000,101.100000) forward to 22 (341.150818,448.399994) using gf  
packet 894 - 110.873552 - 28 (174.730000,101.100000) forward to 22 (341.150818,448.399994) using gf  
packet 895 - 112.063185 - 28 (174.730000,101.100000) forward to 22 (341.150818,448.399994) using gf  
packet 896 - 112.664768 - 28 (174.730000,101.100000) forward to 22 (341.150818,448.399994) using gf  
packet 897 - 113.736538 - 28 (174.730000,101.100000) forward to 22 (341.150818,448.399994) using gf  
packet 905 - 115.151399 - 28 (174.730000,101.100000) forward to 22 (341.150818,448.399994) using gf  
packet 929 - 115.654316 - 28 (174.730000,101.100000) forward to 22 (341.150818,448.399994) using gf  
packet 930 - 116.892937 - 28 (174.730000,101.100000) forward to 22 (341.150818,448.399994) using gf  
packet 931 - 118.192172 - 28 (174.730000,101.100000) forward to 22 (341.150818,448.399994) using gf  
packet 932 - 119.302776 - 28 (174.730000,101.100000) forward to 22 (341.150818,448.399994) using gf  
packet 966 - 120.613773 - 28 (174.730000,101.100000) forward to 22 (341.150818,448.399994) using gf  
packet 967 - 121.301808 - 28 (174.730000,101.100000) forward to 22 (341.150818,448.399994) using gf  
packet 968 - 122.674987 - 28 (174.730000,101.100000) forward to 22 (341.150818,448.399994) using gf  
packet 969 - 123.351317 - 28 (174.730000,101.100000) forward to 22 (341.150818,448.399994) using gf  
packet 970 - 124.690836 - 28 (174.730000,101.100000) forward to 22 (341.150818,448.399994) using gf  
packet 1001 - 125.916451 - 28 (174.730000,101.100000) forward to 22 (341.150818,448.399994) using gf  
packet 1002 - 126.990104 - 28 (174.730000,101.100000) forward to 22 (341.150818,448.399994) using gf  
packet 1003 - 127.884825 - 28 (174.730000,101.100000) forward to 22 (341.150818,448.399994) using gf  
packet 1004 - 128.661581 - 28 (174.730000,101.100000) forward to 22 (341.150818,448.399994) using gf  
packet 1005 - 129.858794 - 28 (174.730000,101.100000) forward to 22 (341.150818,448.399994) using gf  
packet 1039 - 131.200885 - 28 (174.730000,101.100000) forward to 22 (341.150818,448.399994) using gf  
packet 1040 - 132.494718 - 28 (174.730000,101.100000) forward to 22 (341.150818,448.399994) using gf  
packet 1041 - 133.585361 - 28 (174.730000,101.100000) forward to 22 (341.150818,448.399994) using gf  
packet 1042 - 134.182999 - 28 (174.730000,101.100000) forward to 22 (341.150818,448.399994) using gf  
packet 1043 - 134.938520 - 28 (174.730000,101.100000) forward to 22 (341.150818,448.399994) using gf  
packet 1074 - 135.617351 - 28 (174.730000,101.100000) forward to 22 (341.150818,448.399994) using gf  
packet 1075 - 136.676770 - 28 (174.730000,101.100000) forward to 22 (341.150818,448.399994) using gf  
packet 1076 - 137.474664 - 28 (174.730000,101.100000) forward to 22 (341.150818,448.399994) using gf  
packet 1077 - 138.711156 - 28 (174.730000,101.100000) forward to 22 (341.150818,448.399994) using gf  
packet 1091 - 140.187272 - 28 (174.730000,101.100000) forward to 22 (341.150818,448.399994) using gf  
packet 1114 - 141.493168 - 28 (174.730000,101.100000) forward to 22 (341.150818,448.399994) using gf  
packet 1115 - 142.898659 - 28 (174.730000,101.100000) forward to 22 (341.150818,448.399994) using gf  
packet 1116 - 144.211031 - 28 (174.730000,101.100000) forward to 22 (341.150818,448.399994) using gf  
packet 1145 - 145.488426 - 28 (174.730000,101.100000) forward to 22 (341.150818,448.399994) using gf  
packet 1148 - 146.062971 - 28 (174.730000,101.100000) forward to 22 (341.150818,448.399994) using gf  
packet 1149 - 147.274791 - 28 (174.730000,101.100000) forward to 22 (341.150818,448.399994) using gf  
packet 1150 - 147.935055 - 28 (174.730000,101.100000) forward to 22 (341.150818,448.399994) using gf  
packet 1151 - 148.495978 - 28 (174.730000,101.100000) forward to 22 (341.150818,448.399994) using gf  
packet 1152 - 149.332855 - 28 (174.730000,101.100000) forward to 22 (341.150818,448.399994) using gf  
packet 1189 - 150.742832 - 28 (174.730000,101.100000) forward to 22 (341.150818,448.399994) using gf  
packet 1190 - 151.322014 - 28 (174.730000,101.100000) forward to 22 (341.150818,448.399994) using gf  
packet 1191 - 152.804250 - 28 (174.730000,101.100000) forward to 22 (341.150818,448.399994) using gf  
packet 1192 - 154.174928 - 28 (174.730000,101.100000) forward to 22 (341.150818,448.399994) using gf  
packet 1201 - 155.183862 - 28 (174.730000,101.100000) forward to 22 (341.150818,448.399994) using gf  
packet 1224 - 155.699547 - 28 (174.730000,101.100000) forward to 22 (341.150818,448.399994) using gf  
packet 1225 - 157.049606 - 28 (174.730000,101.100000) forward to 22 (341.150818,448.399994) using gf  
packet 1226 - 157.870364 - 28 (174.730000,101.100000) forward to 22 (341.150818,448.399994) using gf  
packet 1227 - 159.188380 - 28 (174.730000,101.100000) forward to 22 (341.150818,448.399994) using gf  
packet 1228 - 159.816949 - 28 (174.730000,101.100000) forward to 22 (341.150818,448.399994) using gf  
packet 1262 - 160.888470 - 28 (174.730000,101.100000) forward to 22 (341.150818,448.399994) using gf  
packet 1263 - 161.887720 - 28 (174.730000,101.100000) forward to 22 (341.150818,448.399994) using gf  
packet 1264 - 163.139228 - 28 (174.730000,101.100000) forward to 22 (341.150818,448.399994) using gf  
packet 1265 - 164.271233 - 28 (174.730000,101.100000) forward to 22 (341.150818,448.399994) using gf  
packet 1296 - 165.549572 - 28 (174.730000,101.100000) forward to 22 (341.150818,448.399994) using gf  
packet 1297 - 166.214428 - 28 (174.730000,101.100000) forward to 22 (341.150818,448.399994) using gf  
packet 1298 - 167.457935 - 28 (174.730000,101.100000) forward to 22 (341.150818,448.399994) using gf  
packet 1299 - 168.661369 - 28 (174.730000,101.100000) forward to 22 (341.150818,448.399994) using gf  
packet 1300 - 169.446062 - 28 (174.730000,101.100000) forward to 22 (341.150818,448.399994) using gf  
packet 1333 - 170.633990 - 28 (174.730000,101.100000) forward to 22 (341.150818,448.399994) using gf  
packet 1334 - 172.074946 - 28 (174.730000,101.100000) forward to 22 (341.150818,448.399994) using gf  
packet 1335 - 172.752620 - 28 (174.730000,101.100000) forward to 22 (341.150818,448.399994) using gf  
packet 1336 - 173.811621 - 28 (174.730000,101.100000) forward to 22 (341.150818,448.399994) using gf  
packet 1337 - 174.629167 - 28 (174.730000,101.100000) forward to 22 (341.150818,448.399994) using gf  
packet 1348 - 175.217432 - 28 (174.730000,101.100000) forward to 22 (341.150818,448.399994) using gf  
packet 1369 - 175.979620 - 28 (174.730000,101.100000) forward to 22 (341.150818,448.399994) using gf  
packet 1370 - 177.121067 - 28 (174.730000,101.100000) forward to 22 (341.150818,448.399994) using gf  
packet 1371 - 178.299484 - 28 (174.730000,101.100000) forward to 22 (341.150818,448.399994) using gf  
packet 1372 - 179.225076 - 28 (174.730000,101.100000) forward to 22 (341.150818,448.399994) using gf  
packet 1379 - 180.029403 - 28 (174.730000,101.100000) forward to 22 (341.150818,448.399994) using gf  
packet 1407 - 180.626923 - 28 (174.730000,101.100000) forward to 22 (341.150818,448.399994) using gf  
packet 1408 - 181.532717 - 28 (174.730000,101.100000) forward to 22 (341.150818,448.399994) using gf  
packet 1409 - 182.133878 - 28 (174.730000,101.100000) forward to 22 (341.150818,448.399994) using gf  
packet 1410 - 183.436985 - 28 (174.730000,101.100000) forward to 22 (341.150818,448.399994) using gf  
packet 1411 - 183.947171 - 28 (174.730000,101.100000) forward to 22 (341.150818,448.399994) using gf  
packet 1418 - 185.100027 - 28 (174.730000,101.100000) forward to 22 (341.150818,448.399994) using gf  
packet 1443 - 185.985334 - 28 (174.730000,101.100000) forward to 22 (341.150818,448.399994) using gf  
packet 1444 - 186.793439 - 28 (174.730000,101.100000) forward to 22 (341.150818,448.399994) using gf  
packet 1445 - 187.342179 - 28 (174.730000,101.100000) forward to 22 (341.150818,448.399994) using gf  
packet 1446 - 188.674210 - 28 (174.730000,101.100000) forward to 22 (341.150818,448.399994) using gf  
packet 1447 - 189.873508 - 28 (174.730000,101.100000) forward to 22 (341.150818,448.399994) using gf  
packet 1482 - 191.157603 - 28 (174.730000,101.100000) forward to 22 (341.150818,448.399994) using gf  
packet 1483 - 191.866155 - 28 (174.730000,101.100000) forward to 22 (341.150818,448.399994) using gf  
packet 1484 - 192.597664 - 28 (174.730000,101.100000) forward to 22 (341.150818,448.399994) using gf  
packet 1485 - 193.687249 - 28 (174.730000,101.100000) forward to 22 (341.150818,448.399994) using gf  
packet 1485 - 193.689265 - 22 (571.562954,91.600000) forward to 29 (603.049988,607.299988) using gf  
packet 1486 - 194.297926 - 28 (174.730000,101.100000) forward to 22 (341.150818,448.399994) using gf  
packet 1486 - 194.300062 - 22 (566.029557,91.600000) forward to 29 (603.049988,607.299988) using gf  
