packet 289 - 10.000000 - 68 (174.730000,101.100000) forward to 46 (451.600006,248.559998) using gf  
packet 363 - 11.094264 - 68 (174.730000,101.100000) forward to 46 (451.600006,248.559998) using gf  
packet 363 - 11.099614 - 46 (451.600000,248.560000) forward to 69 (603.049988,607.299988) using gf  
packet 364 - 12.366655 - 68 (174.730000,101.100000) forward to 46 (451.600006,248.559998) using gf  
packet 364 - 12.368971 - 46 (451.600000,248.560000) forward to 69 (603.049988,607.299988) using gf  
packet 365 - 13.859116 - 68 (174.730000,101.100000) forward to 46 (451.600006,248.559998) using gf  
packet 365 - 13.861051 - 46 (451.600000,248.560000) forward to 69 (603.049988,607.299988) using gf  
packet 366 - 14.762087 - 68 (174.730000,101.100000) forward to 46 (451.600006,248.559998) using gf  
packet 366 - 14.764102 - 46 (451.600000,248.560000) forward to 69 (603.049988,607.299988) using gf  
packet 437 - 15.554036 - 68 (174.730000,101.100000) forward to 46 (451.600006,248.559998) using gf  
packet 437 - 15.555871 - 46 (451.600000,248.560000) forward to 69 (603.049988,607.299988) using gf  
packet 438 - 16.685806 - 68 (174.730000,101.100000) forward to 46 (451.600006,248.559998) using gf  
packet 438 - 16.687701 - 46 (451.600000,248.560000) forward to 69 (603.049988,607.299988) using gf  
packet 439 - 17.661023 - 68 (174.730000,101.100000) forward to 46 (451.600006,248.559998) using gf  
packet 439 - 17.663138 - 46 (451.600000,248.560000) forward to 69 (603.049988,607.299988) using gf  
packet 440 - 18.727875 - 68 (174.730000,101.100000) forward to 46 (451.600006,248.559998) using gf  
packet 440 - 18.729891 - 46 (451.600000,248.560000) forward to 69 (603.049988,607.299988) using gf  
packet 441 - 19.636876 - 68 (174.730000,101.100000) forward to 46 (451.600006,248.559998) using gf  
packet 441 - 19.639231 - 46 (451.600000,248.560000) forward to 69 (603.049988,607.299988) using gf  
packet 514 - 21.040606 - 68 (174.730000,101.100000) forward to 46 (451.600006,248.559998) using gf  
packet 514 - 21.042761 - 46 (451.600000,248.560000) forward to 69 (603.049988,607.299988) using gf  
packet 515 - 22.285073 - 68 (174.730000,101.100000) forward to 46 (451.600006,248.559998) using gf  
packet 515 - 22.287048 - 46 (451.600000,248.560000) forward to 69 (603.049988,607.299988) using gf  
packet 516 - 23.563284 - 68 (174.730000,101.100000) forward to 46 (451.600006,248.559998) using gf  
packet 516 - 23.565699 - 46 (451.600000,248.560000) forward to 69 (603.049988,607.299988) using gf  
packet 517 - 24.429760 - 68 (174.730000,101.100000) forward to 46 (451.600006,248.559998) using gf  
packet 517 - 24.432175 - 46 (451.600000,248.560000) forward to 69 (603.049988,607.299988) using gf  
packet 534 - 25.145763 - 68 (174.730000,101.100000) forward to 46 (451.600006,248.559998) using gf  
packet 534 - 25.147798 - 46 (451.600000,248.560000) forward to 69 (603.049988,607.299988) using gf  
packet 589 - 26.328906 - 68 (174.730000,101.100000) forward to 46 (451.600006,248.559998) using gf  
packet 589 - 26.330981 - 46 (451.600000,248.560000) forward to 69 (603.049988,607.299988) using gf  
packet 590 - 27.788280 - 68 (174.730000,101.100000) forward to 46 (451.600006,248.559998) using gf  
packet 590 - 27.790696 - 46 (451.600000,248.560000) forward to 69 (603.049988,607.299988) using gf  
packet 591 - 28.951034 - 68 (174.730000,101.100000) forward to 46 (451.600006,248.559998) using gf  
packet 591 - 28.953329 - 46 (451.600000,248.560000) forward to 69 (603.049988,607.299988) using gf  
packet 631 - 30.297724 - 68 (174.730000,101.100000) forward to 46 (451.600006,248.559998) using gf  
packet 631 - 30.299619 - 46 (451.600000,248.560000) forward to 69 (603.049988,607.299988) using gf  
packet 667 - 31.582754 - 68 (174.730000,101.100000) forward to 46 (451.600006,248.559998) using gf  
packet 667 - 31.584649 - 46 (451.600000,248.560000) forward to 69 (603.049988,607.299988) using gf  
packet 668 - 32.659242 - 68 (174.730000,101.100000) forward to 46 (451.600006,248.559998) using gf  
packet 668 - 32.661077 - 46 (451.600000,248.560000) forward to 69 (603.049988,607.299988) using gf  
packet 669 - 33.186156 - 68 (174.730000,101.100000) forward to 46 (451.600006,248.559998) using gf  
packet 669 - 33.188591 - 46 (451.600000,248.560000) forward to 69 (603.049988,607.299988) using gf  
packet 670 - 34.086176 - 68 (174.730000,101.100000) forward to 46 (451.600006,248.559998) using gf  
packet 670 - 34.088211 - 46 (451.600000,248.560000) forward to 69 (603.049988,607.299988) using gf  
packet 671 - 34.798078 - 68 (174.730000,101.100000) forward to 46 (451.600006,248.559998) using gf  
packet 671 - 34.799954 - 46 (451.600000,248.560000) forward to 69 (603.049988,607.299988) using gf  
packet 742 - 35.548242 - 68 (174.730000,101.100000) forward to 46 (451.600006,248.559998) using gf  
packet 742 - 35.550557 - 46 (451.600000,248.560000) forward to 69 (603.049988,607.299988) using gf  
packet 743 - 36.204765 - 68 (174.730000,101.100000) forward to 46 (451.600006,248.559998) using gf  
packet 743 - 36.206720 - 46 (451.600000,248.560000) forward to 69 (603.049988,607.299988) using gf  
packet 744 - 37.618790 - 68 (174.730000,101.100000) forward to 46 (451.600006,248.559998) using gf  
packet 744 - 37.620965 - 46 (451.600000,248.560000) forward to 69 (603.049988,607.299988) using gf  
packet 745 - 38.237876 - 68 (174.730000,101.100000) forward to 46 (451.600006,248.559998) using gf  
packet 745 - 38.240311 - 46 (451.600000,248.560000) forward to 69 (603.049988,607.299988) using gf  
packet 746 - 39.138399 - 68 (174.730000,101.100000) forward to 46 (451.600006,248.559998) using gf  
packet 746 - 39.140314 - 46 (451.600000,248.560000) forward to 69 (603.049988,607.299988) using gf  
packet 747 - 39.870586 - 68 (174.730000,101.100000) forward to 46 (451.600006,248.559998) using gf  
packet 747 - 39.872961 - 46 (451.600000,248.560000) forward to 69 (603.049988,607.299988) using gf  
packet 822 - 40.647691 - 68 (174.730000,101.100000) forward to 46 (451.600006,248.559998) using gf  
packet 822 - 40.649886 - 46 (451.600000,248.560000) forward to 69 (603.049988,607.299988) using gf  
packet 823 - 41.500951 - 68 (174.730000,101.100000) forward to 46 (451.600006,248.559998) using gf  
packet 823 - 41.502907 - 46 (451.600000,248.560000) forward to 69 (603.049988,607.299988) using gf  
packet 824 - 42.330577 - 68 (174.730000,101.100000) forward to 46 (451.600006,248.559998) using gf  
packet 824 - 42.332672 - 46 (451.600000,248.560000) forward to 69 (603.049988,607.299988) using gf  
packet 825 - 42.937738 - 68 (174.730000,101.100000) forward to 46 (451.600006,248.559998) using gf  
packet 825 - 42.939693 - 46 (451.600000,248.560000) forward to 69 (603.049988,607.299988) using gf  
packet 826 - 44.033901 - 68 (174.730000,101.100000) forward to 46 (451.600006,248.559998) using gf  
packet 826 - 44.035816 - 46 (451.600000,248.560000) forward to 69 (603.049988,607.299988) using gf  
packet 827 - 44.641162 - 68 (174.730000,101.100000) forward to 46 (451.600006,248.559998) using gf  
packet 827 - 44.643557 - 46 (451.600000,248.560000) forward to 69 (603.049988,607.299988) using gf  
packet 898 - 46.134764 - 68 (174.730000,101.100000) forward to 46 (451.600006,248.559998) using gf  
packet 898 - 46.136759 - 46 (451.600000,248.560000) forward to 69 (603.049988,607.299988) using gf  
packet 899 - 47.002569 - 68 (174.730000,101.100000) forward to 46 (451.600006,248.559998) using gf  
packet 899 - 47.004964 - 46 (451.600000,248.603118) forward to 69 (603.049988,607.299988) using gf  
packet 900 - 48.500030 - 68 (174.730000,101.100000) forward to 46 (451.600006,248.559998) using gf  
packet 900 - 48.501905 - 46 (451.600000,259.382966) forward to 69 (603.049988,607.299988) using gf  
packet 901 - 49.221488 - 68 (174.730000,101.100000) forward to 46 (451.600006,248.559998) using gf  
packet 901 - 49.223703 - 46 (451.600000,261.513553) forward to 69 (603.049988,607.299988) using gf  
packet 902 - 49.772613 - 68 (174.730000,101.100000) forward to 46 (451.600006,248.559998) using gf  
packet 902 - 49.774488 - 46 (451.600000,261.596171) forward to 69 (603.049988,607.299988) using gf  
packet 977 - 51.184396 - 68 (174.730000,101.100000) forward to 26 (451.600006,351.779999) using gf  
packet 977 - 51.189488 - 26 (451.600000,351.780000) forward to 69 (603.049988,607.299988) using gf  
packet 978 - 52.005055 - 68 (174.730000,101.100000) forward to 26 (451.600006,351.779999) using gf  
packet 978 - 52.006910 - 26 (451.600000,351.780000) forward to 69 (603.049988,607.299988) using gf  
packet 979 - 53.032901 - 68 (174.730000,101.100000) forward to 26 (451.600006,351.779999) using gf  
packet 979 - 53.034837 - 26 (451.600000,351.780000) forward to 69 (603.049988,607.299988) using gf  
packet 980 - 54.327436 - 68 (174.730000,101.100000) forward to 26 (451.600006,351.779999) using gf  
packet 980 - 54.329871 - 26 (451.600000,351.780000) forward to 69 (603.049988,607.299988) using gf  
packet 1016 - 55.299521 - 68 (174.730000,101.100000) forward to 46 (451.600006,261.779999) using gf  
packet 1016 - 55.301377 - 46 (451.600000,261.780000) forward to 69 (603.049988,607.299988) using gf  
packet 1052 - 56.414439 - 68 (174.730000,101.100000) forward to 46 (451.600006,261.779999) using gf  
packet 1052 - 56.416374 - 46 (451.600000,261.780000) forward to 69 (603.049988,607.299988) using gf  
packet 1053 - 57.659301 - 68 (174.730000,101.100000) forward to 46 (451.600006,261.779999) using gf  
packet 1053 - 57.661276 - 46 (451.600000,261.780000) forward to 69 (603.049988,607.299988) using gf  
packet 1054 - 58.606506 - 68 (174.730000,101.100000) forward to 46 (451.600006,261.779999) using gf  
packet 1054 - 58.608682 - 46 (451.600000,261.780000) forward to 69 (603.049988,607.299988) using gf  
packet 1055 - 59.558925 - 68 (174.730000,101.100000) forward to 46 (451.600006,261.779999) using gf  
packet 1055 - 59.561280 - 46 (451.600000,261.780000) forward to 69 (603.049988,607.299988) using gf  
packet 1133 - 60.738744 - 68 (174.730000,101.100000) forward to 46 (451.600006,261.779999) using gf  
packet 1133 - 60.740880 - 46 (451.600000,261.780000) forward to 69 (603.049988,607.299988) using gf  
packet 1134 - 61.486022 - 68 (174.730000,101.100000) forward to 46 (451.600006,261.779999) using gf  
packet 1134 - 61.488457 - 46 (451.600000,261.780000) forward to 69 (603.049988,607.299988) using gf  
packet 1135 - 62.688941 - 68 (174.730000,101.100000) forward to 46 (451.600006,261.779999) using gf  
packet 1135 - 62.691036 - 46 (451.600000,261.780000) forward to 69 (603.049988,607.299988) using gf  
packet 1136 - 64.153539 - 68 (174.730000,101.100000) forward to 46 (451.600006,261.779999) using gf  
packet 1136 - 64.155394 - 46 (451.600000,261.780000) forward to 69 (603.049988,607.299988) using gf  
packet 1155 - 65.161918 - 68 (174.730000,101.100000) forward to 46 (451.600006,261.779999) using gf  
packet 1155 - 65.164013 - 46 (451.600000,261.780000) forward to 69 (603.049988,607.299988) using gf  
packet 1208 - 66.268789 - 68 (174.730000,101.100000) forward to 46 (451.600006,261.779999) using gf  
packet 1208 - 66.271124 - 46 (451.600000,261.780000) forward to 69 (603.049988,607.299988) using gf  
packet 1209 - 67.500750 - 68 (174.730000,101.100000) forward to 46 (451.600006,261.779999) using gf  
packet 1209 - 67.502585 - 46 (451.600000,261.780000) forward to 69 (603.049988,607.299988) using gf  
packet 1210 - 68.563104 - 68 (174.730000,101.100000) forward to 46 (451.600006,261.779999) using gf  
packet 1210 - 68.565299 - 46 (451.600000,261.780000) forward to 69 (603.049988,607.299988) using gf  
packet 1211 - 69.274759 - 68 (174.730000,101.100000) forward to 46 (451.600006,261.779999) using gf  
packet 1211 - 69.277054 - 46 (451.600000,261.780000) forward to 69 (603.049988,607.299988) using gf  
packet 1212 - 69.970325 - 68 (174.730000,101.100000) forward to 46 (451.600006,261.779999) using gf  
packet 1212 - 69.972320 - 46 (451.600000,261.780000) forward to 69 (603.049988,607.299988) using gf  
packet 1288 - 70.953216 - 68 (174.730000,101.100000) forward to 46 (451.600006,261.779999) using gf  
packet 1288 - 70.955532 - 46 (451.600000,261.780000) forward to 69 (603.049988,607.299988) using gf  
packet 1289 - 72.191252 - 68 (174.730000,101.100000) forward to 46 (451.600006,261.779999) using gf  
packet 1289 - 72.193647 - 46 (451.600000,261.780000) forward to 69 (603.049988,607.299988) using gf  
packet 1290 - 73.281895 - 68 (174.730000,101.100000) forward to 46 (451.600006,261.779999) using gf  
packet 1290 - 73.283770 - 46 (451.600000,261.780000) forward to 69 (603.049988,607.299988) using gf  
packet 1291 - 74.578164 - 68 (174.730000,101.100000) forward to 46 (451.600006,261.779999) using gf  
packet 1291 - 74.580099 - 46 (451.600000,261.780000) forward to 69 (603.049988,607.299988) using gf  
packet 1362 - 75.510439 - 68 (174.730000,101.100000) forward to 46 (451.600006,261.779999) using gf  
packet 1362 - 75.512834 - 46 (451.600000,261.780000) forward to 69 (603.049988,607.299988) using gf  
packet 1363 - 76.490229 - 68 (174.730000,101.100000) forward to 46 (451.600006,261.779999) using gf  
packet 1363 - 76.492204 - 46 (451.600000,261.780000) forward to 69 (603.049988,607.299988) using gf  
packet 1364 - 76.999728 - 68 (174.730000,101.100000) forward to 46 (451.600006,261.779999) using gf  
packet 1364 - 77.001863 - 46 (451.600000,261.780000) forward to 69 (603.049988,607.299988) using gf  
packet 1365 - 77.587070 - 68 (174.730000,101.100000) forward to 46 (451.600006,261.779999) using gf  
packet 1365 - 77.588945 - 46 (451.600000,261.780000) forward to 69 (603.049988,607.299988) using gf  
packet 1366 - 78.400430 - 68 (174.730000,101.100000) forward to 46 (451.600006,261.779999) using gf  
packet 1366 - 78.402565 - 46 (451.600000,261.780000) forward to 69 (603.049988,607.299988) using gf  
packet 1367 - 79.767808 - 68 (174.730000,101.100000) forward to 46 (451.600006,261.779999) using gf  
packet 1367 - 79.769663 - 46 (451.600000,261.780000) forward to 69 (603.049988,607.299988) using gf  
packet 1412 - 80.333417 - 68 (174.730000,101.100000) forward to 46 (451.600006,261.779999) using gf  
packet 1412 - 80.335672 - 46 (451.600000,261.780000) forward to 69 (603.049988,607.299988) using gf  
packet 1444 - 81.623409 - 68 (174.730000,101.100000) forward to 46 (451.600006,261.779999) using gf  
packet 1444 - 81.625664 - 46 (451.600000,261.780000) forward to 69 (603.049988,607.299988) using gf  
packet 1445 - 82.131100 - 68 (174.730000,101.100000) forward to 46 (451.600006,261.779999) using gf  
packet 1445 - 82.133175 - 46 (451.600000,261.780000) forward to 69 (603.049988,607.299988) using gf  
packet 1446 - 83.577432 - 68 (174.730000,101.100000) forward to 46 (451.600006,261.779999) using gf  
packet 1446 - 83.579447 - 46 (451.600000,261.780000) forward to 69 (603.049988,607.299988) using gf  
packet 1447 - 84.519409 - 68 (174.730000,101.100000) forward to 46 (451.600006,261.779999) using gf  
packet 1447 - 84.521424 - 46 (451.600000,261.780000) forward to 69 (603.049988,607.299988) using gf  
packet 1472 - 85.212003 - 68 (174.730000,101.100000) forward to 46 (451.600006,261.779999) using gf  
packet 1472 - 85.213858 - 46 (451.600000,261.780000) forward to 69 (603.049988,607.299988) using gf  
packet 1519 - 86.544378 - 68 (174.730000,101.100000) forward to 46 (451.600006,261.779999) using gf  
packet 1519 - 86.546433 - 46 (451.600000,261.780000) forward to 69 (603.049988,607.299988) using gf  
packet 1520 - 87.532418 - 68 (174.730000,101.100000) forward to 46 (451.600006,261.779999) using gf  
packet 1520 - 87.534474 - 46 (451.600000,261.780000) forward to 69 (603.049988,607.299988) using gf  
packet 1521 - 88.872367 - 68 (174.730000,101.100000) forward to 46 (451.600006,261.779999) using gf  
packet 1521 - 88.874582 - 46 (451.600000,261.780000) forward to 69 (603.049988,607.299988) using gf  
packet 1548 - 90.180117 - 68 (174.730000,101.100000) forward to 26 (451.600006,351.779999) using gf  
packet 1548 - 90.182273 - 26 (451.600000,352.115358) forward to 69 (603.049988,607.299988) using gf  
packet 1598 - 90.695658 - 68 (174.730000,101.100000) forward to 5 (451.600006,254.300003) using gf  
packet 1598 - 90.701088 - 5 (451.600000,254.300000) forward to 69 (603.049988,607.299988) using gf  
packet 1599 - 92.089012 - 68 (174.730000,101.100000) forward to 5 (451.600006,254.300003) using gf  
packet 1599 - 92.091247 - 5 (451.600000,256.191034) forward to 69 (603.049988,607.299988) using gf  
packet 1600 - 92.589373 - 68 (174.730000,101.100000) forward to 5 (451.600006,254.300003) using gf  
packet 1600 - 92.591648 - 5 (451.600000,257.787314) forward to 69 (603.049988,607.299988) using gf  
packet 1601 - 93.896713 - 68 (174.730000,101.100000) forward to 5 (451.600006,254.300003) using gf  
packet 1601 - 93.898669 - 5 (451.600000,263.870846) forward to 69 (603.049988,607.299988) using gf  
packet 1602 - 94.919134 - 68 (174.730000,101.100000) forward to 5 (451.600006,254.300003) using gf  
packet 1602 - 94.921029 - 5 (451.600000,271.041313) forward to 69 (603.049988,607.299988) using gf  
packet 1673 - 95.744235 - 68 (174.730000,101.100000) forward to 5 (451.600006,275.349854) using gf  
packet 1673 - 95.746650 - 5 (451.600000,278.269998) forward to 69 (603.049988,607.299988) using gf  
packet 1674 - 96.788282 - 68 (174.730000,101.100000) forward to 5 (451.600006,275.349854) using gf  
packet 1674 - 96.790677 - 5 (451.600000,289.116609) forward to 69 (603.049988,607.299988) using gf  
packet 1675 - 97.929921 - 68 (174.730000,101.100000) forward to 5 (451.600006,275.349854) using gf  
packet 1675 - 97.932357 - 5 (451.600000,303.128203) forward to 69 (603.049988,607.299988) using gf  
packet 1676 - 98.770687 - 68 (174.730000,101.100000) forward to 5 (451.600006,275.349854) using gf  
packet 1676 - 98.772582 - 5 (451.600000,315.043187) forward to 69 (603.049988,607.299988) using gf  
packet 1677 - 99.860283 - 68 (174.730000,101.100000) forward to 5 (451.600006,275.349854) using gf  
packet 1677 - 99.862378 - 5 (451.600000,332.425539) forward to 69 (603.049988,607.299988) using gf  
packet 1753 - 100.638959 - 68 (174.730000,101.100000) forward to 26 (451.600006,384.775879) using gf  
packet 1754 - 101.963016 - 68 (174.730000,101.100000) forward to 26 (451.600006,384.775879) using gf  
packet 1755 - 102.981156 - 68 (174.730000,101.100000) forward to 26 (451.600006,384.775879) using gf  
packet 1756 - 103.875852 - 68 (174.730000,101.100000) forward to 26 (451.600006,384.775879) using gf  
packet 1784 - 105.227290 - 68 (174.730000,101.100000) forward to 26 (451.600006,384.775879) using gf  
packet 1828 - 106.400530 - 68 (174.730000,101.100000) forward to 26 (451.600006,384.775879) using gf  
packet 1829 - 107.850022 - 68 (174.730000,101.100000) forward to 26 (451.600006,384.775879) using gf  
packet 1830 - 108.501035 - 68 (174.730000,101.100000) forward to 26 (451.600006,384.775879) using gf  
packet 1831 - 109.676668 - 68 (174.730000,101.100000) forward to 26 (451.600006,384.775879) using gf  
packet 1912 - 110.501533 - 68 (174.730000,101.100000) forward to 26 (451.600006,384.775879) using gf  
packet 1913 - 111.061221 - 68 (174.730000,101.100000) forward to 26 (451.600006,384.775879) using gf  
packet 1914 - 112.227284 - 68 (174.730000,101.100000) forward to 26 (451.600006,384.775879) using gf  
packet 1915 - 113.303334 - 68 (174.730000,101.100000) forward to 26 (451.600006,384.775879) using gf  
packet 1916 - 114.566789 - 68 (174.730000,101.100000) forward to 26 (451.600006,384.775879) using gf  
packet 1987 - 115.623626 - 68 (174.730000,101.100000) forward to 26 (451.600006,384.775879) using gf  
packet 1988 - 117.064127 - 68 (174.730000,101.100000) forward to 26 (451.600006,384.775879) using gf  
packet 1989 - 117.957607 - 68 (174.730000,101.100000) forward to 26 (451.600006,384.775879) using gf  
packet 1990 - 118.623885 - 68 (174.730000,101.100000) forward to 26 (451.600006,384.775879) using gf  
packet 1991 - 119.157900 - 68 (174.730000,101.100000) forward to 26 (451.600006,384.775879) using gf  
packet 2069 - 120.595411 - 68 (174.730000,101.100000) forward to 26 (451.600006,384.775879) using gf  
packet 2070 - 121.356523 - 68 (174.730000,101.100000) forward to 26 (451.600006,384.775879) using gf  
packet 2071 - 121.995158 - 68 (174.730000,101.100000) forward to 26 (451.600006,384.775879) using gf  
packet 2072 - 122.538284 - 68 (174.730000,101.100000) forward to 26 (451.600006,384.775879) using gf  
packet 2073 - 123.810469 - 68 (174.730000,101.100000) forward to 26 (451.600006,384.775879) using gf  
packet 2085 - 125.088694 - 68 (174.730000,101.100000) forward to 26 (451.600006,384.775879) using gf  
packet 2145 - 126.327741 - 68 (174.730000,101.100000) forward to 5 (451.600006,387.771759) using gf  
packet 2146 - 127.678039 - 68 (174.730000,101.100000) forward to 5 (451.600006,387.771759) using gf  
packet 2147 - 128.953415 - 68 (174.730000,101.100000) forward to 5 (451.600006,387.771759) using gf  
packet 2148 - 129.548010 - 68 (174.730000,101.100000) forward to 5 (451.600006,387.771759) using gf  
packet 2194 - 130.340617 - 68 (174.730000,101.100000) forward to 5 (451.600006,387.771759) using gf  
packet 2225 - 131.355388 - 68 (174.730000,101.100000) forward to 5 (451.600006,387.771759) using gf  
packet 2226 - 132.342054 - 68 (174.730000,101.100000) forward to 5 (451.600006,387.771759) using gf  
packet 2227 - 133.027372 - 68 (174.730000,101.100000) forward to 5 (451.600006,387.771759) using gf  
packet 2228 - 134.525060 - 68 (174.730000,101.100000) forward to 5 (451.600006,387.771759) using gf  
packet 2296 - 135.473528 - 68 (174.730000,101.100000) forward to 5 (451.600006,387.771759) using gf  
packet 2300 - 136.593584 - 68 (174.730000,101.100000) forward to 5 (451.600006,387.771759) using gf  
packet 2301 - 137.646378 - 68 (174.730000,101.100000) forward to 5 (451.600006,387.771759) using gf  
packet 2302 - 138.599348 - 68 (174.730000,101.100000) forward to 5 (451.600006,387.771759) using gf  
packet 2303 - 139.787608 - 68 (174.730000,101.100000) forward to 5 (451.600006,387.771759) using gf  
packet 2376 - 141.074900 - 68 (174.730000,101.100000) forward to 5 (451.600006,387.771759) using gf  
packet 2377 - 141.818259 - 68 (174.730000,101.100000) forward to 5 (451.600006,387.771759) using gf  
packet 2378 - 142.376896 - 68 (174.730000,101.100000) forward to 5 (451.600006,387.771759) using gf  
packet 2379 - 143.771308 - 68 (174.730000,101.100000) forward to 5 (451.600006,387.771759) using gf  
packet 2380 - 144.381405 - 68 (174.730000,101.100000) forward to 5 (451.600006,387.771759) using gf  
packet 2395 - 145.114692 - 68 (174.730000,101.100000) forward to 5 (451.600006,387.771759) using gf  
packet 2452 - 145.796919 - 68 (174.730000,101.100000) forward to 5 (451.600006,387.771759) using gf  
packet 2453 - 146.685805 - 68 (174.730000,101.100000) forward to 5 (451.600006,387.771759) using gf  
packet 2454 - 147.639878 - 68 (174.730000,101.100000) forward to 5 (451.600006,387.771759) using gf  
packet 2455 - 148.176124 - 68 (174.730000,101.100000) forward to 5 (451.600006,387.771759) using gf  
packet 2456 - 149.452173 - 68 (174.730000,101.100000) forward to 5 (451.600006,387.771759) using gf  
packet 2496 - 150.283326 - 68 (174.730000,101.100000) forward to 5 (451.600006,387.771759) using gf  
packet 2534 - 151.048899 - 68 (174.730000,101.100000) forward to 5 (451.600006,387.771759) using gf  
packet 2535 - 151.633634 - 68 (174.730000,101.100000) forward to 5 (451.600006,387.771759) using gf  
packet 2536 - 153.072782 - 68 (174.730000,101.100000) forward to 5 (451.600006,387.771759) using gf  
packet 2537 - 154.092206 - 68 (174.730000,101.100000) forward to 5 (451.600006,387.771759) using gf  
packet 2538 - 154.739975 - 68 (174.730000,101.100000) forward to 5 (451.600006,387.771759) using gf  
packet 2572 - 155.285424 - 68 (174.730000,101.100000) forward to 5 (451.600006,387.771759) using gf  
packet 2610 - 156.175853 - 68 (174.730000,101.100000) forward to 5 (451.600006,387.771759) using gf  
packet 2611 - 156.859651 - 68 (174.730000,101.100000) forward to 5 (451.600006,387.771759) using gf  
packet 2612 - 158.305013 - 68 (174.730000,101.100000) forward to 5 (451.600006,387.771759) using gf  
packet 2613 - 159.754786 - 68 (174.730000,101.100000) forward to 5 (451.600006,387.771759) using gf  
packet 2688 - 161.171351 - 68 (174.730000,101.100000) forward to 37 (361.600006,339.733917) using gf  
packet 2688 - 161.176281 - 37 (361.600000,347.491983) forward to 69 (603.049988,607.299988) using gf  
packet 2689 - 162.229728 - 68 (174.730000,101.100000) forward to 37 (361.600006,339.733917) using gf  
packet 2689 - 162.232163 - 37 (361.600000,351.447323) forward to 69 (603.049988,607.299988) using gf  
packet 2690 - 162.897866 - 68 (174.730000,101.100000) forward to 37 (361.600006,339.733917) using gf  
packet 2690 - 162.900261 - 37 (361.600000,351.641072) forward to 69 (603.049988,607.299988) using gf  
packet 2691 - 164.132169 - 68 (174.730000,101.100000) forward to 37 (361.600006,339.733917) using gf  
packet 2691 - 164.134604 - 37 (361.600000,351.754038) forward to 69 (603.049988,607.299988) using gf  
packet 2692 - 164.781192 - 68 (174.730000,101.100000) forward to 37 (361.600006,339.733917) using gf  
packet 2692 - 164.783027 - 37 (361.600000,351.773490) forward to 69 (603.049988,607.299988) using gf  
packet 2763 - 165.603979 - 68 (174.730000,101.100000) forward to 37 (361.600006,351.781464) using gf  
packet 2763 - 165.606194 - 37 (361.600000,351.786062) forward to 69 (603.049988,607.299988) using gf  
packet 2764 - 166.615754 - 68 (174.730000,101.100000) forward to 37 (361.600006,351.781464) using gf  
packet 2764 - 166.618109 - 37 (361.600000,351.790000) forward to 69 (603.049988,607.299988) using gf  
packet 2765 - 167.603412 - 68 (174.730000,101.100000) forward to 37 (361.600006,351.781464) using gf  
packet 2765 - 167.605487 - 37 (361.600000,351.790000) forward to 69 (603.049988,607.299988) using gf  
packet 2766 - 168.962454 - 68 (174.730000,101.100000) forward to 37 (361.600006,351.781464) using gf  
packet 2766 - 168.964850 - 37 (361.600000,351.790000) forward to 69 (603.049988,607.299988) using gf  
packet 2791 - 170.199210 - 68 (174.730000,101.100000) forward to 37 (361.600006,351.790009) using gf  
packet 2791 - 170.201345 - 37 (361.600000,351.790000) forward to 69 (603.049988,607.299988) using gf  
packet 2840 - 171.633446 - 68 (174.730000,101.100000) forward to 37 (361.600006,351.790009) using gf  
packet 2840 - 171.635382 - 37 (361.600000,351.790000) forward to 69 (603.049988,607.299988) using gf  
packet 2841 - 173.095171 - 68 (174.730000,101.100000) forward to 37 (361.600006,351.790009) using gf  
packet 2841 - 173.097586 - 37 (361.600000,351.790000) forward to 69 (603.049988,607.299988) using gf  
packet 2842 - 173.750031 - 68 (174.730000,101.100000) forward to 37 (361.600006,351.790009) using gf  
packet 2842 - 173.752026 - 37 (361.600000,351.790000) forward to 69 (603.049988,607.299988) using gf  
packet 2843 - 174.752403 - 68 (174.730000,101.100000) forward to 37 (361.600006,351.790009) using gf  
packet 2843 - 174.754558 - 37 (361.600000,351.790000) forward to 69 (603.049988,607.299988) using gf  
packet 2886 - 175.363164 - 68 (174.730000,101.100000) forward to 37 (361.600006,351.790009) using gf  
packet 2886 - 175.366259 - 37 (361.600000,351.790000) forward to 69 (603.049988,607.299988) using gf  
packet 2915 - 176.004442 - 68 (174.730000,101.100000) forward to 37 (361.600006,351.790009) using gf  
packet 2915 - 176.006617 - 37 (361.600000,351.790000) forward to 69 (603.049988,607.299988) using gf  
packet 2916 - 177.105164 - 68 (174.730000,101.100000) forward to 37 (361.600006,351.790009) using gf  
packet 2916 - 177.107199 - 37 (361.600000,351.790000) forward to 69 (603.049988,607.299988) using gf  
packet 2917 - 178.310227 - 68 (174.730000,101.100000) forward to 37 (361.600006,351.790009) using gf  
packet 2917 - 178.312122 - 37 (361.600000,351.790000) forward to 69 (603.049988,607.299988) using gf  
packet 2918 - 179.448581 - 68 (174.730000,101.100000) forward to 37 (361.600006,351.790009) using gf  
packet 2918 - 179.450956 - 37 (361.600000,351.790000) forward to 69 (603.049988,607.299988) using gf  
packet 2961 - 180.313102 - 68 (174.730000,101.100000) forward to 38 (361.600006,344.290009) using gf  
packet 2961 - 180.318172 - 38 (361.600000,344.290000) forward to 69 (603.049988,607.299988) using gf  
packet 2994 - 181.712755 - 68 (174.730000,101.100000) forward to 38 (361.600006,344.290009) using gf  
packet 2994 - 181.715170 - 38 (361.600000,345.706010) forward to 69 (603.049988,607.299988) using gf  
packet 2995 - 182.411379 - 68 (174.730000,101.100000) forward to 38 (361.600006,344.290009) using gf  
packet 2995 - 182.413734 - 38 (361.600000,347.817315) forward to 69 (603.049988,607.299988) using gf  
packet 2996 - 183.336210 - 68 (174.730000,101.100000) forward to 38 (361.600006,344.290009) using gf  
packet 2996 - 183.338485 - 38 (361.600000,351.827592) forward to 69 (603.049988,607.299988) using gf  
packet 2997 - 184.833051 - 68 (174.730000,101.100000) forward to 38 (361.600006,344.290009) using gf  
packet 2997 - 184.834987 - 38 (361.600000,361.149664) forward to 69 (603.049988,607.299988) using gf  
packet 3068 - 185.969349 - 68 (174.730000,101.100000) forward to 40 (441.790009,358.399994) using gf  
packet 3068 - 185.974301 - 40 (441.790000,358.400000) forward to 69 (603.049988,607.299988) using gf  
packet 3069 - 187.043710 - 68 (174.730000,101.100000) forward to 40 (441.790009,358.399994) using gf  
packet 3069 - 187.045685 - 40 (441.790000,358.400000) forward to 69 (603.049988,607.299988) using gf  
packet 3070 - 188.219143 - 68 (174.730000,101.100000) forward to 40 (441.790009,358.399994) using gf  
packet 3070 - 188.221179 - 40 (441.790000,358.400000) forward to 69 (603.049988,607.299988) using gf  
packet 3071 - 188.809769 - 68 (174.730000,101.100000) forward to 40 (441.790009,358.399994) using gf  
packet 3071 - 188.812064 - 40 (441.790000,358.400000) forward to 69 (603.049988,607.299988) using gf  
packet 3072 - 189.547503 - 68 (174.730000,101.100000) forward to 40 (441.790009,358.399994) using gf  
packet 3072 - 189.549618 - 40 (441.790000,358.400000) forward to 69 (603.049988,607.299988) using gf  
packet 3086 - 190.080358 - 68 (174.730000,101.100000) forward to 40 (441.790009,358.399994) using gf  
packet 3086 - 190.082313 - 40 (441.790000,358.400000) forward to 69 (603.049988,607.299988) using gf  
packet 3147 - 190.584575 - 68 (174.730000,101.100000) forward to 40 (441.790009,358.399994) using gf  
packet 3147 - 190.586571 - 40 (441.790000,358.400000) forward to 69 (603.049988,607.299988) using gf  
packet 3148 - 191.796735 - 68 (174.730000,101.100000) forward to 40 (441.790009,358.399994) using gf  
packet 3148 - 191.798690 - 40 (441.790000,358.400000) forward to 69 (603.049988,607.299988) using gf  
packet 3149 - 193.022493 - 68 (174.730000,101.100000) forward to 40 (441.790009,358.399994) using gf  
packet 3149 - 193.024549 - 40 (441.790000,358.400000) forward to 69 (603.049988,607.299988) using gf  
packet 3150 - 193.660865 - 68 (174.730000,101.100000) forward to 40 (441.790009,358.399994) using gf  
packet 3150 - 193.663160 - 40 (441.790000,358.400000) forward to 69 (603.049988,607.299988) using gf  
packet 3151 - 194.511399 - 68 (174.730000,101.100000) forward to 40 (441.790009,358.399994) using gf  
packet 3151 - 194.513595 - 40 (441.790000,358.400000) forward to 69 (603.049988,607.299988) using gf  
