packet 360 - 10.000000 - 88 (174.730000,101.100000) forward to 70 (363.059998,373.420013) using gf  
packet 479 - 10.854872 - 88 (174.730000,101.100000) forward to 70 (363.059998,373.420013) using gf  
packet 479 - 10.860343 - 70 (363.060000,373.420000) forward to 89 (603.049988,607.299988) using gf  
packet 480 - 11.389209 - 88 (174.730000,101.100000) forward to 70 (363.059998,373.420013) using gf  
packet 480 - 11.391204 - 70 (363.060000,373.420000) forward to 89 (603.049988,607.299988) using gf  
packet 481 - 12.617531 - 88 (174.730000,101.100000) forward to 70 (363.059998,373.420013) using gf  
packet 481 - 12.619626 - 70 (363.060000,373.420000) forward to 89 (603.049988,607.299988) using gf  
packet 482 - 13.354471 - 88 (174.730000,101.100000) forward to 70 (363.059998,373.420013) using gf  
packet 482 - 13.356886 - 70 (363.060000,373.420000) forward to 89 (603.049988,607.299988) using gf  
packet 483 - 14.781963 - 88 (174.730000,101.100000) forward to 70 (363.059998,373.420013) using gf  
packet 483 - 14.784098 - 70 (363.060000,373.420000) forward to 89 (603.049988,607.299988) using gf  
packet 574 - 15.831255 - 88 (174.730000,101.100000) forward to 70 (363.059998,373.420013) using gf  
packet 574 - 15.833310 - 70 (363.060000,373.420000) forward to 89 (603.049988,607.299988) using gf  
packet 575 - 16.832472 - 88 (174.730000,101.100000) forward to 70 (363.059998,373.420013) using gf  
packet 575 - 16.834767 - 70 (363.060000,373.420000) forward to 89 (603.049988,607.299988) using gf  
packet 576 - 17.472001 - 88 (174.730000,101.100000) forward to 70 (363.059998,373.420013) using gf  
packet 576 - 17.474436 - 70 (363.060000,373.420000) forward to 89 (603.049988,607.299988) using gf  
packet 577 - 18.317690 - 88 (174.730000,101.100000) forward to 70 (363.059998,373.420013) using gf  
packet 577 - 18.319646 - 70 (363.060000,373.420000) forward to 89 (603.049988,607.299988) using gf  
packet 578 - 19.573149 - 88 (174.730000,101.100000) forward to 70 (363.059998,373.420013) using gf  
packet 578 - 19.575564 - 70 (363.060000,373.420000) forward to 89 (603.049988,607.299988) using gf  
packet 674 - 20.738020 - 88 (174.730000,101.100000) forward to 70 (363.059998,373.420013) using gf  
packet 674 - 20.739975 - 70 (363.060000,373.420000) forward to 89 (603.049988,607.299988) using gf  
packet 675 - 21.994174 - 88 (174.730000,101.100000) forward to 70 (363.059998,373.420013) using gf  
packet 675 - 21.996109 - 70 (363.060000,373.420000) forward to 89 (603.049988,607.299988) using gf  
packet 676 - 22.566641 - 88 (174.730000,101.100000) forward to 70 (363.059998,373.420013) using gf  
packet 676 - 22.568917 - 70 (363.060000,373.420000) forward to 89 (603.049988,607.299988) using gf  
packet 677 - 23.833967 - 88 (174.730000,101.100000) forward to 70 (363.059998,373.420013) using gf  
packet 677 - 23.836203 - 70 (363.060000,373.420000) forward to 89 (603.049988,607.299988) using gf  
packet 678 - 24.778342 - 88 (174.730000,101.100000) forward to 70 (363.059998,373.420013) using gf  
packet 678 - 24.780178 - 70 (363.060000,373.420000) forward to 89 (603.049988,607.299988) using gf  
packet 769 - 25.661286 - 88 (174.730000,101.100000) forward to 70 (363.059998,373.420013) using gf  
packet 769 - 25.663541 - 70 (363.060000,373.420000) forward to 89 (603.049988,607.299988) using gf  
packet 770 - 26.347541 - 88 (174.730000,101.100000) forward to 70 (363.059998,373.420013) using gf  
packet 770 - 26.349416 - 70 (363.060000,373.420000) forward to 89 (603.049988,607.299988) using gf  
packet 771 - 27.775401 - 88 (174.730000,101.100000) forward to 70 (363.059998,373.420013) using gf  
packet 771 - 27.777416 - 70 (363.060000,373.420000) forward to 89 (603.049988,607.299988) using gf  
packet 772 - 29.237767 - 88 (174.730000,101.100000) forward to 70 (363.059998,373.420013) using gf  
packet 772 - 29.239703 - 70 (363.060000,373.420000) forward to 89 (603.049988,607.299988) using gf  
packet 868 - 30.647356 - 88 (174.730000,101.100000) forward to 87 (412.559998,368.630005) using gf  
packet 868 - 30.652467 - 87 (412.560000,368.630000) forward to 89 (603.049988,607.299988) using gf  
packet 869 - 31.802768 - 88 (174.730000,101.100000) forward to 87 (412.559998,368.630005) using gf  
packet 869 - 31.805164 - 87 (412.560000,368.630000) forward to 89 (603.049988,607.299988) using gf  
packet 870 - 33.224630 - 88 (174.730000,101.100000) forward to 87 (412.559998,368.630005) using gf  
packet 870 - 33.226705 - 87 (412.560000,368.630000) forward to 89 (603.049988,607.299988) using gf  
packet 871 - 34.178228 - 88 (174.730000,101.100000) forward to 87 (412.559998,368.630005) using gf  
packet 871 - 34.180664 - 87 (412.560000,368.630000) forward to 89 (603.049988,607.299988) using gf  
packet 919 - 35.301499 - 88 (174.730000,101.100000) forward to 87 (412.559998,368.630005) using gf  
packet 919 - 35.303494 - 87 (412.560000,368.630000) forward to 89 (603.049988,607.299988) using gf  
packet 963 - 36.326471 - 88 (174.730000,101.100000) forward to 87 (412.559998,368.630005) using gf  
packet 963 - 36.328486 - 87 (412.560000,368.630000) forward to 89 (603.049988,607.299988) using gf  
packet 964 - 37.193556 - 88 (174.730000,101.100000) forward to 87 (412.559998,368.630005) using gf  
packet 964 - 37.195871 - 87 (412.560000,368.630000) forward to 89 (603.049988,607.299988) using gf  
packet 965 - 38.131783 - 88 (174.730000,101.100000) forward to 87 (412.559998,368.630005) using gf  
packet 965 - 38.133719 - 87 (412.560000,368.630000) forward to 89 (603.049988,607.299988) using gf  
packet 966 - 38.683667 - 88 (174.730000,101.100000) forward to 87 (412.559998,368.630005) using gf  
packet 966 - 38.685863 - 87 (412.560000,368.630000) forward to 89 (603.049988,607.299988) using gf  
packet 967 - 39.372873 - 88 (174.730000,101.100000) forward to 87 (412.559998,368.630005) using gf  
packet 967 - 39.375228 - 87 (412.560000,368.630000) forward to 89 (603.049988,607.299988) using gf  
packet 980 - 40.049500 - 88 (174.730000,101.100000) forward to 87 (412.559998,368.630005) using gf  
packet 980 - 40.051535 - 87 (412.560000,368.630000) forward to 89 (603.049988,607.299988) using gf  
packet 1062 - 41.196439 - 88 (174.730000,101.100000) forward to 87 (412.559998,368.630005) using gf  
packet 1062 - 41.198275 - 87 (412.560000,368.630000) forward to 89 (603.049988,607.299988) using gf  
packet 1063 - 42.294501 - 88 (174.730000,101.100000) forward to 87 (412.559998,368.630005) using gf  
packet 1063 - 42.296657 - 87 (412.560000,368.630000) forward to 89 (603.049988,607.299988) using gf  
packet 1064 - 43.740141 - 88 (174.730000,101.100000) forward to 87 (412.559998,368.630005) using gf  
packet 1064 - 43.742036 - 87 (412.560000,368.630000) forward to 89 (603.049988,607.299988) using gf  
packet 1065 - 44.805603 - 88 (174.730000,101.100000) forward to 87 (412.559998,368.630005) using gf  
packet 1065 - 44.808039 - 87 (412.560000,368.630000) forward to 89 (603.049988,607.299988) using gf  
packet 1156 - 45.777250 - 88 (174.730000,101.100000) forward to 87 (412.559998,368.630005) using gf  
packet 1156 - 45.779486 - 87 (412.560000,368.630000) forward to 89 (603.049988,607.299988) using gf  
packet 1157 - 46.696874 - 88 (174.730000,101.100000) forward to 87 (412.559998,368.630005) using gf  
packet 1157 - 46.699089 - 87 (412.560000,368.630000) forward to 89 (603.049988,607.299988) using gf  
packet 1158 - 47.959627 - 88 (174.730000,101.100000) forward to 87 (412.559998,368.630005) using gf  
packet 1158 - 47.961903 - 87 (412.560000,368.630000) forward to 89 (603.049988,607.299988) using gf  
packet 1159 - 48.660103 - 88 (174.730000,101.100000) forward to 87 (412.559998,368.630005) using gf  
packet 1159 - 48.662118 - 87 (412.560000,368.630000) forward to 89 (603.049988,607.299988) using gf  
packet 1186 - 50.135650 - 88 (174.730000,101.100000) forward to 87 (412.559998,368.630005) using gf  
packet 1186 - 50.137645 - 87 (412.560000,368.630000) forward to 89 (603.049988,607.299988) using gf  
packet 1257 - 50.734204 - 88 (174.730000,101.100000) forward to 87 (412.559998,368.630005) using gf  
packet 1257 - 50.736040 - 87 (412.560000,368.630000) forward to 89 (603.049988,607.299988) using gf  
packet 1258 - 52.114685 - 88 (174.730000,101.100000) forward to 87 (412.559998,368.630005) using gf  
packet 1258 - 52.116601 - 87 (412.560000,368.630000) forward to 89 (603.049988,607.299988) using gf  
packet 1259 - 52.690251 - 88 (174.730000,101.100000) forward to 87 (412.559998,368.630005) using gf  
packet 1259 - 52.692107 - 87 (412.560000,368.630000) forward to 89 (603.049988,607.299988) using gf  
packet 1260 - 53.925493 - 88 (174.730000,101.100000) forward to 87 (412.559998,368.630005) using gf  
packet 1260 - 53.927928 - 87 (412.560000,368.630000) forward to 89 (603.049988,607.299988) using gf  
packet 1318 - 55.369932 - 88 (174.730000,101.100000) forward to 87 (412.559998,368.630005) using gf  
packet 1318 - 55.371788 - 87 (412.560000,368.630000) forward to 89 (603.049988,607.299988) using gf  
packet 1352 - 55.930992 - 88 (174.730000,101.100000) forward to 87 (412.559998,368.630005) using gf  
packet 1352 - 55.932987 - 87 (412.560000,368.630000) forward to 89 (603.049988,607.299988) using gf  
packet 1353 - 56.634365 - 88 (174.730000,101.100000) forward to 87 (412.559998,368.630005) using gf  
packet 1353 - 56.636340 - 87 (412.560000,368.630000) forward to 89 (603.049988,607.299988) using gf  
packet 1354 - 57.695873 - 88 (174.730000,101.100000) forward to 87 (412.559998,368.630005) using gf  
packet 1354 - 57.697909 - 87 (412.560000,368.630000) forward to 89 (603.049988,607.299988) using gf  
packet 1355 - 58.928404 - 88 (174.730000,101.100000) forward to 87 (412.559998,368.630005) using gf  
packet 1355 - 58.930579 - 87 (412.560000,368.630000) forward to 89 (603.049988,607.299988) using gf  
packet 1435 - 60.421369 - 88 (174.730000,101.100000) forward to 87 (412.559998,368.630005) using gf  
packet 1435 - 60.423920 - 87 (412.560000,368.630000) forward to 89 (603.049988,607.299988) using gf  
packet 1454 - 60.976179 - 88 (174.730000,101.100000) forward to 87 (412.559998,368.630005) using gf  
packet 1454 - 60.978254 - 87 (412.560000,368.630000) forward to 89 (603.049988,607.299988) using gf  
packet 1455 - 61.529466 - 88 (174.730000,101.100000) forward to 87 (412.559998,368.630005) using gf  
packet 1455 - 61.531481 - 87 (412.560000,368.630000) forward to 89 (603.049988,607.299988) using gf  
packet 1456 - 62.988535 - 88 (174.730000,101.100000) forward to 87 (412.559998,368.630005) using gf  
packet 1456 - 62.990550 - 87 (412.560000,368.630000) forward to 89 (603.049988,607.299988) using gf  
packet 1457 - 63.936622 - 88 (174.730000,101.100000) forward to 87 (412.559998,368.630005) using gf  
packet 1457 - 63.938598 - 87 (412.560000,368.630000) forward to 89 (603.049988,607.299988) using gf  
packet 1458 - 64.655262 - 88 (174.730000,101.100000) forward to 87 (412.559998,368.630005) using gf  
packet 1458 - 64.657597 - 87 (412.560000,368.630000) forward to 89 (603.049988,607.299988) using gf  
packet 1549 - 65.905066 - 88 (174.730000,101.100000) forward to 87 (412.559998,368.630005) using gf  
packet 1549 - 65.907482 - 87 (412.560000,368.630000) forward to 89 (603.049988,607.299988) using gf  
packet 1550 - 66.706725 - 88 (174.730000,101.100000) forward to 87 (412.559998,368.630005) using gf  
packet 1550 - 66.708760 - 87 (412.560000,368.630000) forward to 89 (603.049988,607.299988) using gf  
packet 1551 - 67.719971 - 88 (174.730000,101.100000) forward to 87 (412.559998,368.630005) using gf  
packet 1551 - 67.721906 - 87 (412.560000,368.630000) forward to 89 (603.049988,607.299988) using gf  
packet 1552 - 68.342216 - 88 (174.730000,101.100000) forward to 87 (412.559998,368.630005) using gf  
packet 1552 - 68.344471 - 87 (412.560000,368.630000) forward to 89 (603.049988,607.299988) using gf  
packet 1553 - 69.103600 - 88 (174.730000,101.100000) forward to 87 (412.559998,368.630005) using gf  
packet 1553 - 69.105536 - 87 (412.560000,368.630000) forward to 89 (603.049988,607.299988) using gf  
packet 1649 - 70.540595 - 88 (174.730000,101.100000) forward to 87 (412.559998,368.630005) using gf  
packet 1649 - 70.542670 - 87 (412.560000,368.630000) forward to 89 (603.049988,607.299988) using gf  
packet 1650 - 71.201177 - 88 (174.730000,101.100000) forward to 87 (412.559998,368.630005) using gf  
packet 1650 - 71.203292 - 87 (412.560000,368.630000) forward to 89 (603.049988,607.299988) using gf  
packet 1651 - 72.103587 - 88 (174.730000,101.100000) forward to 87 (412.559998,368.630005) using gf  
packet 1651 - 72.105563 - 87 (412.560000,368.630000) forward to 89 (603.049988,607.299988) using gf  
packet 1652 - 72.655570 - 88 (174.730000,101.100000) forward to 87 (412.559998,368.630005) using gf  
packet 1652 - 72.657866 - 87 (412.560000,368.630000) forward to 89 (603.049988,607.299988) using gf  
packet 1653 - 73.703636 - 88 (174.730000,101.100000) forward to 87 (412.559998,368.630005) using gf  
packet 1653 - 73.705872 - 87 (412.560000,368.630000) forward to 89 (603.049988,607.299988) using gf  
packet 1654 - 74.203998 - 88 (174.730000,101.100000) forward to 87 (412.559998,368.630005) using gf  
packet 1654 - 74.206273 - 87 (412.560000,368.630000) forward to 89 (603.049988,607.299988) using gf  
packet 1745 - 75.511338 - 88 (174.730000,101.100000) forward to 87 (412.559998,368.630005) using gf  
packet 1745 - 75.513294 - 87 (412.560000,368.630000) forward to 89 (603.049988,607.299988) using gf  
packet 1746 - 76.929236 - 88 (174.730000,101.100000) forward to 87 (412.559998,368.630005) using gf  
packet 1746 - 76.931512 - 87 (412.560000,368.630000) forward to 89 (603.049988,607.299988) using gf  
packet 1747 - 77.940713 - 88 (174.730000,101.100000) forward to 87 (412.559998,368.630005) using gf  
packet 1747 - 77.942949 - 87 (412.560000,368.630000) forward to 89 (603.049988,607.299988) using gf  
packet 1748 - 79.001140 - 88 (174.730000,101.100000) forward to 87 (412.559998,368.630005) using gf  
packet 1748 - 79.003396 - 87 (412.560000,368.630000) forward to 89 (603.049988,607.299988) using gf  
packet 1749 - 79.930217 - 88 (174.730000,101.100000) forward to 87 (412.559998,368.630005) using gf  
packet 1749 - 79.932352 - 87 (412.560000,368.630000) forward to 89 (603.049988,607.299988) using gf  
packet 1851 - 81.008367 - 88 (174.730000,101.100000) forward to 87 (412.559998,368.630005) using gf  
packet 1851 - 81.010362 - 87 (412.560000,368.630000) forward to 89 (603.049988,607.299988) using gf  
packet 1852 - 82.151907 - 88 (174.730000,101.100000) forward to 87 (412.559998,368.630005) using gf  
packet 1852 - 82.154062 - 87 (412.560000,368.630000) forward to 89 (603.049988,607.299988) using gf  
packet 1853 - 83.638637 - 88 (174.730000,101.100000) forward to 87 (412.559998,368.630005) using gf  
packet 1853 - 83.640852 - 87 (412.560000,368.630000) forward to 89 (603.049988,607.299988) using gf  
packet 1854 - 84.814228 - 88 (174.730000,101.100000) forward to 87 (412.559998,368.630005) using gf  
packet 1854 - 84.816324 - 87 (412.560000,368.630000) forward to 89 (603.049988,607.299988) using gf  
packet 1945 - 85.625909 - 88 (174.730000,101.100000) forward to 87 (412.559998,368.630005) using gf  
packet 1945 - 85.627964 - 87 (412.560000,368.630000) forward to 89 (603.049988,607.299988) using gf  
packet 1946 - 86.423186 - 88 (174.730000,101.100000) forward to 87 (412.559998,368.630005) using gf  
packet 1946 - 86.425201 - 87 (412.560000,368.630000) forward to 89 (603.049988,607.299988) using gf  
packet 1947 - 87.142830 - 88 (174.730000,101.100000) forward to 87 (412.559998,368.630005) using gf  
packet 1947 - 87.144726 - 87 (412.560000,368.630000) forward to 89 (603.049988,607.299988) using gf  
packet 1948 - 87.666640 - 88 (174.730000,101.100000) forward to 87 (412.559998,368.630005) using gf  
packet 1948 - 87.668796 - 87 (412.560000,368.630000) forward to 89 (603.049988,607.299988) using gf  
packet 1949 - 88.294179 - 88 (174.730000,101.100000) forward to 87 (412.559998,368.630005) using gf  
packet 1949 - 88.296534 - 87 (410.444588,368.870320) forward to 89 (603.049988,607.299988) using gf  
packet 1950 - 89.001115 - 88 (174.730000,101.100000) forward to 87 (412.559998,368.630005) using gf  
packet 1950 - 89.003410 - 87 (405.419947,369.441189) forward to 89 (603.049988,607.299988) using gf  
packet 1951 - 89.957403 - 88 (174.730000,101.100000) forward to 87 (412.559998,368.630005) using gf  
packet 1951 - 89.959279 - 87 (402.591167,369.775673) forward to 89 (603.049988,607.299988) using gf  
packet 2047 - 90.717143 - 88 (174.730000,101.100000) forward to 43 (342.288940,430.342834) using gf  
packet 2047 - 90.722215 - 43 (346.613649,430.384861) forward to 89 (603.049988,607.299988) using gf  
packet 2048 - 92.182288 - 88 (174.730000,101.100000) forward to 43 (342.288940,430.342834) using gf  
packet 2048 - 92.184584 - 43 (362.506418,430.544545) forward to 89 (603.049988,607.299988) using gf  
packet 2049 - 93.054834 - 88 (174.730000,101.100000) forward to 43 (342.288940,430.342834) using gf  
packet 2049 - 93.056829 - 43 (369.819983,430.612639) forward to 89 (603.049988,607.299988) using gf  
packet 2050 - 94.242467 - 88 (174.730000,101.100000) forward to 43 (342.288940,430.342834) using gf  
packet 2050 - 94.244803 - 43 (375.681413,430.623197) forward to 89 (603.049988,607.299988) using gf  
packet 2070 - 95.129294 - 88 (174.730000,101.100000) forward to 3 (380.896698,394.163574) using gf  
packet 2142 - 96.215682 - 88 (174.730000,101.100000) forward to 43 (383.225189,430.443573) using gf  
packet 2142 - 96.217798 - 43 (392.578781,430.112891) forward to 89 (603.049988,607.299988) using gf  
packet 2143 - 97.605036 - 88 (174.730000,101.100000) forward to 43 (383.225189,430.443573) using gf  
packet 2144 - 98.752519 - 88 (174.730000,101.100000) forward to 43 (383.225189,430.443573) using gf  
packet 2145 - 99.333713 - 88 (174.730000,101.100000) forward to 43 (383.225189,430.443573) using gf  
packet 2146 - 99.973980 - 88 (174.730000,101.100000) forward to 43 (383.225189,430.443573) using gf  
packet 2274 - 101.447582 - 88 (174.730000,101.100000) forward to 81 (380.991089,395.628815) using gf  
packet 2274 - 101.452754 - 81 (382.017188,413.116724) forward to 89 (603.049988,607.299988) using gf  
packet 2275 - 102.706660 - 88 (174.730000,101.100000) forward to 81 (380.991089,395.628815) using gf  
packet 2275 - 102.709036 - 81 (382.517393,424.045307) forward to 89 (603.049988,607.299988) using gf  
packet 2276 - 103.423733 - 88 (174.730000,101.100000) forward to 81 (380.991089,395.628815) using gf  
packet 2276 - 103.426089 - 81 (382.154975,427.997048) forward to 89 (603.049988,607.299988) using gf  
packet 2277 - 104.604928 - 88 (174.730000,101.100000) forward to 81 (380.991089,395.628815) using gf  
packet 2277 - 104.607044 - 81 (378.878688,432.270301) forward to 89 (603.049988,607.299988) using gf  
packet 2368 - 105.771594 - 88 (174.730000,101.100000) forward to 68 (381.825012,409.897766) using gf  
packet 2368 - 105.776446 - 68 (382.079613,414.212378) forward to 89 (603.049988,607.299988) using gf  
packet 2369 - 106.296078 - 88 (174.730000,101.100000) forward to 68 (381.825012,409.897766) using gf  
packet 2369 - 106.297954 - 68 (382.479034,421.324131) forward to 89 (603.049988,607.299988) using gf  
packet 2370 - 107.368115 - 88 (174.730000,101.100000) forward to 68 (381.825012,409.897766) using gf  
packet 2370 - 107.370211 - 68 (383.238172,436.415338) forward to 89 (603.049988,607.299988) using gf  
packet 2371 - 108.187691 - 88 (174.730000,101.100000) forward to 68 (381.825012,409.897766) using gf  
packet 2372 - 109.163312 - 88 (174.730000,101.100000) forward to 68 (381.825012,409.897766) using gf  
packet 2373 - 109.830982 - 88 (174.730000,101.100000) forward to 68 (381.825012,409.897766) using gf  
packet 2466 - 111.041668 - 88 (174.730000,101.100000) forward to 68 (381.825012,409.897766) using gf  
packet 2467 - 111.542292 - 88 (174.730000,101.100000) forward to 68 (381.825012,409.897766) using gf  
packet 2468 - 112.516803 - 88 (174.730000,101.100000) forward to 68 (381.825012,409.897766) using gf  
packet 2469 - 113.153249 - 88 (174.730000,101.100000) forward to 68 (381.825012,409.897766) using gf  
packet 2470 - 114.383718 - 88 (174.730000,101.100000) forward to 68 (381.825012,409.897766) using gf  
packet 2522 - 115.323632 - 88 (174.730000,101.100000) forward to 68 (381.825012,409.897766) using gf  
packet 2562 - 115.909513 - 88 (174.730000,101.100000) forward to 68 (381.825012,409.897766) using gf  
packet 2563 - 117.038224 - 88 (174.730000,101.100000) forward to 68 (381.825012,409.897766) using gf  
packet 2564 - 118.179624 - 88 (174.730000,101.100000) forward to 68 (381.825012,409.897766) using gf  
packet 2565 - 119.111844 - 88 (174.730000,101.100000) forward to 68 (381.825012,409.897766) using gf  
packet 2566 - 119.812207 - 88 (174.730000,101.100000) forward to 68 (381.825012,409.897766) using gf  
packet 2660 - 121.128977 - 88 (174.730000,101.100000) forward to 68 (381.825012,409.897766) using gf  
packet 2661 - 122.193870 - 88 (174.730000,101.100000) forward to 68 (381.825012,409.897766) using gf  
packet 2662 - 123.117091 - 88 (174.730000,101.100000) forward to 68 (381.825012,409.897766) using gf  
packet 2663 - 123.997150 - 88 (174.730000,101.100000) forward to 68 (381.825012,409.897766) using gf  
packet 2728 - 125.401571 - 88 (174.730000,101.100000) forward to 68 (381.825012,409.897766) using gf  
packet 2755 - 126.085370 - 88 (174.730000,101.100000) forward to 68 (381.825012,409.897766) using gf  
packet 2756 - 127.113583 - 88 (174.730000,101.100000) forward to 68 (381.825012,409.897766) using gf  
packet 2757 - 127.798619 - 88 (174.730000,101.100000) forward to 68 (381.825012,409.897766) using gf  
packet 2758 - 129.065976 - 88 (174.730000,101.100000) forward to 68 (381.825012,409.897766) using gf  
packet 2793 - 130.217199 - 88 (174.730000,101.100000) forward to 68 (381.825012,409.897766) using gf  
packet 2852 - 131.536366 - 88 (174.730000,101.100000) forward to 85 (381.306396,401.115997) using gf  
packet 2852 - 131.541018 - 85 (382.170405,415.745299) forward to 89 (603.049988,607.299988) using gf  
packet 2853 - 132.741796 - 88 (174.730000,101.100000) forward to 85 (381.306396,401.115997) using gf  
packet 2853 - 132.743992 - 85 (387.773333,429.175539) forward to 89 (603.049988,607.299988) using gf  
packet 2854 - 133.949796 - 88 (174.730000,101.100000) forward to 85 (381.306396,401.115997) using gf  
packet 2854 - 133.951952 - 85 (400.954740,429.635111) forward to 89 (603.049988,607.299988) using gf  
packet 2884 - 135.196569 - 88 (174.730000,101.100000) forward to 85 (381.306396,401.115997) using gf  
packet 2946 - 136.052943 - 88 (174.730000,101.100000) forward to 85 (381.306396,401.115997) using gf  
packet 2947 - 136.902558 - 88 (174.730000,101.100000) forward to 85 (381.306396,401.115997) using gf  
packet 2948 - 138.203945 - 88 (174.730000,101.100000) forward to 85 (381.306396,401.115997) using gf  
packet 2949 - 138.827544 - 88 (174.730000,101.100000) forward to 85 (381.306396,401.115997) using gf  
packet 2950 - 139.899525 - 88 (174.730000,101.100000) forward to 85 (381.306396,401.115997) using gf  
packet 3038 - 140.458183 - 88 (174.730000,101.100000) forward to 85 (381.306396,401.115997) using gf  
packet 3046 - 141.904058 - 88 (174.730000,101.100000) forward to 85 (381.306396,401.115997) using gf  
packet 3047 - 142.694380 - 88 (174.730000,101.100000) forward to 85 (381.306396,401.115997) using gf  
packet 3048 - 144.077348 - 88 (174.730000,101.100000) forward to 85 (381.306396,401.115997) using gf  
packet 3049 - 144.793328 - 88 (174.730000,101.100000) forward to 85 (381.306396,401.115997) using gf  
packet 3140 - 145.874156 - 88 (174.730000,101.100000) forward to 85 (381.306396,401.115997) using gf  
packet 3141 - 146.599378 - 88 (174.730000,101.100000) forward to 85 (381.306396,401.115997) using gf  
packet 3142 - 148.059052 - 88 (174.730000,101.100000) forward to 85 (381.306396,401.115997) using gf  
packet 3143 - 149.227642 - 88 (174.730000,101.100000) forward to 85 (381.306396,401.115997) using gf  
packet 3236 - 150.523300 - 88 (174.730000,101.100000) forward to 85 (381.306396,401.115997) using gf  
packet 3237 - 151.167827 - 88 (174.730000,101.100000) forward to 85 (381.306396,401.115997) using gf  
packet 3238 - 152.221056 - 88 (174.730000,101.100000) forward to 85 (381.306396,401.115997) using gf  
packet 3239 - 152.999179 - 88 (174.730000,101.100000) forward to 85 (381.306396,401.115997) using gf  
packet 3240 - 154.293353 - 88 (174.730000,101.100000) forward to 85 (381.306396,401.115997) using gf  
packet 3331 - 155.682323 - 88 (174.730000,101.100000) forward to 85 (381.306396,401.115997) using gf  
packet 3332 - 157.172155 - 88 (174.730000,101.100000) forward to 85 (381.306396,401.115997) using gf  
packet 3333 - 157.936295 - 88 (174.730000,101.100000) forward to 85 (381.306396,401.115997) using gf  
packet 3334 - 158.457373 - 88 (174.730000,101.100000) forward to 85 (381.306396,401.115997) using gf  
packet 3335 - 159.690869 - 88 (174.730000,101.100000) forward to 85 (381.306396,401.115997) using gf  
packet 3428 - 160.672511 - 88 (174.730000,101.100000) forward to 85 (381.306396,401.115997) using gf  
packet 3429 - 161.395432 - 88 (174.730000,101.100000) forward to 85 (381.306396,401.115997) using gf  
packet 3430 - 162.269098 - 88 (174.730000,101.100000) forward to 85 (381.306396,401.115997) using gf  
packet 3431 - 163.616590 - 88 (174.730000,101.100000) forward to 85 (381.306396,401.115997) using gf  
packet 3432 - 164.853007 - 88 (174.730000,101.100000) forward to 85 (381.306396,401.115997) using gf  
packet 3523 - 165.900959 - 88 (174.730000,101.100000) forward to 85 (381.306396,401.115997) using gf  
packet 3524 - 167.326762 - 88 (174.730000,101.100000) forward to 85 (381.306396,401.115997) using gf  
packet 3525 - 168.661051 - 88 (174.730000,101.100000) forward to 85 (381.306396,401.115997) using gf  
packet 3526 - 169.706369 - 88 (174.730000,101.100000) forward to 85 (381.306396,401.115997) using gf  
packet 3619 - 171.076229 - 88 (174.730000,101.100000) forward to 85 (381.306396,401.115997) using gf  
packet 3620 - 172.222735 - 88 (174.730000,101.100000) forward to 85 (381.306396,401.115997) using gf  
packet 3621 - 173.371120 - 88 (174.730000,101.100000) forward to 85 (381.306396,401.115997) using gf  
packet 3622 - 174.699385 - 88 (174.730000,101.100000) forward to 85 (381.306396,401.115997) using gf  
packet 3681 - 175.372977 - 88 (174.730000,101.100000) forward to 85 (381.306396,401.115997) using gf  
packet 3714 - 176.118410 - 88 (174.730000,101.100000) forward to 85 (381.306396,401.115997) using gf  
packet 3715 - 176.722657 - 88 (174.730000,101.100000) forward to 85 (381.306396,401.115997) using gf  
packet 3716 - 177.841824 - 88 (174.730000,101.100000) forward to 85 (381.306396,401.115997) using gf  
packet 3717 - 178.438854 - 88 (174.730000,101.100000) forward to 85 (381.306396,401.115997) using gf  
packet 3718 - 179.864831 - 88 (174.730000,101.100000) forward to 85 (381.306396,401.115997) using gf  
packet 3811 - 180.599346 - 88 (174.730000,101.100000) forward to 85 (381.306396,401.115997) using gf  
packet 3812 - 181.595986 - 88 (174.730000,101.100000) forward to 85 (381.306396,401.115997) using gf  
packet 3813 - 182.131985 - 88 (174.730000,101.100000) forward to 85 (381.306396,401.115997) using gf  
packet 3814 - 183.182435 - 88 (174.730000,101.100000) forward to 85 (381.306396,401.115997) using gf  
packet 3815 - 184.334648 - 88 (174.730000,101.100000) forward to 85 (381.306396,401.115997) using gf  
packet 3906 - 185.718804 - 88 (174.730000,101.100000) forward to 85 (381.306396,401.115997) using gf  
packet 3907 - 187.011091 - 88 (174.730000,101.100000) forward to 85 (381.306396,401.115997) using gf  
packet 3908 - 188.234291 - 88 (174.730000,101.100000) forward to 85 (381.306396,401.115997) using gf  
packet 3909 - 188.953922 - 88 (174.730000,101.100000) forward to 85 (381.306396,401.115997) using gf  
packet 3926 - 190.080109 - 88 (174.730000,101.100000) forward to 85 (381.306396,401.115997) using gf  
packet 4003 - 190.869934 - 88 (174.730000,101.100000) forward to 85 (381.306396,401.115997) using gf  
packet 4004 - 191.434617 - 88 (174.730000,101.100000) forward to 85 (381.306396,401.115997) using gf  
packet 4005 - 192.312563 - 88 (174.730000,101.100000) forward to 85 (381.306396,401.115997) using gf  
packet 4006 - 193.714868 - 88 (174.730000,101.100000) forward to 85 (381.306396,401.115997) using gf  
packet 4007 - 194.814572 - 88 (174.730000,101.100000) forward to 85 (381.306396,401.115997) using gf  
