packet 280 - 10.000000 - 68 (174.730000,101.100000) forward to 31 (451.600006,300.010010) using gf  
packet 360 - 11.393604 - 68 (174.730000,101.100000) forward to 31 (451.600006,300.010010) using gf  
packet 360 - 11.398775 - 31 (451.600000,300.010000) forward to 69 (603.049988,607.299988) using gf  
packet 361 - 12.190774 - 68 (174.730000,101.100000) forward to 31 (451.600006,300.010010) using gf  
packet 361 - 12.193149 - 31 (451.600000,300.010000) forward to 69 (603.049988,607.299988) using gf  
packet 362 - 13.643852 - 68 (174.730000,101.100000) forward to 31 (451.600006,300.010010) using gf  
packet 362 - 13.646188 - 31 (451.600000,300.010000) forward to 69 (603.049988,607.299988) using gf  
packet 363 - 14.923005 - 68 (174.730000,101.100000) forward to 31 (451.600006,300.010010) using gf  
packet 363 - 14.925141 - 31 (451.600000,300.010000) forward to 69 (603.049988,607.299988) using gf  
packet 434 - 16.151557 - 68 (174.730000,101.100000) forward to 31 (451.600006,300.010010) using gf  
packet 434 - 16.153632 - 31 (451.600000,300.010000) forward to 69 (603.049988,607.299988) using gf  
packet 435 - 17.147264 - 68 (174.730000,101.100000) forward to 31 (451.600006,300.010010) using gf  
packet 435 - 17.149539 - 31 (451.600000,300.010000) forward to 69 (603.049988,607.299988) using gf  
packet 436 - 18.057121 - 68 (174.730000,101.100000) forward to 31 (451.600006,300.010010) using gf  
packet 436 - 18.059056 - 31 (451.600000,300.010000) forward to 69 (603.049988,607.299988) using gf  
packet 437 - 19.048560 - 68 (174.730000,101.100000) forward to 31 (451.600006,300.010010) using gf  
packet 437 - 19.050635 - 31 (451.600000,300.010000) forward to 69 (603.049988,607.299988) using gf  
packet 457 - 20.146554 - 68 (174.730000,101.100000) forward to 31 (451.600006,300.010010) using gf  
packet 457 - 20.149469 - 31 (451.600000,300.010000) forward to 69 (603.049988,607.299988) using gf  
packet 511 - 21.519007 - 68 (174.730000,101.100000) forward to 31 (451.600006,300.010010) using gf  
packet 511 - 21.521283 - 31 (451.600000,300.010000) forward to 69 (603.049988,607.299988) using gf  
packet 512 - 22.489625 - 68 (174.730000,101.100000) forward to 31 (451.600006,300.010010) using gf  
packet 512 - 22.491780 - 31 (451.600000,300.010000) forward to 69 (603.049988,607.299988) using gf  
packet 513 - 23.737663 - 68 (174.730000,101.100000) forward to 31 (451.600006,300.010010) using gf  
packet 513 - 23.739599 - 31 (451.600000,300.010000) forward to 69 (603.049988,607.299988) using gf  
packet 514 - 24.526021 - 68 (174.730000,101.100000) forward to 31 (451.600006,300.010010) using gf  
packet 514 - 24.528177 - 31 (451.600000,300.010000) forward to 69 (603.049988,607.299988) using gf  
packet 585 - 25.770488 - 68 (174.730000,101.100000) forward to 31 (451.600006,300.010010) using gf  
packet 585 - 25.772604 - 31 (451.600000,300.010000) forward to 69 (603.049988,607.299988) using gf  
packet 586 - 26.761034 - 68 (174.730000,101.100000) forward to 31 (451.600006,300.010010) using gf  
packet 586 - 26.763229 - 31 (451.600000,300.010000) forward to 69 (603.049988,607.299988) using gf  
packet 587 - 28.125614 - 68 (174.730000,101.100000) forward to 31 (451.600006,300.010010) using gf  
packet 587 - 28.127509 - 31 (451.600000,300.010000) forward to 69 (603.049988,607.299988) using gf  
packet 588 - 29.392606 - 68 (174.730000,101.100000) forward to 31 (451.600006,300.010010) using gf  
packet 588 - 29.394462 - 31 (451.600000,300.010000) forward to 69 (603.049988,607.299988) using gf  
packet 644 - 30.414757 - 68 (174.730000,101.100000) forward to 31 (451.600006,300.010010) using gf  
packet 644 - 30.416692 - 31 (451.600000,300.010000) forward to 69 (603.049988,607.299988) using gf  
packet 663 - 30.987224 - 68 (174.730000,101.100000) forward to 31 (451.600006,300.010010) using gf  
packet 663 - 30.989379 - 31 (451.600000,300.010000) forward to 69 (603.049988,607.299988) using gf  
packet 664 - 32.039404 - 68 (174.730000,101.100000) forward to 31 (451.600006,300.010010) using gf  
packet 664 - 32.041619 - 31 (451.600000,300.210124) forward to 69 (603.049988,607.299988) using gf  
packet 665 - 33.508612 - 68 (174.730000,101.100000) forward to 31 (451.600006,300.010010) using gf  
packet 665 - 33.510747 - 31 (451.600000,307.501353) forward to 69 (603.049988,607.299988) using gf  
packet 666 - 34.698456 - 68 (174.730000,101.100000) forward to 31 (451.600006,300.010010) using gf  
packet 666 - 34.700572 - 31 (451.600000,313.215508) forward to 69 (603.049988,607.299988) using gf  
packet 737 - 35.554495 - 68 (174.730000,101.100000) forward to 31 (451.600006,314.807465) using gf  
packet 737 - 35.556370 - 31 (451.600000,317.664473) forward to 69 (603.049988,607.299988) using gf  
packet 738 - 36.358296 - 68 (174.730000,101.100000) forward to 31 (451.600006,314.807465) using gf  
packet 738 - 36.360392 - 31 (451.600000,321.768912) forward to 69 (603.049988,607.299988) using gf  
packet 739 - 37.829210 - 68 (174.730000,101.100000) forward to 31 (451.600006,314.807465) using gf  
packet 739 - 37.831346 - 31 (451.600000,328.450876) forward to 69 (603.049988,607.299988) using gf  
packet 740 - 38.606335 - 68 (174.730000,101.100000) forward to 31 (451.600006,314.807465) using gf  
packet 740 - 38.608531 - 31 (451.600000,332.621614) forward to 69 (603.049988,607.299988) using gf  
packet 741 - 39.612521 - 68 (174.730000,101.100000) forward to 31 (451.600006,314.807465) using gf  
packet 741 - 39.614517 - 31 (451.600000,338.134466) forward to 69 (603.049988,607.299988) using gf  
packet 819 - 40.863403 - 68 (174.730000,101.100000) forward to 31 (451.600006,340.462799) using gf  
packet 819 - 40.865819 - 31 (451.600000,344.990588) forward to 69 (603.049988,607.299988) using gf  
packet 820 - 41.468404 - 68 (174.730000,101.100000) forward to 31 (451.600006,340.462799) using gf  
packet 820 - 41.470820 - 31 (451.600000,348.300606) forward to 69 (603.049988,607.299988) using gf  
packet 821 - 42.376919 - 68 (174.730000,101.100000) forward to 31 (451.600006,340.462799) using gf  
packet 821 - 42.378795 - 31 (451.600000,353.345267) forward to 69 (603.049988,607.299988) using gf  
packet 822 - 43.217254 - 68 (174.730000,101.100000) forward to 31 (451.600006,340.462799) using gf  
packet 822 - 43.219310 - 31 (451.600000,357.879993) forward to 69 (603.049988,607.299988) using gf  
packet 823 - 43.813637 - 68 (174.730000,101.100000) forward to 31 (451.600006,340.462799) using gf  
packet 823 - 43.815752 - 31 (451.600000,360.599771) forward to 69 (603.049988,607.299988) using gf  
packet 824 - 44.998507 - 68 (174.730000,101.100000) forward to 31 (451.600006,340.462799) using gf  
packet 824 - 45.000803 - 31 (451.600000,366.333623) forward to 69 (603.049988,607.299988) using gf  
packet 895 - 46.094173 - 68 (174.730000,101.100000) forward to 31 (451.600006,366.533173) using gf  
packet 895 - 46.096569 - 31 (451.600000,371.359328) forward to 69 (603.049988,607.299988) using gf  
packet 896 - 46.659618 - 68 (174.730000,101.100000) forward to 31 (451.600006,366.533173) using gf  
packet 896 - 46.661934 - 31 (451.600000,373.931740) forward to 69 (603.049988,607.299988) using gf  
packet 897 - 47.793729 - 68 (174.730000,101.100000) forward to 31 (451.600006,366.533173) using gf  
packet 897 - 47.795705 - 31 (451.600000,379.050611) forward to 69 (603.049988,607.299988) using gf  
packet 898 - 49.180383 - 68 (174.730000,101.100000) forward to 31 (451.600006,366.533173) using gf  
packet 898 - 49.182239 - 31 (451.600000,385.622332) forward to 69 (603.049988,607.299988) using gf  
packet 904 - 50.008608 - 68 (174.730000,101.100000) forward to 31 (451.600006,366.533173) using gf  
packet 975 - 50.948375 - 68 (174.730000,101.100000) forward to 31 (451.600006,366.533173) using gf  
packet 976 - 51.707820 - 68 (174.730000,101.100000) forward to 31 (451.600006,366.533173) using gf  
packet 977 - 52.330138 - 68 (174.730000,101.100000) forward to 31 (451.600006,366.533173) using gf  
packet 978 - 53.150796 - 68 (174.730000,101.100000) forward to 31 (451.600006,366.533173) using gf  
packet 979 - 54.097072 - 68 (174.730000,101.100000) forward to 31 (451.600006,366.533173) using gf  
packet 980 - 54.980782 - 68 (174.730000,101.100000) forward to 31 (451.600006,366.533173) using gf  
packet 1051 - 55.663370 - 68 (174.730000,101.100000) forward to 31 (451.600006,366.533173) using gf  
packet 1052 - 56.772684 - 68 (174.730000,101.100000) forward to 31 (451.600006,366.533173) using gf  
packet 1053 - 57.725102 - 68 (174.730000,101.100000) forward to 31 (451.600006,366.533173) using gf  
packet 1054 - 58.495483 - 68 (174.730000,101.100000) forward to 31 (451.600006,366.533173) using gf  
packet 1055 - 59.426327 - 68 (174.730000,101.100000) forward to 31 (451.600006,366.533173) using gf  
packet 1131 - 60.899704 - 68 (174.730000,101.100000) forward to 31 (451.600006,366.533173) using gf  
packet 1132 - 62.376053 - 68 (174.730000,101.100000) forward to 31 (451.600006,366.533173) using gf  
packet 1133 - 63.329784 - 68 (174.730000,101.100000) forward to 31 (451.600006,366.533173) using gf  
packet 1134 - 64.060979 - 68 (174.730000,101.100000) forward to 31 (451.600006,366.533173) using gf  
packet 1135 - 64.576371 - 68 (174.730000,101.100000) forward to 31 (451.600006,366.533173) using gf  
packet 1206 - 65.817363 - 68 (174.730000,101.100000) forward to 31 (451.600006,366.533173) using gf  
packet 1207 - 67.312681 - 68 (174.730000,101.100000) forward to 31 (451.600006,366.533173) using gf  
packet 1208 - 68.333176 - 68 (174.730000,101.100000) forward to 31 (451.600006,366.533173) using gf  
packet 1209 - 69.426834 - 68 (174.730000,101.100000) forward to 31 (451.600006,366.533173) using gf  
packet 1255 - 70.350244 - 68 (174.730000,101.100000) forward to 31 (451.600006,366.533173) using gf  
packet 1285 - 71.475968 - 68 (174.730000,101.100000) forward to 31 (451.600006,366.533173) using gf  
packet 1286 - 72.312577 - 68 (174.730000,101.100000) forward to 31 (451.600006,366.533173) using gf  
packet 1287 - 73.459491 - 68 (174.730000,101.100000) forward to 31 (451.600006,366.533173) using gf  
packet 1288 - 74.116343 - 68 (174.730000,101.100000) forward to 31 (451.600006,366.533173) using gf  
packet 1358 - 75.495582 - 68 (174.730000,101.100000) forward to 31 (451.600006,366.533173) using gf  
packet 1360 - 76.251019 - 68 (174.730000,101.100000) forward to 31 (451.600006,366.533173) using gf  
packet 1361 - 76.828874 - 68 (174.730000,101.100000) forward to 31 (451.600006,366.533173) using gf  
packet 1362 - 78.098080 - 68 (174.730000,101.100000) forward to 31 (451.600006,366.533173) using gf  
packet 1363 - 78.783432 - 68 (174.730000,101.100000) forward to 31 (451.600006,366.533173) using gf  
packet 1364 - 79.976607 - 68 (174.730000,101.100000) forward to 31 (451.600006,366.533173) using gf  
packet 1437 - 80.759744 - 68 (174.730000,101.100000) forward to 37 (463.246918,361.600006) using gf  
packet 1437 - 80.764616 - 37 (460.278738,361.600000) forward to 69 (603.049988,607.299988) using gf  
packet 1438 - 82.101884 - 68 (174.730000,101.100000) forward to 37 (463.246918,361.600006) using gf  
packet 1438 - 82.104259 - 37 (454.008152,361.600000) forward to 69 (603.049988,607.299988) using gf  
packet 1439 - 83.450726 - 68 (174.730000,101.100000) forward to 37 (463.246918,361.600006) using gf  
packet 1439 - 83.453061 - 37 (447.208845,361.600000) forward to 69 (603.049988,607.299988) using gf  
packet 1440 - 84.821404 - 68 (174.730000,101.100000) forward to 37 (463.246918,361.600006) using gf  
packet 1440 - 84.823640 - 37 (440.200105,361.600000) forward to 69 (603.049988,607.299988) using gf  
packet 1511 - 85.559849 - 68 (174.730000,101.100000) forward to 49 (470.834351,358.399994) using gf  
packet 1511 - 85.565401 - 49 (471.401049,358.400000) forward to 69 (603.049988,607.299988) using gf  
packet 1512 - 86.075389 - 68 (174.730000,101.100000) forward to 49 (470.834351,358.399994) using gf  
packet 1512 - 86.077505 - 49 (473.251296,358.400000) forward to 69 (603.049988,607.299988) using gf  
packet 1513 - 86.763847 - 68 (174.730000,101.100000) forward to 49 (470.834351,358.399994) using gf  
packet 1513 - 86.766283 - 49 (475.751560,358.400000) forward to 69 (603.049988,607.299988) using gf  
packet 1514 - 87.336615 - 68 (174.730000,101.100000) forward to 49 (470.834351,358.399994) using gf  
packet 1514 - 87.339011 - 49 (477.993281,358.400000) forward to 69 (603.049988,607.299988) using gf  
packet 1515 - 88.018459 - 68 (174.730000,101.100000) forward to 49 (470.834351,358.399994) using gf  
packet 1515 - 88.020595 - 49 (480.784712,358.400000) forward to 69 (603.049988,607.299988) using gf  
packet 1516 - 89.063471 - 68 (174.730000,101.100000) forward to 49 (470.834351,358.399994) using gf  
packet 1592 - 90.531673 - 68 (174.730000,101.100000) forward to 49 (470.834351,358.399994) using gf  
packet 1593 - 91.455753 - 68 (174.730000,101.100000) forward to 49 (470.834351,358.399994) using gf  
packet 1594 - 92.922019 - 68 (174.730000,101.100000) forward to 49 (470.834351,358.399994) using gf  
packet 1595 - 94.128340 - 68 (174.730000,101.100000) forward to 49 (470.834351,358.399994) using gf  
packet 1617 - 95.178190 - 68 (174.730000,101.100000) forward to 49 (470.834351,358.399994) using gf  
packet 1667 - 95.961089 - 68 (174.730000,101.100000) forward to 49 (470.834351,358.399994) using gf  
packet 1668 - 96.692113 - 68 (174.730000,101.100000) forward to 49 (470.834351,358.399994) using gf  
packet 1669 - 97.377369 - 68 (174.730000,101.100000) forward to 49 (470.834351,358.399994) using gf  
packet 1670 - 98.109755 - 68 (174.730000,101.100000) forward to 49 (470.834351,358.399994) using gf  
packet 1671 - 99.331415 - 68 (174.730000,101.100000) forward to 49 (470.834351,358.399994) using gf  
packet 1688 - 100.120325 - 68 (174.730000,101.100000) forward to 49 (470.834351,358.399994) using gf  
packet 1745 - 101.396689 - 68 (174.730000,101.100000) forward to 49 (470.834351,358.399994) using gf  
packet 1746 - 102.793413 - 68 (174.730000,101.100000) forward to 49 (470.834351,358.399994) using gf  
packet 1747 - 103.486235 - 68 (174.730000,101.100000) forward to 49 (470.834351,358.399994) using gf  
packet 1748 - 103.988676 - 68 (174.730000,101.100000) forward to 49 (470.834351,358.399994) using gf  
packet 1749 - 104.936759 - 68 (174.730000,101.100000) forward to 49 (470.834351,358.399994) using gf  
packet 1820 - 105.835367 - 68 (174.730000,101.100000) forward to 49 (470.834351,358.399994) using gf  
packet 1821 - 107.073262 - 68 (174.730000,101.100000) forward to 49 (470.834351,358.399994) using gf  
packet 1822 - 108.530772 - 68 (174.730000,101.100000) forward to 49 (470.834351,358.399994) using gf  
packet 1823 - 109.262964 - 68 (174.730000,101.100000) forward to 49 (470.834351,358.399994) using gf  
packet 1868 - 110.349657 - 68 (174.730000,101.100000) forward to 49 (470.834351,358.399994) using gf  
packet 1898 - 110.955324 - 68 (174.730000,101.100000) forward to 49 (470.834351,358.399994) using gf  
packet 1899 - 111.799540 - 68 (174.730000,101.100000) forward to 49 (470.834351,358.399994) using gf  
packet 1900 - 112.860594 - 68 (174.730000,101.100000) forward to 49 (470.834351,358.399994) using gf  
packet 1901 - 113.605452 - 68 (174.730000,101.100000) forward to 49 (470.834351,358.399994) using gf  
packet 1902 - 114.301929 - 68 (174.730000,101.100000) forward to 49 (470.834351,358.399994) using gf  
packet 1973 - 115.593876 - 68 (174.730000,101.100000) forward to 49 (470.834351,358.399994) using gf  
packet 1974 - 116.253386 - 68 (174.730000,101.100000) forward to 49 (470.834351,358.399994) using gf  
packet 1975 - 117.252167 - 68 (174.730000,101.100000) forward to 49 (470.834351,358.399994) using gf  
packet 1976 - 118.509682 - 68 (174.730000,101.100000) forward to 49 (470.834351,358.399994) using gf  
packet 1977 - 119.589086 - 68 (174.730000,101.100000) forward to 49 (470.834351,358.399994) using gf  
packet 2017 - 120.299528 - 68 (174.730000,101.100000) forward to 52 (476.702209,358.399994) using gf  
packet 2017 - 120.304640 - 52 (477.389035,358.400000) forward to 69 (603.049988,607.299988) using gf  
packet 2053 - 121.242871 - 68 (174.730000,101.100000) forward to 52 (476.702209,358.399994) using gf  
packet 2054 - 122.627614 - 68 (174.730000,101.100000) forward to 52 (476.702209,358.399994) using gf  
packet 2055 - 123.509806 - 68 (174.730000,101.100000) forward to 52 (476.702209,358.399994) using gf  
packet 2056 - 124.370579 - 68 (174.730000,101.100000) forward to 52 (476.702209,358.399994) using gf  
packet 2057 - 124.909224 - 68 (174.730000,101.100000) forward to 52 (476.702209,358.399994) using gf  
packet 2128 - 126.238931 - 68 (174.730000,101.100000) forward to 52 (476.702209,358.399994) using gf  
packet 2129 - 127.414416 - 68 (174.730000,101.100000) forward to 52 (476.702209,358.399994) using gf  
packet 2130 - 128.347677 - 68 (174.730000,101.100000) forward to 52 (476.702209,358.399994) using gf  
packet 2131 - 128.972715 - 68 (174.730000,101.100000) forward to 52 (476.702209,358.399994) using gf  
packet 2132 - 129.764086 - 68 (174.730000,101.100000) forward to 52 (476.702209,358.399994) using gf  
packet 2208 - 130.791466 - 68 (174.730000,101.100000) forward to 52 (476.702209,358.399994) using gf  
packet 2209 - 131.424390 - 68 (174.730000,101.100000) forward to 52 (476.702209,358.399994) using gf  
packet 2210 - 132.439012 - 68 (174.730000,101.100000) forward to 52 (476.702209,358.399994) using gf  
packet 2211 - 133.709975 - 68 (174.730000,101.100000) forward to 52 (476.702209,358.399994) using gf  
packet 2212 - 134.898313 - 68 (174.730000,101.100000) forward to 52 (476.702209,358.399994) using gf  
packet 2283 - 136.348991 - 68 (174.730000,101.100000) forward to 33 (451.600006,373.603210) using gf  
packet 2283 - 136.354144 - 33 (451.600000,378.344192) forward to 69 (603.049988,607.299988) using gf  
packet 2284 - 137.654634 - 68 (174.730000,101.100000) forward to 33 (451.600006,373.603210) using gf  
packet 2284 - 137.656910 - 33 (451.600000,384.785657) forward to 69 (603.049988,607.299988) using gf  
packet 2285 - 138.882846 - 68 (174.730000,101.100000) forward to 33 (451.600006,373.603210) using gf  
packet 2286 - 139.979597 - 68 (174.730000,101.100000) forward to 33 (451.600006,373.603210) using gf  
packet 2363 - 140.750843 - 68 (174.730000,101.100000) forward to 33 (451.600006,373.603210) using gf  
packet 2364 - 142.175974 - 68 (174.730000,101.100000) forward to 33 (451.600006,373.603210) using gf  
packet 2365 - 143.387807 - 68 (174.730000,101.100000) forward to 33 (451.600006,373.603210) using gf  
packet 2366 - 144.211109 - 68 (174.730000,101.100000) forward to 33 (451.600006,373.603210) using gf  
packet 2437 - 145.698537 - 68 (174.730000,101.100000) forward to 33 (451.600006,373.603210) using gf  
packet 2438 - 146.766718 - 68 (174.730000,101.100000) forward to 33 (451.600006,373.603210) using gf  
packet 2439 - 148.042156 - 68 (174.730000,101.100000) forward to 33 (451.600006,373.603210) using gf  
packet 2440 - 148.711022 - 68 (174.730000,101.100000) forward to 33 (451.600006,373.603210) using gf  
packet 2441 - 149.659164 - 68 (174.730000,101.100000) forward to 33 (451.600006,373.603210) using gf  
packet 2465 - 150.160331 - 68 (174.730000,101.100000) forward to 33 (451.600006,373.603210) using gf  
packet 2518 - 150.851554 - 68 (174.730000,101.100000) forward to 33 (451.600006,373.603210) using gf  
packet 2519 - 151.406986 - 68 (174.730000,101.100000) forward to 33 (451.600006,373.603210) using gf  
packet 2520 - 152.044405 - 68 (174.730000,101.100000) forward to 33 (451.600006,373.603210) using gf  
packet 2521 - 153.380193 - 68 (174.730000,101.100000) forward to 33 (451.600006,373.603210) using gf  
packet 2522 - 153.924684 - 68 (174.730000,101.100000) forward to 33 (451.600006,373.603210) using gf  
packet 2523 - 154.464379 - 68 (174.730000,101.100000) forward to 33 (451.600006,373.603210) using gf  
packet 2594 - 155.955670 - 68 (174.730000,101.100000) forward to 33 (451.600006,373.603210) using gf  
packet 2595 - 157.165720 - 68 (174.730000,101.100000) forward to 33 (451.600006,373.603210) using gf  
packet 2596 - 157.730528 - 68 (174.730000,101.100000) forward to 33 (451.600006,373.603210) using gf  
packet 2597 - 158.840592 - 68 (174.730000,101.100000) forward to 33 (451.600006,373.603210) using gf  
packet 2598 - 159.527329 - 68 (174.730000,101.100000) forward to 33 (451.600006,373.603210) using gf  
packet 2672 - 160.679584 - 68 (174.730000,101.100000) forward to 33 (451.600006,373.603210) using gf  
packet 2673 - 161.438261 - 68 (174.730000,101.100000) forward to 33 (451.600006,373.603210) using gf  
packet 2674 - 162.062481 - 68 (174.730000,101.100000) forward to 33 (451.600006,373.603210) using gf  
packet 2675 - 163.176073 - 68 (174.730000,101.100000) forward to 33 (451.600006,373.603210) using gf  
packet 2676 - 164.422847 - 68 (174.730000,101.100000) forward to 33 (451.600006,373.603210) using gf  
packet 2747 - 165.599824 - 68 (174.730000,101.100000) forward to 33 (451.600006,373.603210) using gf  
packet 2748 - 166.822755 - 68 (174.730000,101.100000) forward to 33 (451.600006,373.603210) using gf  
packet 2749 - 168.091595 - 68 (174.730000,101.100000) forward to 33 (451.600006,373.603210) using gf  
packet 2750 - 168.950303 - 68 (174.730000,101.100000) forward to 33 (451.600006,373.603210) using gf  
packet 2816 - 170.443746 - 68 (174.730000,101.100000) forward to 33 (451.600006,373.603210) using gf  
packet 2825 - 171.312716 - 68 (174.730000,101.100000) forward to 33 (451.600006,373.603210) using gf  
packet 2826 - 172.598915 - 68 (174.730000,101.100000) forward to 33 (451.600006,373.603210) using gf  
packet 2827 - 173.301830 - 68 (174.730000,101.100000) forward to 33 (451.600006,373.603210) using gf  
packet 2828 - 174.464637 - 68 (174.730000,101.100000) forward to 33 (451.600006,373.603210) using gf  
packet 2899 - 175.956918 - 68 (174.730000,101.100000) forward to 33 (451.600006,373.603210) using gf  
packet 2900 - 177.393145 - 68 (174.730000,101.100000) forward to 33 (451.600006,373.603210) using gf  
packet 2901 - 178.828071 - 68 (174.730000,101.100000) forward to 33 (451.600006,373.603210) using gf  
packet 2914 - 180.056757 - 68 (174.730000,101.100000) forward to 33 (451.600006,373.603210) using gf  
packet 2977 - 181.192437 - 68 (174.730000,101.100000) forward to 33 (451.600006,373.603210) using gf  
packet 2978 - 181.892916 - 68 (174.730000,101.100000) forward to 33 (451.600006,373.603210) using gf  
packet 2979 - 182.521510 - 68 (174.730000,101.100000) forward to 33 (451.600006,373.603210) using gf  
packet 2980 - 183.737262 - 68 (174.730000,101.100000) forward to 33 (451.600006,373.603210) using gf  
packet 2981 - 184.255267 - 68 (174.730000,101.100000) forward to 33 (451.600006,373.603210) using gf  
packet 3021 - 185.329628 - 68 (174.730000,101.100000) forward to 33 (451.600006,373.603210) using gf  
packet 3053 - 186.136803 - 68 (174.730000,101.100000) forward to 33 (451.600006,373.603210) using gf  
packet 3054 - 187.430977 - 68 (174.730000,101.100000) forward to 33 (451.600006,373.603210) using gf  
packet 3055 - 188.819947 - 68 (174.730000,101.100000) forward to 33 (451.600006,373.603210) using gf  
packet 3056 - 189.361392 - 68 (174.730000,101.100000) forward to 33 (451.600006,373.603210) using gf  
packet 3088 - 190.249506 - 68 (174.730000,101.100000) forward to 33 (451.600006,373.603210) using gf  
packet 3131 - 190.762891 - 68 (174.730000,101.100000) forward to 33 (451.600006,373.603210) using gf  
packet 3132 - 191.985473 - 68 (174.730000,101.100000) forward to 33 (451.600006,373.603210) using gf  
packet 3133 - 192.881518 - 68 (174.730000,101.100000) forward to 33 (451.600006,373.603210) using gf  
packet 3134 - 193.776061 - 68 (174.730000,101.100000) forward to 33 (451.600006,373.603210) using gf  
