packet 360 - 10.000000 - 88 (174.730000,101.100000) forward to 87 (358.399994,441.000000) using gf  
packet 464 - 11.350527 - 88 (174.730000,101.100000) forward to 87 (358.399994,441.000000) using gf  
packet 464 - 11.355799 - 87 (358.400000,441.000000) forward to 89 (603.049988,607.299988) using gf  
packet 465 - 12.046829 - 88 (174.730000,101.100000) forward to 87 (358.399994,441.000000) using gf  
packet 465 - 12.049224 - 87 (358.400000,441.000000) forward to 89 (603.049988,607.299988) using gf  
packet 466 - 13.308273 - 88 (174.730000,101.100000) forward to 87 (358.399994,441.000000) using gf  
packet 466 - 13.310469 - 87 (358.400000,441.000000) forward to 89 (603.049988,607.299988) using gf  
packet 467 - 14.682047 - 88 (174.730000,101.100000) forward to 87 (358.399994,441.000000) using gf  
packet 467 - 14.684063 - 87 (358.400000,441.000000) forward to 89 (603.049988,607.299988) using gf  
packet 505 - 15.236251 - 88 (174.730000,101.100000) forward to 8 (440.966949,361.600006) using gf  
packet 505 - 15.241282 - 8 (439.331466,361.600000) forward to 89 (603.049988,607.299988) using gf  
packet 559 - 16.349724 - 88 (174.730000,101.100000) forward to 8 (440.966949,361.600006) using gf  
packet 559 - 16.351620 - 8 (431.011342,361.600000) forward to 89 (603.049988,607.299988) using gf  
packet 560 - 17.529524 - 88 (174.730000,101.100000) forward to 8 (440.966949,361.600006) using gf  
packet 560 - 17.531580 - 8 (420.832846,361.600000) forward to 89 (603.049988,607.299988) using gf  
packet 561 - 18.387055 - 88 (174.730000,101.100000) forward to 8 (440.966949,361.600006) using gf  
packet 561 - 18.389410 - 8 (413.129761,361.600000) forward to 89 (603.049988,607.299988) using gf  
packet 562 - 19.503020 - 88 (174.730000,101.100000) forward to 8 (440.966949,361.600006) using gf  
packet 562 - 19.504996 - 8 (402.965259,361.600000) forward to 89 (603.049988,607.299988) using gf  
packet 594 - 20.175543 - 88 (174.730000,101.100000) forward to 87 (358.399994,441.000000) using gf  
packet 594 - 20.177679 - 87 (358.400000,441.000000) forward to 89 (603.049988,607.299988) using gf  
packet 657 - 20.707674 - 88 (174.730000,101.100000) forward to 87 (358.399994,441.000000) using gf  
packet 657 - 20.709610 - 87 (358.400000,441.000000) forward to 89 (603.049988,607.299988) using gf  
packet 658 - 21.280142 - 88 (174.730000,101.100000) forward to 87 (358.399994,441.000000) using gf  
packet 658 - 21.282418 - 87 (358.400000,441.000000) forward to 89 (603.049988,607.299988) using gf  
packet 659 - 22.547468 - 88 (174.730000,101.100000) forward to 87 (358.399994,441.000000) using gf  
packet 659 - 22.549703 - 87 (358.400000,441.000000) forward to 89 (603.049988,607.299988) using gf  
packet 660 - 23.491842 - 88 (174.730000,101.100000) forward to 87 (358.399994,441.000000) using gf  
packet 660 - 23.493678 - 87 (358.400000,441.000000) forward to 89 (603.049988,607.299988) using gf  
packet 661 - 24.374786 - 88 (174.730000,101.100000) forward to 87 (358.399994,441.000000) using gf  
packet 661 - 24.377062 - 87 (358.400000,441.000000) forward to 89 (603.049988,607.299988) using gf  
packet 752 - 25.812785 - 88 (174.730000,101.100000) forward to 16 (448.399994,371.958008) using gf  
packet 752 - 25.817957 - 16 (448.400000,368.846826) forward to 89 (603.049988,607.299988) using gf  
packet 753 - 27.240645 - 88 (174.730000,101.100000) forward to 16 (448.399994,371.958008) using gf  
packet 753 - 27.242881 - 16 (445.659003,362.636703) forward to 89 (603.049988,607.299988) using gf  
packet 754 - 27.750570 - 88 (174.730000,101.100000) forward to 16 (448.399994,371.958008) using gf  
packet 754 - 27.752886 - 16 (442.905996,361.915802) forward to 89 (603.049988,607.299988) using gf  
packet 755 - 28.407094 - 88 (174.730000,101.100000) forward to 16 (448.399994,371.958008) using gf  
packet 755 - 28.409049 - 16 (438.730398,361.600000) forward to 89 (603.049988,607.299988) using gf  
packet 756 - 29.821118 - 88 (174.730000,101.100000) forward to 16 (448.399994,371.958008) using gf  
packet 756 - 29.823294 - 16 (427.936083,361.600000) forward to 89 (603.049988,607.299988) using gf  
packet 839 - 30.440204 - 88 (174.730000,101.100000) forward to 87 (358.399994,441.000000) using gf  
packet 839 - 30.442200 - 87 (358.400000,441.000000) forward to 89 (603.049988,607.299988) using gf  
packet 853 - 31.230326 - 88 (174.730000,101.100000) forward to 87 (358.399994,441.000000) using gf  
packet 853 - 31.232622 - 87 (358.400000,441.000000) forward to 89 (603.049988,607.299988) using gf  
packet 854 - 31.841883 - 88 (174.730000,101.100000) forward to 87 (358.399994,441.000000) using gf  
packet 854 - 31.844139 - 87 (358.400000,441.000000) forward to 89 (603.049988,607.299988) using gf  
packet 855 - 32.807382 - 88 (174.730000,101.100000) forward to 87 (358.399994,441.000000) using gf  
packet 855 - 32.809558 - 87 (358.400000,441.000000) forward to 89 (603.049988,607.299988) using gf  
packet 856 - 33.790808 - 88 (174.730000,101.100000) forward to 87 (358.399994,441.000000) using gf  
packet 856 - 33.793164 - 87 (358.400000,441.000000) forward to 89 (603.049988,607.299988) using gf  
packet 857 - 34.831280 - 88 (174.730000,101.100000) forward to 87 (358.399994,441.000000) using gf  
packet 857 - 34.833656 - 87 (358.400000,441.000000) forward to 89 (603.049988,607.299988) using gf  
packet 948 - 36.028731 - 88 (174.730000,101.100000) forward to 87 (358.399994,441.000000) using gf  
packet 948 - 36.031167 - 87 (358.400000,441.000000) forward to 89 (603.049988,607.299988) using gf  
packet 949 - 36.576033 - 88 (174.730000,101.100000) forward to 87 (358.399994,441.000000) using gf  
packet 949 - 36.578169 - 87 (358.400000,441.000000) forward to 89 (603.049988,607.299988) using gf  
packet 950 - 37.289500 - 88 (174.730000,101.100000) forward to 87 (358.399994,441.000000) using gf  
packet 950 - 37.291716 - 87 (358.400000,441.000000) forward to 89 (603.049988,607.299988) using gf  
packet 951 - 38.536587 - 88 (174.730000,101.100000) forward to 87 (358.399994,441.000000) using gf  
packet 951 - 38.538743 - 87 (358.400000,441.000000) forward to 89 (603.049988,607.299988) using gf  
packet 952 - 39.591554 - 88 (174.730000,101.100000) forward to 87 (358.399994,441.000000) using gf  
packet 952 - 39.593910 - 87 (358.400000,441.000000) forward to 89 (603.049988,607.299988) using gf  
packet 975 - 40.131876 - 88 (174.730000,101.100000) forward to 87 (358.399994,441.000000) using gf  
packet 975 - 40.134111 - 87 (358.400000,441.000000) forward to 89 (603.049988,607.299988) using gf  
packet 1047 - 41.360381 - 88 (174.730000,101.100000) forward to 87 (358.399994,441.000000) using gf  
packet 1047 - 41.362357 - 87 (358.400000,441.000000) forward to 89 (603.049988,607.299988) using gf  
packet 1048 - 42.072930 - 88 (174.730000,101.100000) forward to 87 (358.399994,441.000000) using gf  
packet 1048 - 42.075166 - 87 (358.400000,441.000000) forward to 89 (603.049988,607.299988) using gf  
packet 1049 - 42.687930 - 88 (174.730000,101.100000) forward to 87 (358.399994,441.000000) using gf  
packet 1049 - 42.690125 - 87 (358.400000,441.000000) forward to 89 (603.049988,607.299988) using gf  
packet 1050 - 43.753271 - 88 (174.730000,101.100000) forward to 87 (358.399994,441.000000) using gf  
packet 1050 - 43.755127 - 87 (358.400000,441.000000) forward to 89 (603.049988,607.299988) using gf  
packet 1051 - 44.809149 - 88 (174.730000,101.100000) forward to 87 (358.399994,441.000000) using gf  
packet 1051 - 44.811584 - 87 (358.400000,441.000000) forward to 89 (603.049988,607.299988) using gf  
packet 1142 - 45.758560 - 88 (174.730000,101.100000) forward to 87 (358.399994,441.000000) using gf  
packet 1142 - 45.760916 - 87 (358.400000,441.000000) forward to 89 (603.049988,607.299988) using gf  
packet 1143 - 46.341075 - 88 (174.730000,101.100000) forward to 87 (358.399994,441.000000) using gf  
packet 1143 - 46.342930 - 87 (358.400000,441.000000) forward to 89 (603.049988,607.299988) using gf  
packet 1144 - 47.366498 - 88 (174.730000,101.100000) forward to 87 (358.399994,441.000000) using gf  
packet 1144 - 47.368354 - 87 (358.400000,441.000000) forward to 89 (603.049988,607.299988) using gf  
packet 1145 - 48.264952 - 88 (174.730000,101.100000) forward to 87 (358.399994,441.000000) using gf  
packet 1145 - 48.267068 - 87 (358.400000,441.000000) forward to 89 (603.049988,607.299988) using gf  
packet 1146 - 49.171542 - 88 (174.730000,101.100000) forward to 87 (358.399994,441.000000) using gf  
packet 1146 - 49.173658 - 87 (358.400000,441.000000) forward to 89 (603.049988,607.299988) using gf  
packet 1221 - 50.417033 - 88 (174.730000,101.100000) forward to 16 (361.600006,452.271484) using gf  
packet 1221 - 50.419209 - 16 (361.600000,453.504428) forward to 89 (603.049988,607.299988) using gf  
packet 1243 - 50.983295 - 88 (174.730000,101.100000) forward to 16 (361.600006,452.271484) using gf  
packet 1244 - 51.559027 - 88 (174.730000,101.100000) forward to 16 (361.600006,452.271484) using gf  
packet 1245 - 52.537026 - 88 (174.730000,101.100000) forward to 16 (361.600006,452.271484) using gf  
packet 1246 - 53.453217 - 88 (174.730000,101.100000) forward to 16 (361.600006,452.271484) using gf  
packet 1247 - 54.513298 - 88 (174.730000,101.100000) forward to 16 (361.600006,452.271484) using gf  
packet 1251 - 55.016278 - 88 (174.730000,101.100000) forward to 16 (361.600006,452.271484) using gf  
packet 1339 - 56.137486 - 88 (174.730000,101.100000) forward to 16 (361.600006,452.271484) using gf  
packet 1340 - 56.930141 - 88 (174.730000,101.100000) forward to 16 (361.600006,452.271484) using gf  
packet 1341 - 58.170782 - 88 (174.730000,101.100000) forward to 16 (361.600006,452.271484) using gf  
packet 1342 - 59.336696 - 88 (174.730000,101.100000) forward to 16 (361.600006,452.271484) using gf  
packet 1440 - 60.607886 - 88 (174.730000,101.100000) forward to 16 (361.600006,452.271484) using gf  
packet 1441 - 61.929001 - 88 (174.730000,101.100000) forward to 16 (361.600006,452.271484) using gf  
packet 1442 - 63.277534 - 88 (174.730000,101.100000) forward to 16 (361.600006,452.271484) using gf  
packet 1443 - 64.177166 - 88 (174.730000,101.100000) forward to 16 (361.600006,452.271484) using gf  
packet 1444 - 64.964631 - 88 (174.730000,101.100000) forward to 16 (361.600006,452.271484) using gf  
packet 1535 - 66.178613 - 88 (174.730000,101.100000) forward to 34 (367.195648,448.399994) using gf  
packet 1536 - 67.155981 - 88 (174.730000,101.100000) forward to 34 (367.195648,448.399994) using gf  
packet 1537 - 68.568716 - 88 (174.730000,101.100000) forward to 34 (367.195648,448.399994) using gf  
packet 1538 - 69.868842 - 88 (174.730000,101.100000) forward to 34 (367.195648,448.399994) using gf  
packet 1635 - 71.039310 - 88 (174.730000,101.100000) forward to 34 (367.195648,448.399994) using gf  
packet 1636 - 71.820090 - 88 (174.730000,101.100000) forward to 34 (367.195648,448.399994) using gf  
packet 1637 - 73.091767 - 88 (174.730000,101.100000) forward to 34 (367.195648,448.399994) using gf  
packet 1638 - 73.876460 - 88 (174.730000,101.100000) forward to 34 (367.195648,448.399994) using gf  
packet 1639 - 74.648630 - 88 (174.730000,101.100000) forward to 34 (367.195648,448.399994) using gf  
packet 1730 - 75.890656 - 88 (174.730000,101.100000) forward to 34 (367.195648,448.399994) using gf  
packet 1731 - 76.677821 - 88 (174.730000,101.100000) forward to 34 (367.195648,448.399994) using gf  
packet 1732 - 77.701526 - 88 (174.730000,101.100000) forward to 34 (367.195648,448.399994) using gf  
packet 1733 - 79.068857 - 88 (174.730000,101.100000) forward to 34 (367.195648,448.399994) using gf  
packet 1734 - 79.877720 - 88 (174.730000,101.100000) forward to 34 (367.195648,448.399994) using gf  
packet 1829 - 80.773104 - 88 (174.730000,101.100000) forward to 34 (367.195648,448.399994) using gf  
packet 1830 - 82.164943 - 88 (174.730000,101.100000) forward to 34 (367.195648,448.399994) using gf  
packet 1831 - 83.363108 - 88 (174.730000,101.100000) forward to 34 (367.195648,448.399994) using gf  
packet 1832 - 84.501808 - 88 (174.730000,101.100000) forward to 34 (367.195648,448.399994) using gf  
packet 1923 - 85.698089 - 88 (174.730000,101.100000) forward to 34 (367.195648,448.399994) using gf  
packet 1924 - 86.919730 - 88 (174.730000,101.100000) forward to 34 (367.195648,448.399994) using gf  
packet 1925 - 88.174489 - 88 (174.730000,101.100000) forward to 34 (367.195648,448.399994) using gf  
packet 1926 - 89.537382 - 88 (174.730000,101.100000) forward to 34 (367.195648,448.399994) using gf  
packet 1943 - 90.061192 - 88 (174.730000,101.100000) forward to 34 (367.195648,448.399994) using gf  
packet 2021 - 91.429871 - 88 (174.730000,101.100000) forward to 14 (367.389374,451.600006) using gf  
packet 2021 - 91.435203 - 14 (367.320000,451.600000) forward to 89 (603.049988,607.299988) using gf  
packet 2022 - 92.001574 - 88 (174.730000,101.100000) forward to 14 (367.389374,451.600006) using gf  
packet 2022 - 92.003530 - 14 (367.320000,451.600000) forward to 89 (603.049988,607.299988) using gf  
packet 2023 - 92.746432 - 88 (174.730000,101.100000) forward to 14 (367.389374,451.600006) using gf  
packet 2023 - 92.748848 - 14 (367.320000,451.600000) forward to 89 (603.049988,607.299988) using gf  
packet 2024 - 93.866428 - 88 (174.730000,101.100000) forward to 14 (367.389374,451.600006) using gf  
packet 2024 - 93.868744 - 14 (366.044745,451.763715) forward to 89 (603.049988,607.299988) using gf  
packet 2025 - 94.816353 - 88 (174.730000,101.100000) forward to 14 (367.389374,451.600006) using gf  
packet 2025 - 94.818749 - 14 (363.402624,452.909177) forward to 89 (603.049988,607.299988) using gf  
packet 2116 - 95.775812 - 88 (174.730000,101.100000) forward to 14 (367.389374,451.600006) using gf  
packet 2117 - 96.623965 - 88 (174.730000,101.100000) forward to 14 (367.389374,451.600006) using gf  
packet 2118 - 98.113984 - 88 (174.730000,101.100000) forward to 14 (367.389374,451.600006) using gf  
packet 2119 - 99.558665 - 88 (174.730000,101.100000) forward to 14 (367.389374,451.600006) using gf  
packet 2178 - 100.324931 - 88 (174.730000,101.100000) forward to 14 (367.389374,451.600006) using gf  
packet 2218 - 101.309382 - 88 (174.730000,101.100000) forward to 14 (367.389374,451.600006) using gf  
packet 2219 - 102.797780 - 88 (174.730000,101.100000) forward to 14 (367.389374,451.600006) using gf  
packet 2220 - 103.790645 - 88 (174.730000,101.100000) forward to 14 (367.389374,451.600006) using gf  
packet 2221 - 104.900808 - 88 (174.730000,101.100000) forward to 14 (367.389374,451.600006) using gf  
packet 2312 - 106.200435 - 88 (174.730000,101.100000) forward to 14 (367.389374,451.600006) using gf  
packet 2313 - 107.517310 - 88 (174.730000,101.100000) forward to 14 (367.389374,451.600006) using gf  
packet 2314 - 108.825710 - 88 (174.730000,101.100000) forward to 14 (367.389374,451.600006) using gf  
packet 2322 - 110.002805 - 88 (174.730000,101.100000) forward to 14 (367.389374,451.600006) using gf  
packet 2413 - 111.280156 - 88 (174.730000,101.100000) forward to 54 (451.600006,378.547852) using gf  
packet 2414 - 112.720993 - 88 (174.730000,101.100000) forward to 54 (451.600006,378.547852) using gf  
packet 2415 - 113.867928 - 88 (174.730000,101.100000) forward to 54 (451.600006,378.547852) using gf  
packet 2473 - 115.365024 - 88 (174.730000,101.100000) forward to 54 (451.600006,378.547852) using gf  
packet 2507 - 115.886623 - 88 (174.730000,101.100000) forward to 54 (451.600006,378.547852) using gf  
packet 2508 - 116.817189 - 88 (174.730000,101.100000) forward to 54 (451.600006,378.547852) using gf  
packet 2509 - 117.938691 - 88 (174.730000,101.100000) forward to 54 (451.600006,378.547852) using gf  
packet 2510 - 118.832462 - 88 (174.730000,101.100000) forward to 54 (451.600006,378.547852) using gf  
packet 2542 - 120.142610 - 88 (174.730000,101.100000) forward to 54 (451.600006,378.547852) using gf  
packet 2612 - 121.127532 - 88 (174.730000,101.100000) forward to 54 (451.600006,378.547852) using gf  
packet 2613 - 122.475544 - 88 (174.730000,101.100000) forward to 54 (451.600006,378.547852) using gf  
packet 2614 - 123.729391 - 88 (174.730000,101.100000) forward to 54 (451.600006,378.547852) using gf  
packet 2615 - 124.838203 - 88 (174.730000,101.100000) forward to 54 (451.600006,378.547852) using gf  
packet 2706 - 125.507070 - 88 (174.730000,101.100000) forward to 54 (451.600006,378.547852) using gf  
packet 2707 - 126.904158 - 88 (174.730000,101.100000) forward to 54 (451.600006,378.547852) using gf  
packet 2708 - 128.105711 - 88 (174.730000,101.100000) forward to 54 (451.600006,378.547852) using gf  
packet 2709 - 129.584472 - 88 (174.730000,101.100000) forward to 54 (451.600006,378.547852) using gf  
packet 2753 - 130.221890 - 88 (174.730000,101.100000) forward to 54 (451.600006,378.547852) using gf  
packet 2809 - 130.776427 - 88 (174.730000,101.100000) forward to 54 (451.600006,378.547852) using gf  
packet 2810 - 131.565133 - 88 (174.730000,101.100000) forward to 54 (451.600006,378.547852) using gf  
packet 2811 - 132.797311 - 88 (174.730000,101.100000) forward to 54 (451.600006,378.547852) using gf  
packet 2812 - 133.384609 - 88 (174.730000,101.100000) forward to 54 (451.600006,378.547852) using gf  
packet 2813 - 134.361479 - 88 (174.730000,101.100000) forward to 54 (451.600006,378.547852) using gf  
packet 2904 - 135.513734 - 88 (174.730000,101.100000) forward to 33 (448.399994,386.382111) using gf  
packet 2904 - 135.518926 - 33 (448.400000,385.390613) forward to 89 (603.049988,607.299988) using gf  
packet 2905 - 136.875562 - 88 (174.730000,101.100000) forward to 33 (448.399994,386.382111) using gf  
packet 2905 - 136.877978 - 33 (448.400000,369.924113) forward to 89 (603.049988,607.299988) using gf  
packet 2906 - 137.453055 - 88 (174.730000,101.100000) forward to 33 (448.399994,386.382111) using gf  
packet 2906 - 137.455390 - 33 (448.400000,363.499868) forward to 89 (603.049988,607.299988) using gf  
packet 2907 - 138.404541 - 88 (174.730000,101.100000) forward to 33 (448.399994,386.382111) using gf  
packet 2907 - 138.406877 - 33 (448.400000,352.789205) forward to 89 (603.049988,607.299988) using gf  
packet 2908 - 139.184828 - 88 (174.730000,101.100000) forward to 33 (448.399994,386.382111) using gf  
packet 2908 - 139.187004 - 33 (448.400000,343.848304) forward to 89 (603.049988,607.299988) using gf  
packet 2909 - 139.823628 - 88 (174.730000,101.100000) forward to 33 (448.399994,386.382111) using gf  
packet 2909 - 139.825644 - 33 (448.400000,336.567813) forward to 89 (603.049988,607.299988) using gf  
packet 3008 - 140.842589 - 88 (174.730000,101.100000) forward to 54 (451.600006,378.547852) using gf  
packet 3009 - 142.087385 - 88 (174.730000,101.100000) forward to 54 (451.600006,378.547852) using gf  
packet 3010 - 143.057394 - 88 (174.730000,101.100000) forward to 54 (451.600006,378.547852) using gf  
packet 3011 - 143.835764 - 88 (174.730000,101.100000) forward to 54 (451.600006,378.547852) using gf  
packet 3012 - 144.830680 - 88 (174.730000,101.100000) forward to 54 (451.600006,378.547852) using gf  
packet 3103 - 146.192794 - 88 (174.730000,101.100000) forward to 54 (451.600006,378.547852) using gf  
packet 3104 - 147.422605 - 88 (174.730000,101.100000) forward to 54 (451.600006,378.547852) using gf  
packet 3105 - 148.069679 - 88 (174.730000,101.100000) forward to 54 (451.600006,378.547852) using gf  
packet 3106 - 148.634531 - 88 (174.730000,101.100000) forward to 54 (451.600006,378.547852) using gf  
packet 3115 - 150.017499 - 88 (174.730000,101.100000) forward to 54 (451.600006,378.547852) using gf  
packet 3203 - 151.478919 - 88 (174.730000,101.100000) forward to 54 (451.600006,378.547852) using gf  
packet 3204 - 152.943502 - 88 (174.730000,101.100000) forward to 54 (451.600006,378.547852) using gf  
packet 3205 - 153.584349 - 88 (174.730000,101.100000) forward to 54 (451.600006,378.547852) using gf  
packet 3213 - 155.027020 - 88 (174.730000,101.100000) forward to 54 (451.600006,378.547852) using gf  
packet 3297 - 156.110367 - 88 (174.730000,101.100000) forward to 54 (451.600006,378.547852) using gf  
packet 3298 - 156.951074 - 88 (174.730000,101.100000) forward to 54 (451.600006,378.547852) using gf  
packet 3299 - 157.504058 - 88 (174.730000,101.100000) forward to 54 (451.600006,378.547852) using gf  
packet 3300 - 158.025479 - 88 (174.730000,101.100000) forward to 54 (451.600006,378.547852) using gf  
packet 3301 - 158.787141 - 88 (174.730000,101.100000) forward to 54 (451.600006,378.547852) using gf  
packet 3302 - 159.765851 - 88 (174.730000,101.100000) forward to 54 (451.600006,378.547852) using gf  
packet 3400 - 160.550140 - 88 (174.730000,101.100000) forward to 54 (451.600006,378.547852) using gf  
packet 3401 - 161.142101 - 88 (174.730000,101.100000) forward to 54 (451.600006,378.547852) using gf  
packet 3402 - 161.809856 - 88 (174.730000,101.100000) forward to 54 (451.600006,378.547852) using gf  
packet 3403 - 162.693706 - 88 (174.730000,101.100000) forward to 54 (451.600006,378.547852) using gf  
packet 3404 - 163.375402 - 88 (174.730000,101.100000) forward to 54 (451.600006,378.547852) using gf  
packet 3405 - 164.263425 - 88 (174.730000,101.100000) forward to 54 (451.600006,378.547852) using gf  
packet 3437 - 165.207755 - 88 (174.730000,101.100000) forward to 54 (451.600006,378.547852) using gf  
packet 3497 - 166.404908 - 88 (174.730000,101.100000) forward to 54 (451.600006,378.547852) using gf  
packet 3498 - 167.191764 - 88 (174.730000,101.100000) forward to 54 (451.600006,378.547852) using gf  
packet 3499 - 168.088912 - 88 (174.730000,101.100000) forward to 54 (451.600006,378.547852) using gf  
packet 3500 - 169.289277 - 88 (174.730000,101.100000) forward to 54 (451.600006,378.547852) using gf  
packet 3501 - 169.869099 - 88 (174.730000,101.100000) forward to 54 (451.600006,378.547852) using gf  
packet 3600 - 170.691318 - 88 (174.730000,101.100000) forward to 54 (451.600006,378.547852) using gf  
packet 3601 - 171.927004 - 88 (174.730000,101.100000) forward to 54 (451.600006,378.547852) using gf  
packet 3602 - 172.824815 - 88 (174.730000,101.100000) forward to 54 (451.600006,378.547852) using gf  
packet 3603 - 173.603948 - 88 (174.730000,101.100000) forward to 54 (451.600006,378.547852) using gf  
packet 3616 - 175.055882 - 88 (174.730000,101.100000) forward to 54 (451.600006,378.547852) using gf  
packet 3695 - 176.491346 - 88 (174.730000,101.100000) forward to 54 (451.600006,378.547852) using gf  
packet 3696 - 177.651994 - 88 (174.730000,101.100000) forward to 54 (451.600006,378.547852) using gf  
packet 3697 - 178.340593 - 88 (174.730000,101.100000) forward to 54 (451.600006,378.547852) using gf  
packet 3698 - 178.911722 - 88 (174.730000,101.100000) forward to 54 (451.600006,378.547852) using gf  
packet 3699 - 179.511779 - 88 (174.730000,101.100000) forward to 54 (451.600006,378.547852) using gf  
packet 3784 - 180.447289 - 88 (174.730000,101.100000) forward to 16 (448.399994,388.397919) using gf  
packet 3784 - 180.449445 - 16 (448.400000,387.051064) forward to 89 (603.049988,607.299988) using gf  
packet 3795 - 181.111052 - 88 (174.730000,101.100000) forward to 16 (448.399994,388.397919) using gf  
packet 3795 - 181.113308 - 16 (448.400000,381.729306) forward to 89 (603.049988,607.299988) using gf  
packet 3796 - 182.495276 - 88 (174.730000,101.100000) forward to 16 (448.399994,388.397919) using gf  
packet 3796 - 182.497412 - 16 (448.400000,370.725686) forward to 89 (603.049988,607.299988) using gf  
packet 3797 - 183.107371 - 88 (174.730000,101.100000) forward to 16 (448.399994,388.397919) using gf  
packet 3797 - 183.109567 - 16 (448.400000,365.859051) forward to 89 (603.049988,607.299988) using gf  
packet 3798 - 183.899775 - 88 (174.730000,101.100000) forward to 16 (448.399994,388.397919) using gf  
packet 3798 - 183.901951 - 16 (448.400000,359.559599) forward to 89 (603.049988,607.299988) using gf  
packet 3817 - 185.119632 - 88 (174.730000,101.100000) forward to 16 (448.399994,388.397919) using gf  
packet 3817 - 185.121787 - 16 (448.400000,350.227544) forward to 89 (603.049988,607.299988) using gf  
packet 3890 - 185.802115 - 88 (174.730000,101.100000) forward to 0 (451.600006,378.132721) using gf  
packet 3891 - 187.103989 - 88 (174.730000,101.100000) forward to 0 (451.600006,378.132721) using gf  
packet 3892 - 188.352051 - 88 (174.730000,101.100000) forward to 0 (451.600006,378.132721) using gf  
packet 3893 - 189.219103 - 88 (174.730000,101.100000) forward to 0 (451.600006,378.132721) using gf  
packet 3957 - 190.371723 - 88 (174.730000,101.100000) forward to 0 (451.600006,378.132721) using gf  
packet 3990 - 190.897367 - 88 (174.730000,101.100000) forward to 0 (451.600006,378.132721) using gf  
packet 3991 - 192.213577 - 88 (174.730000,101.100000) forward to 0 (451.600006,378.132721) using gf  
packet 3992 - 193.093365 - 88 (174.730000,101.100000) forward to 0 (451.600006,378.132721) using gf  
packet 3993 - 193.887300 - 88 (174.730000,101.100000) forward to 0 (451.600006,378.132721) using gf  
packet 3994 - 194.861110 - 88 (174.730000,101.100000) forward to 0 (451.600006,378.132721) using gf  
