packet 362 - 10.000000 - 88 (174.730000,101.100000) forward to 3 (296.023560,451.600006) using gf  
packet 460 - 11.451472 - 88 (174.730000,101.100000) forward to 23 (268.399994,394.910004) using gf  
packet 460 - 11.456782 - 23 (268.400000,394.910000) forward to 89 (603.049988,607.299988) using gf  
packet 461 - 12.059683 - 88 (174.730000,101.100000) forward to 23 (268.399994,394.910004) using gf  
packet 461 - 12.061978 - 23 (268.400000,394.910000) forward to 89 (603.049988,607.299988) using gf  
packet 462 - 12.594020 - 88 (174.730000,101.100000) forward to 23 (268.399994,394.910004) using gf  
packet 462 - 12.596355 - 23 (268.400000,394.910000) forward to 89 (603.049988,607.299988) using gf  
packet 463 - 13.677256 - 88 (174.730000,101.100000) forward to 23 (268.399994,394.910004) using gf  
packet 463 - 13.679351 - 23 (268.400000,394.910000) forward to 89 (603.049988,607.299988) using gf  
packet 464 - 14.693636 - 88 (174.730000,101.100000) forward to 23 (268.399994,394.910004) using gf  
packet 464 - 14.696031 - 23 (268.400000,394.910000) forward to 89 (603.049988,607.299988) using gf  
packet 555 - 15.955080 - 88 (174.730000,101.100000) forward to 23 (268.399994,394.910004) using gf  
packet 555 - 15.957295 - 23 (268.400000,394.910000) forward to 89 (603.049988,607.299988) using gf  
packet 556 - 17.189442 - 88 (174.730000,101.100000) forward to 23 (268.399994,394.910004) using gf  
packet 556 - 17.191717 - 23 (268.400000,394.910000) forward to 89 (603.049988,607.299988) using gf  
packet 557 - 17.904080 - 88 (174.730000,101.100000) forward to 23 (268.399994,394.910004) using gf  
packet 557 - 17.906276 - 23 (268.400000,394.910000) forward to 89 (603.049988,607.299988) using gf  
packet 558 - 19.065393 - 88 (174.730000,101.100000) forward to 23 (268.399994,394.910004) using gf  
packet 558 - 19.067408 - 23 (268.400000,394.910000) forward to 89 (603.049988,607.299988) using gf  
packet 606 - 20.284915 - 88 (174.730000,101.100000) forward to 13 (358.399994,454.418213) using gf  
packet 606 - 20.290107 - 13 (358.400000,452.858997) forward to 89 (603.049988,607.299988) using gf  
packet 652 - 21.736822 - 88 (174.730000,101.100000) forward to 13 (358.399994,454.418213) using gf  
packet 652 - 21.738717 - 13 (358.400000,421.245151) forward to 89 (603.049988,607.299988) using gf  
packet 653 - 23.060823 - 88 (174.730000,101.100000) forward to 13 (358.399994,454.418213) using gf  
packet 653 - 23.063058 - 13 (358.400000,395.425045) forward to 89 (603.049988,607.299988) using gf  
packet 654 - 24.190175 - 88 (174.730000,101.100000) forward to 13 (358.399994,454.418213) using gf  
packet 654 - 24.192330 - 13 (358.400000,379.374128) forward to 89 (603.049988,607.299988) using gf  
packet 745 - 25.672558 - 88 (174.730000,101.100000) forward to 3 (278.209991,451.600006) using gf  
packet 745 - 25.677430 - 3 (278.210000,451.600000) forward to 89 (603.049988,607.299988) using gf  
packet 746 - 26.856656 - 88 (174.730000,101.100000) forward to 3 (278.209991,451.600006) using gf  
packet 746 - 26.858751 - 3 (278.210000,451.600000) forward to 89 (603.049988,607.299988) using gf  
packet 747 - 27.796429 - 88 (174.730000,101.100000) forward to 3 (278.209991,451.600006) using gf  
packet 747 - 27.798704 - 3 (278.210000,451.600000) forward to 89 (603.049988,607.299988) using gf  
packet 748 - 28.611788 - 88 (174.730000,101.100000) forward to 3 (278.209991,451.600006) using gf  
packet 748 - 28.613663 - 3 (278.210000,451.600000) forward to 89 (603.049988,607.299988) using gf  
packet 749 - 29.415589 - 88 (174.730000,101.100000) forward to 3 (278.209991,451.600006) using gf  
packet 749 - 29.417685 - 3 (278.210000,451.600000) forward to 89 (603.049988,607.299988) using gf  
packet 845 - 30.886503 - 88 (174.730000,101.100000) forward to 0 (361.600006,366.258240) using gf  
packet 846 - 31.739764 - 88 (174.730000,101.100000) forward to 0 (361.600006,366.258240) using gf  
packet 847 - 32.307716 - 88 (174.730000,101.100000) forward to 0 (361.600006,366.258240) using gf  
packet 848 - 33.425714 - 88 (174.730000,101.100000) forward to 0 (361.600006,366.258240) using gf  
packet 849 - 34.581126 - 88 (174.730000,101.100000) forward to 0 (361.600006,366.258240) using gf  
packet 878 - 35.188287 - 88 (174.730000,101.100000) forward to 0 (361.600006,366.258240) using gf  
packet 941 - 36.261956 - 88 (174.730000,101.100000) forward to 13 (441.227173,358.399994) using gf  
packet 941 - 36.263851 - 13 (441.550129,358.400000) forward to 89 (603.049988,607.299988) using gf  
packet 942 - 36.976673 - 88 (174.730000,101.100000) forward to 13 (441.227173,358.399994) using gf  
packet 942 - 36.979089 - 13 (441.686024,358.400000) forward to 89 (603.049988,607.299988) using gf  
packet 943 - 37.689137 - 88 (174.730000,101.100000) forward to 13 (441.227173,358.399994) using gf  
packet 943 - 37.691333 - 13 (441.738392,358.400000) forward to 89 (603.049988,607.299988) using gf  
packet 944 - 38.965353 - 88 (174.730000,101.100000) forward to 13 (441.227173,358.399994) using gf  
packet 944 - 38.967508 - 13 (441.769675,358.400000) forward to 89 (603.049988,607.299988) using gf  
packet 945 - 39.741519 - 88 (174.730000,101.100000) forward to 13 (441.227173,358.399994) using gf  
packet 945 - 39.743795 - 13 (441.777438,358.400000) forward to 89 (603.049988,607.299988) using gf  
packet 1042 - 41.237348 - 88 (174.730000,101.100000) forward to 13 (441.779999,358.399994) using gf  
packet 1042 - 41.239664 - 13 (441.780000,358.400000) forward to 89 (603.049988,607.299988) using gf  
packet 1043 - 42.649267 - 88 (174.730000,101.100000) forward to 13 (441.779999,358.399994) using gf  
packet 1043 - 42.651323 - 13 (441.780000,358.400000) forward to 89 (603.049988,607.299988) using gf  
packet 1044 - 43.295406 - 88 (174.730000,101.100000) forward to 13 (441.779999,358.399994) using gf  
packet 1044 - 43.297642 - 13 (441.780000,358.400000) forward to 89 (603.049988,607.299988) using gf  
packet 1045 - 43.952702 - 88 (174.730000,101.100000) forward to 13 (441.779999,358.399994) using gf  
packet 1045 - 43.954598 - 13 (441.780000,358.400000) forward to 89 (603.049988,607.299988) using gf  
packet 1046 - 44.771544 - 88 (174.730000,101.100000) forward to 13 (441.779999,358.399994) using gf  
packet 1046 - 44.773420 - 13 (441.780000,358.400000) forward to 89 (603.049988,607.299988) using gf  
packet 1137 - 46.155355 - 88 (174.730000,101.100000) forward to 13 (442.277954,358.399994) using gf  
packet 1137 - 46.157530 - 13 (444.635415,358.400000) forward to 89 (603.049988,607.299988) using gf  
packet 1138 - 46.728985 - 88 (174.730000,101.100000) forward to 13 (442.277954,358.399994) using gf  
packet 1138 - 46.731221 - 13 (446.803965,358.400000) forward to 89 (603.049988,607.299988) using gf  
packet 1139 - 47.773856 - 88 (174.730000,101.100000) forward to 13 (442.277954,358.399994) using gf  
packet 1139 - 47.776031 - 13 (452.274345,358.400000) forward to 89 (603.049988,607.299988) using gf  
packet 1140 - 48.375438 - 88 (174.730000,101.100000) forward to 13 (442.277954,358.399994) using gf  
packet 1140 - 48.377814 - 13 (456.370840,358.400000) forward to 89 (603.049988,607.299988) using gf  
packet 1141 - 48.903056 - 88 (174.730000,101.100000) forward to 13 (442.277954,358.399994) using gf  
packet 1141 - 48.905032 - 13 (460.293336,358.400000) forward to 89 (603.049988,607.299988) using gf  
packet 1185 - 50.265112 - 88 (174.730000,101.100000) forward to 13 (473.338013,358.399994) using gf  
packet 1185 - 50.267774 - 13 (473.911160,358.400000) forward to 89 (603.049988,607.299988) using gf  
packet 1235 - 51.564348 - 88 (174.730000,101.100000) forward to 13 (473.338013,358.399994) using gf  
packet 1236 - 52.385132 - 88 (174.730000,101.100000) forward to 13 (473.338013,358.399994) using gf  
packet 1237 - 53.237855 - 88 (174.730000,101.100000) forward to 13 (473.338013,358.399994) using gf  
packet 1238 - 54.544806 - 88 (174.730000,101.100000) forward to 13 (473.338013,358.399994) using gf  
packet 1329 - 55.576688 - 88 (174.730000,101.100000) forward to 13 (473.338013,358.399994) using gf  
packet 1330 - 56.356311 - 88 (174.730000,101.100000) forward to 13 (473.338013,358.399994) using gf  
packet 1331 - 57.690412 - 88 (174.730000,101.100000) forward to 13 (473.338013,358.399994) using gf  
packet 1332 - 58.535778 - 88 (174.730000,101.100000) forward to 13 (473.338013,358.399994) using gf  
packet 1333 - 59.233064 - 88 (174.730000,101.100000) forward to 13 (473.338013,358.399994) using gf  
packet 1349 - 60.031129 - 88 (174.730000,101.100000) forward to 13 (473.338013,358.399994) using gf  
packet 1432 - 61.271769 - 88 (174.730000,101.100000) forward to 13 (473.338013,358.399994) using gf  
packet 1433 - 62.512483 - 88 (174.730000,101.100000) forward to 13 (473.338013,358.399994) using gf  
packet 1434 - 63.964824 - 88 (174.730000,101.100000) forward to 13 (473.338013,358.399994) using gf  
packet 1487 - 65.331166 - 88 (174.730000,101.100000) forward to 13 (473.338013,358.399994) using gf  
packet 1526 - 66.647478 - 88 (174.730000,101.100000) forward to 13 (473.338013,358.399994) using gf  
packet 1527 - 67.408863 - 88 (174.730000,101.100000) forward to 13 (473.338013,358.399994) using gf  
packet 1528 - 68.722071 - 88 (174.730000,101.100000) forward to 13 (473.338013,358.399994) using gf  
packet 1529 - 69.928440 - 88 (174.730000,101.100000) forward to 13 (473.338013,358.399994) using gf  
packet 1624 - 71.048655 - 88 (174.730000,101.100000) forward to 13 (473.338013,358.399994) using gf  
packet 1625 - 71.549016 - 88 (174.730000,101.100000) forward to 13 (473.338013,358.399994) using gf  
packet 1626 - 72.437516 - 88 (174.730000,101.100000) forward to 13 (473.338013,358.399994) using gf  
packet 1627 - 73.209594 - 88 (174.730000,101.100000) forward to 13 (473.338013,358.399994) using gf  
packet 1628 - 74.494535 - 88 (174.730000,101.100000) forward to 13 (473.338013,358.399994) using gf  
packet 1657 - 75.170295 - 88 (174.730000,101.100000) forward to 13 (473.338013,358.399994) using gf  
packet 1720 - 75.854696 - 88 (174.730000,101.100000) forward to 13 (473.338013,358.399994) using gf  
packet 1721 - 76.896107 - 88 (174.730000,101.100000) forward to 13 (473.338013,358.399994) using gf  
packet 1722 - 77.704970 - 88 (174.730000,101.100000) forward to 13 (473.338013,358.399994) using gf  
packet 1723 - 78.379447 - 88 (174.730000,101.100000) forward to 13 (473.338013,358.399994) using gf  
packet 1724 - 79.279043 - 88 (174.730000,101.100000) forward to 13 (473.338013,358.399994) using gf  
packet 1741 - 80.075610 - 88 (174.730000,101.100000) forward to 13 (473.338013,358.399994) using gf  
packet 1818 - 81.471966 - 88 (174.730000,101.100000) forward to 13 (473.338013,358.399994) using gf  
packet 1819 - 82.803997 - 88 (174.730000,101.100000) forward to 13 (473.338013,358.399994) using gf  
packet 1820 - 84.003295 - 88 (174.730000,101.100000) forward to 13 (473.338013,358.399994) using gf  
packet 1866 - 85.287390 - 88 (174.730000,101.100000) forward to 13 (473.338013,358.399994) using gf  
packet 1912 - 85.906323 - 88 (174.730000,101.100000) forward to 13 (473.338013,358.399994) using gf  
packet 1913 - 86.829537 - 88 (174.730000,101.100000) forward to 13 (473.338013,358.399994) using gf  
packet 1914 - 87.975222 - 88 (174.730000,101.100000) forward to 13 (473.338013,358.399994) using gf  
packet 1915 - 89.006525 - 88 (174.730000,101.100000) forward to 13 (473.338013,358.399994) using gf  
packet 1916 - 89.645153 - 88 (174.730000,101.100000) forward to 13 (473.338013,358.399994) using gf  
packet 2013 - 90.670552 - 88 (174.730000,101.100000) forward to 67 (441.743835,358.399994) using gf  
packet 2013 - 90.675664 - 67 (441.757026,358.400000) forward to 89 (603.049988,607.299988) using gf  
packet 2014 - 91.234513 - 88 (174.730000,101.100000) forward to 67 (441.743835,358.399994) using gf  
packet 2014 - 91.236909 - 67 (441.770000,358.400000) forward to 89 (603.049988,607.299988) using gf  
packet 2015 - 92.601883 - 88 (174.730000,101.100000) forward to 67 (441.743835,358.399994) using gf  
packet 2015 - 92.604079 - 67 (441.770000,358.400000) forward to 89 (603.049988,607.299988) using gf  
packet 2016 - 93.146365 - 88 (174.730000,101.100000) forward to 67 (441.743835,358.399994) using gf  
packet 2016 - 93.148360 - 67 (441.770000,358.400000) forward to 89 (603.049988,607.299988) using gf  
packet 2017 - 93.826370 - 88 (174.730000,101.100000) forward to 67 (441.743835,358.399994) using gf  
packet 2017 - 93.828546 - 67 (441.770000,358.400000) forward to 89 (603.049988,607.299988) using gf  
packet 2018 - 94.567561 - 88 (174.730000,101.100000) forward to 67 (441.743835,358.399994) using gf  
packet 2018 - 94.569657 - 67 (441.770000,358.400000) forward to 89 (603.049988,607.299988) using gf  
packet 2109 - 96.022436 - 88 (174.730000,101.100000) forward to 67 (441.769989,358.399994) using gf  
packet 2109 - 96.024752 - 67 (441.770000,358.400000) forward to 89 (603.049988,607.299988) using gf  
packet 2110 - 97.003522 - 88 (174.730000,101.100000) forward to 67 (441.769989,358.399994) using gf  
packet 2110 - 97.005937 - 67 (441.770000,358.400000) forward to 89 (603.049988,607.299988) using gf  
packet 2111 - 97.816107 - 88 (174.730000,101.100000) forward to 67 (441.769989,358.399994) using gf  
packet 2111 - 97.818363 - 67 (441.770000,358.400000) forward to 89 (603.049988,607.299988) using gf  
packet 2112 - 98.835603 - 88 (174.730000,101.100000) forward to 67 (441.769989,358.399994) using gf  
packet 2112 - 98.837619 - 67 (441.770000,358.400000) forward to 89 (603.049988,607.299988) using gf  
packet 2113 - 99.403451 - 88 (174.730000,101.100000) forward to 67 (441.769989,358.399994) using gf  
packet 2113 - 99.405526 - 67 (441.770000,358.400000) forward to 89 (603.049988,607.299988) using gf  
packet 2212 - 100.776825 - 88 (174.730000,101.100000) forward to 67 (441.769989,358.399994) using gf  
packet 2212 - 100.779200 - 67 (441.770000,358.400000) forward to 89 (603.049988,607.299988) using gf  
packet 2213 - 102.035903 - 88 (174.730000,101.100000) forward to 67 (441.769989,358.399994) using gf  
packet 2213 - 102.038218 - 67 (441.770000,358.400000) forward to 89 (603.049988,607.299988) using gf  
packet 2214 - 102.579760 - 88 (174.730000,101.100000) forward to 67 (441.769989,358.399994) using gf  
packet 2214 - 102.581875 - 67 (441.770000,358.400000) forward to 89 (603.049988,607.299988) using gf  
packet 2215 - 103.318269 - 88 (174.730000,101.100000) forward to 67 (441.769989,358.399994) using gf  
packet 2215 - 103.320685 - 67 (441.770000,358.400000) forward to 89 (603.049988,607.299988) using gf  
packet 2216 - 104.094247 - 88 (174.730000,101.100000) forward to 67 (441.769989,358.399994) using gf  
packet 2216 - 104.096623 - 67 (441.770000,358.400000) forward to 89 (603.049988,607.299988) using gf  
packet 2267 - 105.314950 - 88 (174.730000,101.100000) forward to 67 (441.769989,358.399994) using gf  
packet 2267 - 105.317045 - 67 (441.770000,358.400000) forward to 89 (603.049988,607.299988) using gf  
packet 2308 - 106.722808 - 88 (174.730000,101.100000) forward to 67 (441.769989,358.399994) using gf  
packet 2308 - 106.725023 - 67 (441.770000,358.400000) forward to 89 (603.049988,607.299988) using gf  
packet 2309 - 107.496245 - 88 (174.730000,101.100000) forward to 67 (441.769989,358.399994) using gf  
packet 2309 - 107.498481 - 67 (441.770000,358.400000) forward to 89 (603.049988,607.299988) using gf  
packet 2310 - 108.833225 - 88 (174.730000,101.100000) forward to 67 (441.769989,358.399994) using gf  
packet 2310 - 108.835601 - 67 (441.770000,358.400000) forward to 89 (603.049988,607.299988) using gf  
packet 2311 - 109.822920 - 88 (174.730000,101.100000) forward to 67 (441.769989,358.399994) using gf  
packet 2311 - 109.824875 - 67 (441.770000,358.400000) forward to 89 (603.049988,607.299988) using gf  
packet 2411 - 110.651396 - 88 (174.730000,101.100000) forward to 67 (441.769989,358.399994) using gf  
packet 2411 - 110.653512 - 67 (441.770000,358.400000) forward to 89 (603.049988,607.299988) using gf  
packet 2412 - 112.083711 - 88 (174.730000,101.100000) forward to 67 (441.769989,358.399994) using gf  
packet 2412 - 112.086067 - 67 (441.770000,358.400000) forward to 89 (603.049988,607.299988) using gf  
packet 2413 - 113.159888 - 88 (174.730000,101.100000) forward to 67 (441.769989,358.399994) using gf  
packet 2413 - 113.161724 - 67 (441.770000,358.400000) forward to 89 (603.049988,607.299988) using gf  
packet 2414 - 114.191493 - 88 (174.730000,101.100000) forward to 67 (441.769989,358.399994) using gf  
packet 2414 - 114.193388 - 67 (441.770000,358.400000) forward to 89 (603.049988,607.299988) using gf  
packet 2415 - 114.850900 - 88 (174.730000,101.100000) forward to 67 (441.769989,358.399994) using gf  
packet 2415 - 114.853015 - 67 (441.770000,358.400000) forward to 89 (603.049988,607.299988) using gf  
packet 2506 - 115.820324 - 88 (174.730000,101.100000) forward to 67 (441.769989,358.399994) using gf  
packet 2506 - 115.822660 - 67 (441.770000,358.400000) forward to 89 (603.049988,607.299988) using gf  
packet 2507 - 116.988080 - 88 (174.730000,101.100000) forward to 67 (441.769989,358.399994) using gf  
packet 2507 - 116.990015 - 67 (441.770000,358.400000) forward to 89 (603.049988,607.299988) using gf  
packet 2508 - 117.788667 - 88 (174.730000,101.100000) forward to 67 (441.769989,358.399994) using gf  
packet 2508 - 117.790863 - 67 (441.770000,358.400000) forward to 89 (603.049988,607.299988) using gf  
packet 2509 - 118.379068 - 88 (174.730000,101.100000) forward to 67 (441.769989,358.399994) using gf  
packet 2509 - 118.381024 - 67 (441.770000,358.400000) forward to 89 (603.049988,607.299988) using gf  
packet 2510 - 119.082037 - 88 (174.730000,101.100000) forward to 67 (441.769989,358.399994) using gf  
packet 2510 - 119.084353 - 67 (441.770000,358.400000) forward to 89 (603.049988,607.299988) using gf  
packet 2511 - 119.868005 - 88 (174.730000,101.100000) forward to 67 (441.769989,358.399994) using gf  
packet 2511 - 119.870361 - 67 (441.770000,358.400000) forward to 89 (603.049988,607.299988) using gf  
packet 2609 - 120.682302 - 88 (174.730000,101.100000) forward to 67 (441.769989,358.399994) using gf  
packet 2609 - 120.684698 - 67 (441.770000,358.400000) forward to 89 (603.049988,607.299988) using gf  
packet 2610 - 122.001742 - 88 (174.730000,101.100000) forward to 67 (441.769989,358.399994) using gf  
packet 2610 - 122.004017 - 67 (441.770000,358.400000) forward to 89 (603.049988,607.299988) using gf  
packet 2611 - 122.586477 - 88 (174.730000,101.100000) forward to 67 (441.769989,358.399994) using gf  
packet 2611 - 122.588612 - 67 (441.770000,358.400000) forward to 89 (603.049988,607.299988) using gf  
packet 2612 - 123.975574 - 88 (174.730000,101.100000) forward to 67 (441.769989,358.399994) using gf  
packet 2612 - 123.977749 - 67 (441.770000,358.400000) forward to 89 (603.049988,607.299988) using gf  
packet 2660 - 125.303035 - 88 (174.730000,101.100000) forward to 67 (441.769989,358.399994) using gf  
packet 2660 - 125.304891 - 67 (441.770000,358.400000) forward to 89 (603.049988,607.299988) using gf  
packet 2704 - 126.110516 - 88 (174.730000,101.100000) forward to 67 (441.769989,358.399994) using gf  
packet 2704 - 126.112672 - 67 (441.770000,358.400000) forward to 89 (603.049988,607.299988) using gf  
packet 2705 - 127.052750 - 88 (174.730000,101.100000) forward to 67 (441.769989,358.399994) using gf  
packet 2705 - 127.054626 - 67 (441.770000,358.400000) forward to 89 (603.049988,607.299988) using gf  
packet 2706 - 128.499457 - 88 (174.730000,101.100000) forward to 67 (441.769989,358.399994) using gf  
packet 2706 - 128.501293 - 67 (441.770000,358.400000) forward to 89 (603.049988,607.299988) using gf  
packet 2707 - 128.999600 - 88 (174.730000,101.100000) forward to 67 (441.769989,358.399994) using gf  
packet 2707 - 129.001696 - 67 (441.770000,358.400000) forward to 89 (603.049988,607.299988) using gf  
packet 2708 - 129.759416 - 88 (174.730000,101.100000) forward to 67 (441.769989,358.399994) using gf  
packet 2708 - 129.761631 - 67 (441.770000,358.400000) forward to 89 (603.049988,607.299988) using gf  
packet 2803 - 130.514869 - 88 (174.730000,101.100000) forward to 67 (441.769989,358.399994) using gf  
packet 2803 - 130.517125 - 67 (441.770000,358.400000) forward to 89 (603.049988,607.299988) using gf  
packet 2804 - 131.060991 - 88 (174.730000,101.100000) forward to 67 (441.769989,358.399994) using gf  
packet 2804 - 131.063147 - 67 (441.770000,358.400000) forward to 89 (603.049988,607.299988) using gf  
packet 2805 - 132.249973 - 88 (174.730000,101.100000) forward to 67 (441.769989,358.399994) using gf  
packet 2805 - 132.252069 - 67 (441.770000,358.400000) forward to 89 (603.049988,607.299988) using gf  
packet 2806 - 133.663273 - 88 (174.730000,101.100000) forward to 67 (441.769989,358.399994) using gf  
packet 2806 - 133.665249 - 67 (441.770000,358.400000) forward to 89 (603.049988,607.299988) using gf  
packet 2807 - 134.370927 - 88 (174.730000,101.100000) forward to 67 (441.769989,358.399994) using gf  
packet 2807 - 134.373003 - 67 (441.770000,358.400000) forward to 89 (603.049988,607.299988) using gf  
packet 2871 - 135.392946 - 88 (174.730000,101.100000) forward to 67 (442.559387,358.399994) using gf  
packet 2871 - 135.395022 - 67 (442.670619,358.400000) forward to 89 (603.049988,607.299988) using gf  
packet 2899 - 136.655205 - 88 (174.730000,101.100000) forward to 67 (442.559387,358.399994) using gf  
packet 2899 - 136.657221 - 67 (446.724836,358.400000) forward to 89 (603.049988,607.299988) using gf  
packet 2900 - 137.834394 - 88 (174.730000,101.100000) forward to 67 (442.559387,358.399994) using gf  
packet 2900 - 137.836270 - 67 (453.129179,358.400000) forward to 89 (603.049988,607.299988) using gf  
packet 2901 - 138.904832 - 88 (174.730000,101.100000) forward to 67 (442.559387,358.399994) using gf  
packet 2901 - 138.906768 - 67 (461.463778,358.400000) forward to 89 (603.049988,607.299988) using gf  
packet 2902 - 139.821281 - 88 (174.730000,101.100000) forward to 67 (442.559387,358.399994) using gf  
packet 2902 - 139.823177 - 67 (470.245848,358.400000) forward to 89 (603.049988,607.299988) using gf  
packet 2995 - 141.203953 - 88 (174.730000,101.100000) forward to 67 (475.839172,358.399994) using gf  
packet 2996 - 142.357791 - 88 (174.730000,101.100000) forward to 67 (475.839172,358.399994) using gf  
packet 2997 - 142.967361 - 88 (174.730000,101.100000) forward to 67 (475.839172,358.399994) using gf  
packet 2998 - 143.804644 - 88 (174.730000,101.100000) forward to 67 (475.839172,358.399994) using gf  
packet 3036 - 145.252522 - 88 (174.730000,101.100000) forward to 67 (475.839172,358.399994) using gf  
packet 3090 - 146.104952 - 88 (174.730000,101.100000) forward to 67 (475.839172,358.399994) using gf  
packet 3091 - 147.441774 - 88 (174.730000,101.100000) forward to 67 (475.839172,358.399994) using gf  
packet 3092 - 148.931922 - 88 (174.730000,101.100000) forward to 67 (475.839172,358.399994) using gf  
packet 3093 - 149.538184 - 88 (174.730000,101.100000) forward to 67 (475.839172,358.399994) using gf  
packet 3195 - 150.894924 - 88 (174.730000,101.100000) forward to 67 (475.839172,358.399994) using gf  
packet 3196 - 152.009908 - 88 (174.730000,101.100000) forward to 67 (475.839172,358.399994) using gf  
packet 3197 - 152.908042 - 88 (174.730000,101.100000) forward to 67 (475.839172,358.399994) using gf  
packet 3198 - 153.699880 - 88 (174.730000,101.100000) forward to 67 (475.839172,358.399994) using gf  
packet 3199 - 154.781740 - 88 (174.730000,101.100000) forward to 67 (475.839172,358.399994) using gf  
packet 3252 - 155.334724 - 88 (174.730000,101.100000) forward to 67 (475.839172,358.399994) using gf  
packet 3291 - 156.290313 - 88 (174.730000,101.100000) forward to 67 (475.839172,358.399994) using gf  
packet 3292 - 157.176045 - 88 (174.730000,101.100000) forward to 67 (475.839172,358.399994) using gf  
packet 3293 - 158.397152 - 88 (174.730000,101.100000) forward to 67 (475.839172,358.399994) using gf  
packet 3294 - 159.437471 - 88 (174.730000,101.100000) forward to 67 (475.839172,358.399994) using gf  
packet 3391 - 160.660076 - 88 (174.730000,101.100000) forward to 67 (475.839172,358.399994) using gf  
packet 3392 - 161.161799 - 88 (174.730000,101.100000) forward to 67 (475.839172,358.399994) using gf  
packet 3393 - 161.818556 - 88 (174.730000,101.100000) forward to 67 (475.839172,358.399994) using gf  
packet 3394 - 162.801150 - 88 (174.730000,101.100000) forward to 67 (475.839172,358.399994) using gf  
packet 3395 - 163.497780 - 88 (174.730000,101.100000) forward to 67 (475.839172,358.399994) using gf  
packet 3396 - 164.418112 - 88 (174.730000,101.100000) forward to 67 (475.839172,358.399994) using gf  
packet 3414 - 165.106316 - 88 (174.730000,101.100000) forward to 67 (475.839172,358.399994) using gf  
packet 3488 - 166.342732 - 88 (174.730000,101.100000) forward to 67 (475.839172,358.399994) using gf  
packet 3489 - 167.408855 - 88 (174.730000,101.100000) forward to 67 (475.839172,358.399994) using gf  
packet 3490 - 168.782241 - 88 (174.730000,101.100000) forward to 67 (475.839172,358.399994) using gf  
packet 3491 - 169.417572 - 88 (174.730000,101.100000) forward to 67 (475.839172,358.399994) using gf  
packet 3589 - 170.792213 - 88 (174.730000,101.100000) forward to 67 (475.839172,358.399994) using gf  
packet 3590 - 171.857158 - 88 (174.730000,101.100000) forward to 67 (475.839172,358.399994) using gf  
packet 3591 - 173.131706 - 88 (174.730000,101.100000) forward to 67 (475.839172,358.399994) using gf  
packet 3592 - 174.180721 - 88 (174.730000,101.100000) forward to 67 (475.839172,358.399994) using gf  
packet 3683 - 175.566473 - 88 (174.730000,101.100000) forward to 67 (475.839172,358.399994) using gf  
packet 3684 - 176.221995 - 88 (174.730000,101.100000) forward to 67 (475.839172,358.399994) using gf  
packet 3685 - 177.693565 - 88 (174.730000,101.100000) forward to 67 (475.839172,358.399994) using gf  
packet 3686 - 178.226792 - 88 (174.730000,101.100000) forward to 67 (475.839172,358.399994) using gf  
packet 3687 - 179.197296 - 88 (174.730000,101.100000) forward to 67 (475.839172,358.399994) using gf  
packet 3708 - 180.122508 - 88 (174.730000,101.100000) forward to 67 (475.839172,358.399994) using gf  
packet 3781 - 181.572905 - 88 (174.730000,101.100000) forward to 67 (475.839172,358.399994) using gf  
packet 3782 - 182.073279 - 88 (174.730000,101.100000) forward to 67 (475.839172,358.399994) using gf  
packet 3783 - 182.647889 - 88 (174.730000,101.100000) forward to 67 (475.839172,358.399994) using gf  
packet 3784 - 184.023920 - 88 (174.730000,101.100000) forward to 67 (475.839172,358.399994) using gf  
packet 3785 - 184.549564 - 88 (174.730000,101.100000) forward to 67 (475.839172,358.399994) using gf  
packet 3826 - 185.264299 - 88 (174.730000,101.100000) forward to 67 (475.839172,358.399994) using gf  
packet 3877 - 186.745189 - 88 (174.730000,101.100000) forward to 67 (475.839172,358.399994) using gf  
packet 3878 - 187.696418 - 88 (174.730000,101.100000) forward to 67 (475.839172,358.399994) using gf  
packet 3879 - 189.080741 - 88 (174.730000,101.100000) forward to 67 (475.839172,358.399994) using gf  
packet 3891 - 190.028768 - 88 (174.730000,101.100000) forward to 67 (475.839172,358.399994) using gf  
packet 3974 - 191.402891 - 88 (174.730000,101.100000) forward to 67 (475.839172,358.399994) using gf  
packet 3975 - 192.125376 - 88 (174.730000,101.100000) forward to 67 (475.839172,358.399994) using gf  
packet 3976 - 193.066507 - 88 (174.730000,101.100000) forward to 67 (475.839172,358.399994) using gf  
packet 3977 - 193.988743 - 88 (174.730000,101.100000) forward to 67 (475.839172,358.399994) using gf  
packet 3978 - 194.517698 - 88 (174.730000,101.100000) forward to 67 (475.839172,358.399994) using gf  
