packet 216 - 10.000000 - 68 (174.730000,101.100000) forward to 60 (309.100006,453.350006) using gf  
packet 353 - 11.322639 - 68 (174.730000,101.100000) forward to 60 (309.100006,453.350006) using gf  
packet 353 - 11.328331 - 60 (309.100000,453.350000) forward to 69 (603.049988,607.299988) using gf  
packet 354 - 12.419655 - 68 (174.730000,101.100000) forward to 60 (309.100006,453.350006) using gf  
packet 354 - 12.421651 - 60 (309.100000,453.350000) forward to 69 (603.049988,607.299988) using gf  
packet 355 - 13.837425 - 68 (174.730000,101.100000) forward to 60 (309.100006,453.350006) using gf  
packet 355 - 13.839301 - 60 (309.100000,453.350000) forward to 69 (603.049988,607.299988) using gf  
packet 358 - 15.018422 - 68 (174.730000,101.100000) forward to 60 (309.100006,453.350006) using gf  
packet 358 - 15.020438 - 60 (309.100000,453.350000) forward to 69 (603.049988,607.299988) using gf  
packet 427 - 15.810371 - 68 (174.730000,101.100000) forward to 60 (309.100006,453.350006) using gf  
packet 427 - 15.812407 - 60 (309.100000,453.350000) forward to 69 (603.049988,607.299988) using gf  
packet 428 - 17.254619 - 68 (174.730000,101.100000) forward to 60 (309.100006,453.350006) using gf  
packet 428 - 17.256915 - 60 (309.100000,453.350000) forward to 69 (603.049988,607.299988) using gf  
packet 429 - 17.971686 - 68 (174.730000,101.100000) forward to 60 (309.100006,453.350006) using gf  
packet 429 - 17.973822 - 60 (309.100000,453.350000) forward to 69 (603.049988,607.299988) using gf  
packet 430 - 18.656957 - 68 (174.730000,101.100000) forward to 60 (309.100006,453.350006) using gf  
packet 430 - 18.659252 - 60 (309.100000,453.350000) forward to 69 (603.049988,607.299988) using gf  
packet 431 - 19.191293 - 68 (174.730000,101.100000) forward to 60 (309.100006,453.350006) using gf  
packet 431 - 19.193629 - 60 (309.100000,453.350000) forward to 69 (603.049988,607.299988) using gf  
packet 465 - 20.274529 - 68 (174.730000,101.100000) forward to 60 (309.100006,453.350006) using gf  
packet 465 - 20.276565 - 60 (309.100000,453.350000) forward to 69 (603.049988,607.299988) using gf  
packet 505 - 21.032512 - 68 (174.730000,101.100000) forward to 60 (309.100006,453.350006) using gf  
packet 505 - 21.034587 - 60 (309.100000,453.350000) forward to 69 (603.049988,607.299988) using gf  
packet 506 - 22.398484 - 68 (174.730000,101.100000) forward to 60 (309.100006,453.350006) using gf  
packet 506 - 22.400880 - 60 (309.100000,453.350000) forward to 69 (603.049988,607.299988) using gf  
packet 507 - 22.974605 - 68 (174.730000,101.100000) forward to 60 (309.100006,453.350006) using gf  
packet 507 - 22.976941 - 60 (309.100000,453.350000) forward to 69 (603.049988,607.299988) using gf  
packet 508 - 23.831878 - 68 (174.730000,101.100000) forward to 60 (309.100006,453.350006) using gf  
packet 508 - 23.833854 - 60 (309.100000,453.350000) forward to 69 (603.049988,607.299988) using gf  
packet 509 - 24.841035 - 68 (174.730000,101.100000) forward to 60 (309.100006,453.350006) using gf  
packet 509 - 24.843411 - 60 (309.100000,453.350000) forward to 69 (603.049988,607.299988) using gf  
packet 580 - 25.933366 - 68 (174.730000,101.100000) forward to 60 (309.100006,453.350006) using gf  
packet 580 - 25.935762 - 60 (309.100000,453.350000) forward to 69 (603.049988,607.299988) using gf  
packet 581 - 27.012517 - 68 (174.730000,101.100000) forward to 60 (309.100006,453.350006) using gf  
packet 581 - 27.014373 - 60 (309.100000,453.350000) forward to 69 (603.049988,607.299988) using gf  
packet 582 - 28.040918 - 68 (174.730000,101.100000) forward to 60 (309.100006,453.350006) using gf  
packet 582 - 28.043233 - 60 (309.100000,453.350000) forward to 69 (603.049988,607.299988) using gf  
packet 583 - 28.814422 - 68 (174.730000,101.100000) forward to 60 (309.100006,453.350006) using gf  
packet 583 - 28.816778 - 60 (309.100000,453.350000) forward to 69 (603.049988,607.299988) using gf  
packet 605 - 30.160385 - 68 (174.730000,101.100000) forward to 60 (309.100006,453.350006) using gf  
packet 605 - 30.162760 - 60 (309.100000,453.350000) forward to 69 (603.049988,607.299988) using gf  
packet 658 - 31.524767 - 68 (174.730000,101.100000) forward to 60 (309.100006,453.350006) using gf  
packet 658 - 31.526603 - 60 (309.100000,453.350000) forward to 69 (603.049988,607.299988) using gf  
packet 659 - 32.051681 - 68 (174.730000,101.100000) forward to 60 (309.100006,453.350006) using gf  
packet 659 - 32.054117 - 60 (309.100000,453.350000) forward to 69 (603.049988,607.299988) using gf  
packet 660 - 32.951701 - 68 (174.730000,101.100000) forward to 60 (309.100006,453.350006) using gf  
packet 660 - 32.953737 - 60 (309.100000,453.350000) forward to 69 (603.049988,607.299988) using gf  
packet 661 - 33.663604 - 68 (174.730000,101.100000) forward to 60 (309.100006,453.350006) using gf  
packet 661 - 33.665479 - 60 (309.100000,453.350000) forward to 69 (603.049988,607.299988) using gf  
packet 662 - 34.413767 - 68 (174.730000,101.100000) forward to 60 (309.100006,453.350006) using gf  
packet 662 - 34.415663 - 60 (309.100000,453.350000) forward to 69 (603.049988,607.299988) using gf  
packet 673 - 35.072802 - 68 (174.730000,101.100000) forward to 60 (309.100006,453.350006) using gf  
packet 673 - 35.074898 - 60 (309.100000,453.350000) forward to 69 (603.049988,607.299988) using gf  
packet 734 - 35.645977 - 68 (174.730000,101.100000) forward to 60 (309.100006,453.350006) using gf  
packet 734 - 35.648153 - 60 (309.100000,453.350000) forward to 69 (603.049988,607.299988) using gf  
packet 735 - 36.265063 - 68 (174.730000,101.100000) forward to 60 (309.100006,453.350006) using gf  
packet 735 - 36.267499 - 60 (309.100000,453.350000) forward to 69 (603.049988,607.299988) using gf  
packet 736 - 37.165586 - 68 (174.730000,101.100000) forward to 60 (309.100006,453.350006) using gf  
packet 736 - 37.167501 - 60 (309.100000,453.350000) forward to 69 (603.049988,607.299988) using gf  
packet 737 - 37.897773 - 68 (174.730000,101.100000) forward to 60 (309.100006,453.350006) using gf  
packet 737 - 37.900148 - 60 (309.100000,453.350000) forward to 69 (603.049988,607.299988) using gf  
packet 738 - 38.674878 - 68 (174.730000,101.100000) forward to 60 (309.100006,453.350006) using gf  
packet 738 - 38.676734 - 60 (309.100000,453.350000) forward to 69 (603.049988,607.299988) using gf  
packet 756 - 40.104107 - 68 (174.730000,101.100000) forward to 60 (309.100006,453.350006) using gf  
packet 756 - 40.106123 - 60 (309.100000,453.350000) forward to 69 (603.049988,607.299988) using gf  
packet 815 - 41.046646 - 68 (174.730000,101.100000) forward to 60 (309.100006,453.350006) using gf  
packet 815 - 41.048642 - 60 (309.100000,453.350000) forward to 69 (603.049988,607.299988) using gf  
packet 816 - 42.484023 - 68 (174.730000,101.100000) forward to 60 (309.100006,453.350006) using gf  
packet 816 - 42.486419 - 60 (309.100000,453.350000) forward to 69 (603.049988,607.299988) using gf  
packet 817 - 43.062301 - 68 (174.730000,101.100000) forward to 60 (309.100006,453.350006) using gf  
packet 817 - 43.064377 - 60 (309.100000,453.350000) forward to 69 (603.049988,607.299988) using gf  
packet 818 - 43.725638 - 68 (174.730000,101.100000) forward to 60 (309.100006,453.350006) using gf  
packet 818 - 43.727673 - 60 (309.100000,453.350000) forward to 69 (603.049988,607.299988) using gf  
packet 819 - 44.397366 - 68 (174.730000,101.100000) forward to 60 (309.100006,453.350006) using gf  
packet 819 - 44.399662 - 60 (309.100000,453.350000) forward to 69 (603.049988,607.299988) using gf  
packet 820 - 45.008924 - 68 (174.730000,101.100000) forward to 60 (309.100006,453.350006) using gf  
packet 820 - 45.011179 - 60 (309.100000,453.350000) forward to 69 (603.049988,607.299988) using gf  
packet 891 - 45.974423 - 68 (174.730000,101.100000) forward to 60 (309.100006,453.350006) using gf  
packet 891 - 45.976499 - 60 (309.100000,453.350000) forward to 69 (603.049988,607.299988) using gf  
packet 892 - 46.973226 - 68 (174.730000,101.100000) forward to 60 (309.100006,453.350006) using gf  
packet 892 - 46.975521 - 60 (309.100000,453.350000) forward to 69 (603.049988,607.299988) using gf  
packet 893 - 47.639569 - 68 (174.730000,101.100000) forward to 60 (309.100006,453.350006) using gf  
packet 893 - 47.641545 - 60 (309.100000,453.350000) forward to 69 (603.049988,607.299988) using gf  
packet 894 - 49.092128 - 68 (174.730000,101.100000) forward to 60 (309.100006,453.350006) using gf  
packet 894 - 49.094384 - 60 (309.100000,453.350000) forward to 69 (603.049988,607.299988) using gf  
packet 895 - 49.688478 - 68 (174.730000,101.100000) forward to 60 (309.100006,453.350006) using gf  
packet 895 - 49.690434 - 60 (309.100000,453.350000) forward to 69 (603.049988,607.299988) using gf  
packet 970 - 50.856868 - 68 (174.730000,101.100000) forward to 60 (309.100006,453.350006) using gf  
packet 970 - 50.858704 - 60 (309.100000,453.350000) forward to 69 (603.049988,607.299988) using gf  
packet 971 - 52.249929 - 68 (174.730000,101.100000) forward to 60 (309.100006,453.350006) using gf  
packet 971 - 52.252005 - 60 (309.100000,453.350000) forward to 69 (603.049988,607.299988) using gf  
packet 972 - 52.897732 - 68 (174.730000,101.100000) forward to 60 (309.100006,453.350006) using gf  
packet 972 - 52.899908 - 60 (309.100000,453.350000) forward to 69 (603.049988,607.299988) using gf  
packet 973 - 54.142326 - 68 (174.730000,101.100000) forward to 60 (309.100006,453.350006) using gf  
packet 973 - 54.144341 - 60 (309.100000,453.350000) forward to 69 (603.049988,607.299988) using gf  
packet 1044 - 55.617872 - 68 (174.730000,101.100000) forward to 60 (309.100006,453.350006) using gf  
packet 1044 - 55.619788 - 60 (309.100000,453.350000) forward to 69 (603.049988,607.299988) using gf  
packet 1045 - 56.727187 - 68 (174.730000,101.100000) forward to 60 (309.100006,453.350006) using gf  
packet 1045 - 56.729483 - 60 (309.100000,453.350000) forward to 69 (603.049988,607.299988) using gf  
packet 1046 - 57.286285 - 68 (174.730000,101.100000) forward to 60 (309.100006,453.350006) using gf  
packet 1046 - 57.288420 - 60 (309.100000,453.350000) forward to 69 (603.049988,607.299988) using gf  
packet 1047 - 57.820327 - 68 (174.730000,101.100000) forward to 60 (309.100006,453.350006) using gf  
packet 1047 - 57.822622 - 60 (309.100000,453.350000) forward to 69 (603.049988,607.299988) using gf  
packet 1048 - 58.851460 - 68 (174.730000,101.100000) forward to 60 (309.100006,453.350006) using gf  
packet 1048 - 58.853656 - 60 (309.100000,453.350000) forward to 69 (603.049988,607.299988) using gf  
packet 1059 - 60.030843 - 68 (174.730000,101.100000) forward to 60 (309.100006,453.350006) using gf  
packet 1059 - 60.033039 - 60 (309.100000,453.350000) forward to 69 (603.049988,607.299988) using gf  
packet 1125 - 60.615337 - 68 (174.730000,101.100000) forward to 60 (309.100006,453.350006) using gf  
packet 1125 - 60.617533 - 60 (309.100000,453.350000) forward to 69 (603.049988,607.299988) using gf  
packet 1126 - 61.119202 - 68 (174.730000,101.100000) forward to 60 (309.100006,453.350006) using gf  
packet 1126 - 61.121578 - 60 (309.100000,453.350000) forward to 69 (603.049988,607.299988) using gf  
packet 1127 - 62.130974 - 68 (174.730000,101.100000) forward to 60 (309.100006,453.350006) using gf  
packet 1127 - 62.132830 - 60 (309.100000,453.350000) forward to 69 (603.049988,607.299988) using gf  
packet 1128 - 63.607324 - 68 (174.730000,101.100000) forward to 60 (309.100006,453.350006) using gf  
packet 1128 - 63.609220 - 60 (317.191614,457.115525) forward to 69 (603.049988,607.299988) using gf  
packet 1129 - 64.183285 - 68 (174.730000,101.100000) forward to 60 (309.100006,453.350006) using gf  
packet 1129 - 64.185440 - 60 (324.803671,460.659316) forward to 69 (603.049988,607.299988) using gf  
packet 1161 - 65.266263 - 68 (174.730000,101.100000) forward to 47 (240.970001,469.410004) using gf  
packet 1201 - 65.919929 - 68 (174.730000,101.100000) forward to 47 (240.970001,469.410004) using gf  
packet 1202 - 66.964710 - 68 (174.730000,101.100000) forward to 47 (240.970001,469.410004) using gf  
packet 1203 - 68.089419 - 68 (174.730000,101.100000) forward to 47 (240.970001,469.410004) using gf  
packet 1204 - 69.533859 - 68 (174.730000,101.100000) forward to 47 (240.970001,469.410004) using gf  
packet 1282 - 70.771890 - 68 (174.730000,101.100000) forward to 47 (240.970001,469.410004) using gf  
packet 1283 - 72.009925 - 68 (174.730000,101.100000) forward to 47 (240.970001,469.410004) using gf  
packet 1284 - 72.689773 - 68 (174.730000,101.100000) forward to 47 (240.970001,469.410004) using gf  
packet 1285 - 73.532679 - 68 (174.730000,101.100000) forward to 47 (240.970001,469.410004) using gf  
packet 1286 - 74.875515 - 68 (174.730000,101.100000) forward to 47 (240.970001,469.410004) using gf  
packet 1357 - 76.171783 - 68 (174.730000,101.100000) forward to 47 (240.970001,469.410004) using gf  
packet 1358 - 76.877890 - 68 (174.730000,101.100000) forward to 47 (240.970001,469.410004) using gf  
packet 1359 - 78.226079 - 68 (174.730000,101.100000) forward to 47 (240.970001,469.410004) using gf  
packet 1360 - 78.757392 - 68 (174.730000,101.100000) forward to 47 (240.970001,469.410004) using gf  
packet 1361 - 79.737181 - 68 (174.730000,101.100000) forward to 47 (240.970001,469.410004) using gf  
packet 1438 - 80.789635 - 68 (174.730000,101.100000) forward to 47 (240.970001,469.410004) using gf  
packet 1439 - 82.172350 - 68 (174.730000,101.100000) forward to 47 (240.970001,469.410004) using gf  
packet 1440 - 82.922606 - 68 (174.730000,101.100000) forward to 47 (240.970001,469.410004) using gf  
packet 1441 - 84.370236 - 68 (174.730000,101.100000) forward to 47 (240.970001,469.410004) using gf  
packet 1442 - 84.879184 - 68 (174.730000,101.100000) forward to 47 (240.970001,469.410004) using gf  
packet 1513 - 86.232850 - 68 (174.730000,101.100000) forward to 47 (240.970001,469.410004) using gf  
packet 1514 - 87.049158 - 68 (174.730000,101.100000) forward to 47 (240.970001,469.410004) using gf  
packet 1515 - 87.705931 - 68 (174.730000,101.100000) forward to 47 (240.970001,469.410004) using gf  
packet 1516 - 88.599785 - 68 (174.730000,101.100000) forward to 47 (240.970001,469.410004) using gf  
packet 1531 - 90.077685 - 68 (174.730000,101.100000) forward to 47 (240.970001,469.410004) using gf  
packet 1592 - 91.566509 - 68 (174.730000,101.100000) forward to 47 (240.970001,469.410004) using gf  
packet 1593 - 93.023566 - 68 (174.730000,101.100000) forward to 47 (240.970001,469.410004) using gf  
packet 1594 - 94.155571 - 68 (174.730000,101.100000) forward to 47 (240.970001,469.410004) using gf  
packet 1595 - 94.775840 - 68 (174.730000,101.100000) forward to 47 (240.970001,469.410004) using gf  
packet 1666 - 95.532060 - 68 (174.730000,101.100000) forward to 47 (240.970001,469.410004) using gf  
packet 1667 - 96.175026 - 68 (174.730000,101.100000) forward to 47 (240.970001,469.410004) using gf  
packet 1668 - 97.381347 - 68 (174.730000,101.100000) forward to 47 (240.970001,469.410004) using gf  
packet 1669 - 98.869129 - 68 (174.730000,101.100000) forward to 47 (240.970001,469.410004) using gf  
packet 1670 - 99.553530 - 68 (174.730000,101.100000) forward to 47 (240.970001,469.410004) using gf  
packet 1744 - 100.597168 - 68 (174.730000,101.100000) forward to 47 (240.970001,469.410004) using gf  
packet 1745 - 101.816553 - 68 (174.730000,101.100000) forward to 47 (240.970001,469.410004) using gf  
packet 1746 - 102.605877 - 68 (174.730000,101.100000) forward to 47 (240.970001,469.410004) using gf  
packet 1747 - 103.505473 - 68 (174.730000,101.100000) forward to 47 (240.970001,469.410004) using gf  
packet 1748 - 104.718784 - 68 (174.730000,101.100000) forward to 47 (240.970001,469.410004) using gf  
packet 1819 - 105.669265 - 68 (174.730000,101.100000) forward to 47 (240.970001,469.410004) using gf  
packet 1820 - 106.908381 - 68 (174.730000,101.100000) forward to 47 (240.970001,469.410004) using gf  
packet 1821 - 108.399388 - 68 (174.730000,101.100000) forward to 47 (240.970001,469.410004) using gf  
packet 1822 - 109.472493 - 68 (174.730000,101.100000) forward to 47 (240.970001,469.410004) using gf  
packet 1897 - 110.848178 - 68 (174.730000,101.100000) forward to 47 (240.970001,469.410004) using gf  
packet 1898 - 112.346542 - 68 (174.730000,101.100000) forward to 47 (240.970001,469.410004) using gf  
packet 1899 - 113.078051 - 68 (174.730000,101.100000) forward to 47 (240.970001,469.410004) using gf  
packet 1900 - 113.637836 - 68 (174.730000,101.100000) forward to 47 (240.970001,469.410004) using gf  
packet 1913 - 115.099658 - 68 (174.730000,101.100000) forward to 47 (240.970001,469.410004) using gf  
packet 1972 - 115.886073 - 68 (174.730000,101.100000) forward to 47 (240.970001,469.410004) using gf  
packet 1973 - 116.958310 - 68 (174.730000,101.100000) forward to 47 (240.970001,469.410004) using gf  
packet 1974 - 117.581149 - 68 (174.730000,101.100000) forward to 47 (240.970001,469.410004) using gf  
packet 1975 - 118.904602 - 68 (174.730000,101.100000) forward to 47 (240.970001,469.410004) using gf  
packet 1976 - 119.926248 - 68 (174.730000,101.100000) forward to 47 (240.970001,469.410004) using gf  
packet 2050 - 121.344103 - 68 (174.730000,101.100000) forward to 47 (240.970001,469.410004) using gf  
packet 2051 - 122.747683 - 68 (174.730000,101.100000) forward to 47 (240.970001,469.410004) using gf  
packet 2052 - 123.624250 - 68 (174.730000,101.100000) forward to 47 (240.970001,469.410004) using gf  
packet 2053 - 124.710948 - 68 (174.730000,101.100000) forward to 47 (240.970001,469.410004) using gf  
packet 2087 - 125.287483 - 68 (174.730000,101.100000) forward to 47 (240.970001,469.410004) using gf  
packet 2125 - 126.305600 - 68 (174.730000,101.100000) forward to 47 (240.970001,469.410004) using gf  
packet 2126 - 127.040366 - 68 (174.730000,101.100000) forward to 47 (240.970001,469.410004) using gf  
packet 2127 - 128.254100 - 68 (174.730000,101.100000) forward to 47 (240.970001,469.410004) using gf  
packet 2128 - 128.964542 - 68 (174.730000,101.100000) forward to 47 (240.970001,469.410004) using gf  
packet 2152 - 130.183099 - 68 (174.730000,101.100000) forward to 47 (240.970001,469.410004) using gf  
packet 2202 - 130.800256 - 68 (174.730000,101.100000) forward to 47 (240.970001,469.410004) using gf  
packet 2203 - 131.899369 - 68 (174.730000,101.100000) forward to 47 (240.970001,469.410004) using gf  
packet 2204 - 133.357826 - 68 (174.730000,101.100000) forward to 47 (240.970001,469.410004) using gf  
packet 2205 - 133.858165 - 68 (174.730000,101.100000) forward to 47 (240.970001,469.410004) using gf  
packet 2206 - 134.428234 - 68 (174.730000,101.100000) forward to 47 (240.970001,469.410004) using gf  
packet 2228 - 135.182153 - 68 (174.730000,101.100000) forward to 47 (240.970001,469.410004) using gf  
packet 2278 - 136.534685 - 68 (174.730000,101.100000) forward to 47 (240.970001,469.410004) using gf  
packet 2279 - 137.802194 - 68 (174.730000,101.100000) forward to 47 (240.970001,469.410004) using gf  
packet 2280 - 139.012149 - 68 (174.730000,101.100000) forward to 47 (240.970001,469.410004) using gf  
packet 2298 - 140.105216 - 68 (174.730000,101.100000) forward to 47 (240.970001,469.410004) using gf  
packet 2357 - 140.834112 - 68 (174.730000,101.100000) forward to 47 (240.970001,469.410004) using gf  
packet 2358 - 142.122698 - 68 (174.730000,101.100000) forward to 47 (240.970001,469.410004) using gf  
packet 2359 - 143.539118 - 68 (174.730000,101.100000) forward to 47 (240.970001,469.410004) using gf  
packet 2360 - 144.725551 - 68 (174.730000,101.100000) forward to 47 (240.970001,469.410004) using gf  
packet 2430 - 145.492065 - 68 (174.730000,101.100000) forward to 47 (240.970001,469.410004) using gf  
packet 2432 - 146.031473 - 68 (174.730000,101.100000) forward to 47 (240.970001,469.410004) using gf  
packet 2433 - 147.371165 - 68 (174.730000,101.100000) forward to 47 (240.970001,469.410004) using gf  
packet 2434 - 148.340808 - 68 (174.730000,101.100000) forward to 47 (240.970001,469.410004) using gf  
packet 2435 - 149.323541 - 68 (174.730000,101.100000) forward to 47 (240.970001,469.410004) using gf  
packet 2460 - 150.198724 - 68 (174.730000,101.100000) forward to 47 (240.970001,469.410004) using gf  
packet 2509 - 151.565603 - 68 (174.730000,101.100000) forward to 47 (240.970001,469.410004) using gf  
packet 2510 - 152.265829 - 68 (174.730000,101.100000) forward to 47 (240.970001,469.410004) using gf  
packet 2511 - 153.446065 - 68 (174.730000,101.100000) forward to 47 (240.970001,469.410004) using gf  
packet 2512 - 154.918803 - 68 (174.730000,101.100000) forward to 47 (240.970001,469.410004) using gf  
packet 2583 - 156.294450 - 68 (174.730000,101.100000) forward to 47 (240.970001,469.410004) using gf  
packet 2584 - 157.380687 - 68 (174.730000,101.100000) forward to 47 (240.970001,469.410004) using gf  
packet 2585 - 158.383187 - 68 (174.730000,101.100000) forward to 47 (240.970001,469.410004) using gf  
packet 2586 - 159.441202 - 68 (174.730000,101.100000) forward to 47 (240.970001,469.410004) using gf  
packet 2605 - 160.115168 - 68 (174.730000,101.100000) forward to 47 (240.970001,469.410004) using gf  
packet 2662 - 160.929465 - 68 (174.730000,101.100000) forward to 47 (240.970001,469.410004) using gf  
packet 2663 - 161.598331 - 68 (174.730000,101.100000) forward to 47 (240.970001,469.410004) using gf  
packet 2664 - 162.258805 - 68 (174.730000,101.100000) forward to 47 (240.970001,469.410004) using gf  
packet 2665 - 163.166977 - 68 (174.730000,101.100000) forward to 47 (240.970001,469.410004) using gf  
packet 2666 - 163.932550 - 68 (174.730000,101.100000) forward to 47 (240.970001,469.410004) using gf  
packet 2670 - 165.024507 - 68 (174.730000,101.100000) forward to 47 (240.970001,469.410004) using gf  
packet 2738 - 165.596459 - 68 (174.730000,101.100000) forward to 47 (240.970001,469.410004) using gf  
packet 2739 - 166.780101 - 68 (174.730000,101.100000) forward to 47 (240.970001,469.410004) using gf  
packet 2740 - 168.019296 - 68 (174.730000,101.100000) forward to 47 (240.970001,469.410004) using gf  
packet 2741 - 169.322036 - 68 (174.730000,101.100000) forward to 47 (240.970001,469.410004) using gf  
packet 2742 - 169.883516 - 68 (174.730000,101.100000) forward to 47 (240.970001,469.410004) using gf  
packet 2809 - 170.434935 - 68 (174.730000,101.100000) forward to 47 (240.970001,469.410004) using gf  
packet 2820 - 171.417174 - 68 (174.730000,101.100000) forward to 47 (240.970001,469.410004) using gf  
packet 2821 - 172.029752 - 68 (174.730000,101.100000) forward to 47 (240.970001,469.410004) using gf  
packet 2822 - 173.527941 - 68 (174.730000,101.100000) forward to 47 (240.970001,469.410004) using gf  
packet 2823 - 174.044973 - 68 (174.730000,101.100000) forward to 47 (240.970001,469.410004) using gf  
packet 2838 - 175.118777 - 68 (174.730000,101.100000) forward to 47 (240.970001,469.410004) using gf  
packet 2895 - 175.978681 - 68 (174.730000,101.100000) forward to 47 (240.970001,469.410004) using gf  
packet 2896 - 176.685783 - 68 (174.730000,101.100000) forward to 47 (240.970001,469.410004) using gf  
packet 2897 - 177.578137 - 68 (174.730000,101.100000) forward to 47 (240.970001,469.410004) using gf  
packet 2898 - 178.980855 - 68 (174.730000,101.100000) forward to 47 (240.970001,469.410004) using gf  
packet 2899 - 179.629877 - 68 (174.730000,101.100000) forward to 47 (240.970001,469.410004) using gf  
packet 2972 - 181.054843 - 68 (174.730000,101.100000) forward to 47 (240.970001,469.410004) using gf  
packet 2973 - 182.066618 - 68 (174.730000,101.100000) forward to 47 (240.970001,469.410004) using gf  
packet 2974 - 183.329099 - 68 (174.730000,101.100000) forward to 47 (240.970001,469.410004) using gf  
packet 2975 - 184.241356 - 68 (174.730000,101.100000) forward to 47 (240.970001,469.410004) using gf  
packet 2997 - 185.180044 - 68 (174.730000,101.100000) forward to 47 (240.970001,469.410004) using gf  
packet 3047 - 186.381053 - 68 (174.730000,101.100000) forward to 47 (240.970001,469.410004) using gf  
packet 3048 - 187.488634 - 68 (174.730000,101.100000) forward to 47 (240.970001,469.410004) using gf  
packet 3049 - 188.128238 - 68 (174.730000,101.100000) forward to 47 (240.970001,469.410004) using gf  
packet 3050 - 188.751838 - 68 (174.730000,101.100000) forward to 47 (240.970001,469.410004) using gf  
packet 3051 - 189.692403 - 68 (174.730000,101.100000) forward to 47 (240.970001,469.410004) using gf  
packet 3124 - 191.069644 - 68 (174.730000,101.100000) forward to 47 (240.970001,469.410004) using gf  
packet 3125 - 191.768146 - 68 (174.730000,101.100000) forward to 47 (240.970001,469.410004) using gf  
packet 3126 - 193.261747 - 68 (174.730000,101.100000) forward to 47 (240.970001,469.410004) using gf  
packet 3127 - 194.256471 - 68 (174.730000,101.100000) forward to 47 (240.970001,469.410004) using gf  
